"102.44416","48.515366","807160","0.13880743"
"102.44416","48.515366","807192","0.16715543"
"102.56417","48.255333","807226","0.34995112"
"102.61418","48.15532","807276","0.4916911"
"102.61418","48.15532","807292","0.51906157"
"102.48416","48.055313","807309","0.5474096"
"102.364136","48.025307","807326","0.56793743"
"102.24413","47.985302","807342","0.58064514"
"102.13411","47.9453","807359","0.58162266"
"102.13411","47.9353","807376","0.5835777"
"102.0341","47.84529","807392","0.5845552"
"102.00409","47.725273","807409","0.5855327"
"101.89408","47.58526","807426","0.5982405"
"101.84407","47.485245","807442","0.6031281"
"101.64405","47.215218","807459","0.6031281"
"101.44402","46.895184","807476","0.61290324"
"101.15398","46.41513","807492","0.6177908"
"100.96395","46.105095","807509","0.61876833"
"100.78392","45.855072","807526","0.61974585"
"100.6239","45.635044","807542","0.6217009"
"100.463875","45.39502","807559","0.62463343"
"100.16385","45.06498","807576","0.63734114"
"99.963806","44.884964","807592","0.64320624"
"99.76379","44.664936","807609","0.64320624"
"99.56376","44.42491","807626","0.64320624"
"99.34372","44.19488","807642","0.64320624"
"99.03369","43.87485","807659","0.64418375"
"98.80365","43.654827","807676","0.6461388"
"98.533615","43.4148","807692","0.6480938"
"98.25358","43.17477","807709","0.65102637"
"98.08355","42.824734","807726","0.6608016"
"97.80352","42.62471","807742","0.65884656"
"97.073425","41.774616","807809","0.65786904"
"96.90339","41.6046","807826","0.65786904"
"96.81338","41.554596","807842","0.65786904"
"96.48333","41.354572","807859","0.66471165"
"96.11327","41.114544","807876","0.67155427"
"95.91325","40.97453","807892","0.67057675"
"95.72323","40.824512","807909","0.66959924"
"95.5432","40.764503","807926","0.6686217"
"95.363174","40.694496","807942","0.6686217"
"95.09314","40.55448","807959","0.67057675"
"94.91312","40.53448","807976","0.66959924"
"94.72308","40.52448","807992","0.67057675"
"94.50306","40.52448","808009","0.67057675"
"94.28302","40.63449","808026","0.6686217"
"93.892975","40.79451","808042","0.6666667"
"93.63294","41.004536","808059","0.6666667"
"93.3729","41.194553","808076","0.6656892"
"93.13287","41.404575","808092","0.66471165"
"92.73281","41.754616","808109","0.6617791"
"92.49278","41.97464","808126","0.6598241"
"92.25275","42.15466","808142","0.65884656"
"91.98271","42.324677","808159","0.65884656"
"91.69267","42.5247","808176","0.65689147"
"91.062584","42.86474","808192","0.6617791"
"90.71253","43.164772","808209","0.65786904"
"90.42249","43.474804","808226","0.65102637"
"90.142456","43.68483","808242","0.64907134"
"89.892426","43.854847","808259","0.6471163"
"89.59238","44.054867","808276","0.6451613"
"89.452354","44.084873","808292","0.64418375"
"89.452354","44.084873","808309","0.6451613"
"89.35235","44.084873","808319","0.6451613"
"89.47237","44.004864","808342","0.6451613"
"89.69239","43.86485","808359","0.6461388"
"89.98243","43.69483","808376","0.6480938"
"90.28247","43.514812","808392","0.65004885"
"90.59252","43.264782","808409","0.65786904"
"91.08259","42.744724","808426","0.65786904"
"91.47263","42.454693","808442","0.6598241"
"91.822685","42.15466","808459","0.65884656"
"92.122734","41.874626","808476","0.6617791"
"92.61279","41.494587","808492","0.66373414"
"92.93284","41.23456","808509","0.6656892"
"93.23288","40.984528","808526","0.6676442"
"93.50293","40.744507","808542","0.67057675"
"93.762955","40.55448","808559","0.6725318"
"94.123","40.32446","808576","0.6735093"
"94.32304","40.16444","808592","0.6744868"
"94.41305","40.114437","808609","0.6783969"
"94.52306","39.97442","808626","0.6803519"
"94.573074","39.874405","808642","0.6803519"
"94.69309","39.8144","808659","0.68230695"
"94.72308","39.684387","808676","0.68328446"
"94.72308","39.594376","808692","0.684262"
"94.69309","39.494366","808709","0.684262"
"94.51306","39.27434","808726","0.6871945"
"94.39305","39.16433","808742","0.6871945"
"94.26302","39.08432","808759","0.6871945"
"94.133","39.054317","808776","0.686217"
"94.00299","38.964306","808789","0.686217"
"93.892975","38.9243","808809","0.6852395"
"93.78295","38.834293","808826","0.686217"
"93.65294","38.73428","808842","0.686217"
"93.40291","38.494255","808859","0.684262"
"93.262886","38.304234","808876","0.68328446"
"93.08286","37.9942","808892","0.6979472"
"92.97285","37.874187","808909","0.71163243"
"92.86282","37.76417","808925","0.7106549"
"92.73281","37.64416","808942","0.7106549"
"92.6028","37.504147","808955","0.7096774"
"92.462776","37.354126","808976","0.70772237"
"92.33276","37.19411","808992","0.70576733"
"92.212746","37.054096","809009","0.7047898"
"92.09273","36.92408","809026","0.7047898"
"91.822685","36.614048","809042","0.7028348"
"91.70267","36.43403","809059","0.70087975"
"91.522644","36.204002","809076","0.6989247"
"91.24261","35.98398","809092","0.70185727"
"90.93256","35.583935","809109","0.7028348"
"90.75254","35.223892","809126","0.70185727"
"90.602516","34.973866","809142","0.69990224"
"90.4425","34.783844","809159","0.6969697"
"90.272484","34.583824","809176","0.69403714"
"89.972435","34.30379","809192","0.6920821"
"89.762405","34.133774","809209","0.6911046"
"89.59238","33.943752","809226","0.6871945"
"89.422356","33.77373","809242","0.684262"
"89.33235","33.693726","809259","0.6813294"
"88.9823","33.393692","809276","0.6793744"
"88.80228","33.263676","809292","0.67741936"
"88.572235","33.02365","809309","0.6676442"
"88.322205","32.66361","809326","0.684262"
"87.99216","32.313572","809342","0.71163243"
"87.79213","32.153553","809359","0.7086999"
"87.602104","31.983534","809376","0.70674485"
"87.41208","31.783512","809392","0.70576733"
"87.21205","31.57349","809409","0.7047898"
"87.002014","31.283459","809426","0.70087975"
"86.852","31.083435","809442","0.69990224"
"86.66197","30.86341","809459","0.6969697"
"86.48195","30.593382","809476","0.6959922"
"86.26192","30.273346","809492","0.69501466"
"85.91187","29.923306","809509","0.6959922"
"85.67184","29.673279","809526","0.6959922"
"85.461815","29.423252","809542","0.69403714"
"85.22178","29.163223","809559","0.6930596"
"84.84173","28.713175","809576","0.6911046"
"84.59169","28.443144","809592","0.68817204"
"84.361664","28.173113","809609","0.686217"
"84.111626","27.96309","809626","0.6725318"
"83.83158","27.713064","809642","0.65689147"
"83.381516","27.24301","809659","0.6959922"
"83.131485","26.812965","809676","0.71652"
"82.881454","26.33291","809692","0.714565"
"82.64142","25.832855","809709","0.71358746"
"82.18136","25.462814","809726","0.71163243"
"81.86131","25.132778","809742","0.71163243"
"81.531265","24.722734","809759","0.7106549"
"81.20122","24.32269","809776","0.71260995"
"80.93118","23.96265","809792","0.7106549"
"80.59114","23.382584","809809","0.7086999"
"80.351105","22.952538","809826","0.7086999"
"80.08107","22.422478","809842","0.7086999"
"79.81103","21.842415","809859","0.7086999"
"79.611","21.35236","809876","0.7096774"
"79.25095","20.742292","809892","0.7086999"
"78.95091","20.372253","809909","0.7096774"
"78.66087","19.952208","809926","0.71260995"
"78.39083","19.582165","809942","0.714565"
"78.06078","19.0121","809959","0.70185727"
"77.87076","18.682066","809976","0.6852395"
"77.690735","18.37203","809992","0.686217"
"77.57072","18.071999","810009","0.6871945"
"77.4507","17.751963","810026","0.68817204"
"77.28068","17.221903","810042","0.6871945"
"77.16067","16.941872","810059","0.68914956"
"77.04064","16.671843","810076","0.6901271"
"76.930626","16.411814","810092","0.6911046"
"76.85062","16.121782","810109","0.6930596"
"76.75061","15.651729","810126","0.6930596"
"76.630585","15.391702","810142","0.686217"
"76.430565","15.131672","810159","0.6793744"
"76.300545","14.851642","810176","0.6783969"
"76.20053","14.451597","810192","0.67741936"
"76.140526","14.191569","810209","0.6666667"
"76.11052","13.951542","810226","0.65591395"
"76.07051","13.771523","810242","0.65591395"
"76.050514","13.591501","810259","0.629521"
"76.03051","13.271467","810276","0.6031281"
"76.0105","13.03144","810292","0.60215056"
"75.970505","12.75141","810309","0.60215056"
"75.93049","12.411372","810326","0.6001955"
"75.90049","11.981325","810342","0.6001955"
"75.840485","11.391259","810359","0.6001955"
"75.78047","11.091227","810376","0.5982405"
"75.72047","10.811195","810392","0.5913978"
"75.65046","10.531164","810409","0.5796676"
"75.59045","10.171124","810426","0.5650049"
"75.57045","9.851089","810442","0.55718476"
"75.57045","9.851089","810459","0.5464321"
"75.48043","9.341033","810476","0.53274685"
"75.48043","8.930987","810492","0.5542522"
"75.48043","8.930987","810509","0.5718475"
"75.500435","8.440932","810526","0.56304985"
"75.500435","8.440932","810542","0.5542522"
"75.49043","7.96088","810559","0.5043988"
"75.49043","7.96088","810576","0.45552298"
"75.54044","7.540834","810592","0.4398827"
"75.54044","7.540834","810609","0.44281524"
"75.72047","7.040778","810626","0.44379276"
"75.72047","7.040778","810642","0.4408602"
"75.970505","6.6407337","810659","0.40860215"
"75.970505","6.6407337","810676","0.40078202"
"76.39056","6.290695","810692","0.39198437"
"76.39056","6.290695","810709","0.39589444"
"76.86063","6.06067","810726","0.40371457"
"77.67073","5.690629","810742","0.3900293"
"78.08079","5.690629","810759","0.3773216"
"78.53085","5.710631","810776","0.38025415"
"78.97092","5.830644","810792","0.3831867"
"79.40097","5.920655","810809","0.37341154"
"79.82103","6.0306664","810820","0.37243402"
"80.23109","6.1806836","810842","0.38025415"
"80.68115","6.360703","810859","0.3841642"
"81.16122","6.6007295","810875","0.3939394"
"82.07134","7.120787","810892","0.43010753"
"82.56141","7.3608136","810909","0.45063537"
"83.02148","7.670848","810925","0.45454547"
"83.48154","7.970881","810942","0.4682307"
"83.96161","8.310919","810959","0.48680353"
"84.47167","8.740967","810975","0.49560118"
"85.24178","9.531054","810992","0.48875856"
"85.741844","10.191126","811009","0.48387095"
"86.28192","10.841199","811025","0.49853373"
"86.91201","11.801304","811042","0.516129"
"87.33206","12.541387","811059","0.53958946"
"87.852135","13.29147","811075","0.5610948"
"88.44222","13.981545","811092","0.5601173"
"89.0223","14.621615","811109","0.5581623"
"89.7724","15.561721","811125","0.56989247"
"90.16246","16.131783","811142","0.5845552"
"90.49251","16.701847","811159","0.599218"
"90.85255","17.321915","811175","0.6089932"
"91.412636","18.232016","811192","0.61388075"
"91.80269","18.742071","811209","0.627566"
"92.122734","19.162119","811225","0.65004885"
"92.422775","19.572165","811242","0.6617791"
"92.74282","19.972208","811259","0.6627566"
"93.262886","20.592276","811275","0.67057675"
"93.65294","21.002321","811292","0.6744868"
"94.05299","21.392365","811309","0.6803519"
"94.403046","21.842415","811325","0.6852395"
"94.72308","22.312468","811342","0.6920821"
"95.153145","23.012545","811359","0.6979472"
"95.51321","23.402584","811375","0.684262"
"95.86324","23.742622","811392","0.68328446"
"96.13329","24.282684","811409","0.6979472"
"96.683365","25.102776","811425","0.70674485"
"96.9534","25.632833","811442","0.7155425"
"97.25344","26.212894","811459","0.7233627"
"97.61349","26.812965","811475","0.73216033"
"98.05355","27.573048","811492","0.7174975"
"98.55362","28.573158","811509","0.70576733"
"98.96368","29.113218","811525","0.7155425"
"99.36374","29.653276","811542","0.7243402"
"99.70378","30.343353","811559","0.73313785"
"100.12383","31.293459","811575","0.74584556"
"100.36387","31.84352","811592","0.75268817"
"100.6039","32.34358","811609","0.7605083"
"100.82394","32.823627","811625","0.7673509"
"101.09397","33.4637","811642","0.75171065"
"101.324005","34.3938","811659","0.72825027"
"101.51403","34.923862","811675","0.73216033"
"101.75406","35.503925","811692","0.7370479"
"102.0541","36.234005","811709","0.73998046"
"102.39415","37.054096","811725","0.742913"
"102.724205","37.954197","811742","0.7614858"
"102.95423","38.44425","811759","0.7497556"
"103.214264","38.854294","811775","0.72238517"
"103.5043","39.22434","811792","0.7233627"
"103.95436","39.7744","811809","0.72629523"
"104.2244","40.184444","811825","0.72727275"
"104.51445","40.60449","811842","0.7253177"
"104.81448","41.08454","811859","0.7243402"
"105.12453","41.5846","811875","0.7253177"
"105.55459","42.24467","811892","0.7243402"
"105.85463","42.714718","811909","0.7311828"
"106.22468","43.214775","811925","0.72727275"
"106.65474","43.744835","811942","0.714565"
"107.08479","44.304897","811959","0.71358746"
"107.72488","45.084984","811975","0.7106549"
"108.18495","45.555035","811992","0.71163243"
"108.585014","46.1551","812009","0.7106549"
"108.96505","46.705162","812025","0.7106549"
"109.49513","47.295227","812042","0.71260995"
"109.90518","47.85529","812059","0.71260995"
"110.36526","48.515366","812075","0.71163243"
"110.82532","49.015423","812092","0.7106549"
"111.235374","49.295452","812109","0.7096774"
"111.785446","49.7655","812125","0.7086999"
"112.20551","50.145542","812142","0.70674485"
"112.61557","50.535587","812159","0.7047898"
"112.97561","50.84562","812175","0.70772237"
"113.48568","51.265667","812192","0.7028348"
"113.835724","51.525692","812209","0.70185727"
"114.185776","51.755726","812225","0.6989247"
"114.58583","52.065758","812242","0.70185727"
"115.035904","52.4758","812259","0.7086999"
"115.545975","53.06587","812275","0.7096774"
"115.85601","53.425903","812292","0.70772237"
"116.20606","53.775944","812309","0.70576733"
"116.61611","54.175987","812325","0.7028348"
"117.056175","54.55603","812342","0.70087975"
"117.696266","55.10609","812359","0.6979472"
"118.116325","55.376118","812375","0.6959922"
"118.47638","55.56614","812392","0.69403714"
"118.75641","55.766163","812409","0.6930596"
"119.15647","56.0862","812425","0.6901271"
"119.446495","56.336227","812442","0.68817204"
"119.79655","56.726273","812459","0.6930596"
"120.24662","57.19632","812475","0.6989247"
"120.586655","57.596367","812492","0.70772237"
"120.96672","57.956406","812509","0.7174975"
"121.27676","58.176434","812525","0.7155425"
"121.5668","58.416454","812542","0.71358746"
"121.74683","58.71649","812559","0.71260995"
"122.06687","59.286552","812575","0.7096774"
"122.47692","59.706596","812592","0.70772237"
"122.80696","60.106644","812609","0.70674485"
"123.08701","60.466682","812625","0.7047898"
"123.33704","60.79672","812642","0.7038123"
"123.457054","61.276775","812659","0.714565"
"123.477066","61.586803","812675","0.7243402"
"123.687096","61.91684","812692","0.73216033"
"123.887115","62.246883","812709","0.740958"
"124.08716","62.55691","812725","0.73998046"
"124.357185","63.116974","812742","0.73411536"
"124.567215","63.537025","812759","0.7311828"
"124.74724","63.967068","812775","0.7302053"
"124.93726","64.36712","812792","0.7302053"
"125.1273","64.93717","812809","0.7302053"
"125.237305","65.277214","812825","0.7302053"
"125.26732","65.55724","812842","0.72825027"
"125.32732","65.79727","812859","0.72727275"
"125.37733","66.00729","812875","0.72629523"
"125.39732","66.20732","812892","0.72043014"
"125.39732","66.20732","812909","0.7155425"
"125.287315","66.297325","812925","0.71163243"
"125.04728","66.18731","812942","0.7086999"
"124.79724","65.91729","812959","0.7086999"
"124.29717","65.32722","812975","0.7106549"
"123.947136","64.93717","812992","0.71260995"
"123.60707","64.58714","813009","0.714565"
"123.33704","64.257095","813025","0.7106549"
"123.01699","63.727043","813042","0.68817204"
"122.61694","63.296997","813059","0.6901271"
"122.17688","62.846943","813075","0.6930596"
"121.88684","62.4069","813092","0.6959922"
"121.606804","61.956852","813109","0.6979472"
"120.92671","61.366783","813125","0.6920821"
"120.64668","61.00675","813142","0.68914956"
"120.426636","60.686707","813159","0.6813294"
"120.16661","60.386673","813175","0.6783969"
"119.89657","60.086643","813192","0.6803519"
"119.51652","59.76661","813209","0.68328446"
"119.286476","59.63659","813225","0.6852395"
"119.09646","59.586582","813242","0.686217"
"118.996445","59.566586","813259","0.686217"
"118.75641","59.586582","813275","0.6871945"
"118.68639","59.856617","813309","0.6871945"
"118.6764","60.176655","813325","0.686217"
"118.706406","60.586697","813342","0.6852395"
"118.92644","61.206764","813359","0.68328446"
"119.05646","61.606808","813375","0.6871945"
"119.296486","62.02686","813392","0.68914956"
"119.61653","62.4169","813409","0.6871945"
"119.97658","62.946957","813425","0.684262"
"120.176605","63.276993","813442","0.68328446"
"120.39664","63.60703","813459","0.68230695"
"120.50666","63.98707","813475","0.6911046"
"120.62667","64.387115","813492","0.70087975"
"121.03672","64.94718","813509","0.6979472"
"121.246765","65.32722","813525","0.6969697"
"121.46678","65.66726","813542","0.69501466"
"121.67681","66.00729","813559","0.69403714"
"121.786835","66.377335","813575","0.6979472"
"121.80683","66.9574","813592","0.6959922"
"121.96685","67.277435","813609","0.69501466"
"122.06687","67.607475","813625","0.69501466"
"122.12687","67.927505","813642","0.69403714"
"122.206894","68.38756","813659","0.69501466"
"122.206894","68.59758","813675","0.6959922"
"122.196884","68.737595","813692","0.6979472"
"122.1869","68.737595","813709","0.6989247"
"122.05686","68.83761","813725","0.69990224"
"121.80683","68.507576","813742","0.69990224"
"121.5768","68.07752","813759","0.70087975"
"121.21675","67.57747","813775","0.7028348"
"120.77669","67.077415","813792","0.71163243"
"120.426636","66.59736","813809","0.70185727"
"119.87656","65.92729","813825","0.6901271"
"119.46651","65.46724","813842","0.6930596"
"119.02645","64.94718","813859","0.6959922"
"118.58639","64.39712","813875","0.6989247"
"117.9463","63.60703","813892","0.70087975"
"117.53625","63.19699","813909","0.7038123"
"117.16618","62.87695","813925","0.70576733"
"116.85614","62.586918","813942","0.7086999"
"116.546104","62.336887","813959","0.7106549"
"116.10604","62.036854","813975","0.7096774"
"115.816","61.85684","813992","0.70772237"
"115.55597","61.766827","814009","0.7096774"
"115.45596","61.72682","814025","0.7106549"
"115.02589","61.62681","814042","0.70087975"
"114.78587","61.59681","814059","0.6911046"
"114.78587","61.586803","814075","0.6901271"
"114.78587","61.67682","814092","0.6901271"
"115.0659","61.946846","814109","0.7028348"
"115.48596","62.49691","814125","0.714565"
"115.65598","62.866947","814142","0.71358746"
"115.826004","63.276993","814159","0.71260995"
"115.98602","63.717045","814175","0.71163243"
"116.14605","64.097084","814192","0.7096774"
"116.416084","64.61714","814209","0.7096774"
"116.61611","65.01718","814225","0.70772237"
"116.82615","65.45723","814242","0.70674485"
"117.056175","65.90728","814259","0.7047898"
"117.37623","66.50735","814275","0.70576733"
"117.62626","66.907394","814292","0.70576733"
"117.886284","67.26743","814309","0.70087975"
"118.106316","67.58747","814325","0.69990224"
"118.31636","67.927505","814342","0.69990224"
"118.59638","68.51757","814359","0.6989247"
"118.706406","68.947624","814375","0.6989247"
"118.83642","69.357666","814392","0.6989247"
"118.93644","69.73771","814409","0.6979472"
"118.956436","70.06775","814425","0.6979472"
"118.946434","70.41778","814442","0.6979472"
"118.916435","70.5078","814459","0.6989247"
"118.656395","70.60781","814475","0.70087975"
"118.42637","70.60781","814492","0.70185727"
"117.886284","70.40778","814509","0.7038123"
"117.42622","70.12775","814525","0.7047898"
"117.016174","69.757706","814542","0.70674485"
"116.676125","69.30766","814559","0.7086999"
"116.346085","68.817604","814575","0.7106549"
"115.89601","68.09753","814592","0.714565"
"115.62597","67.64748","814609","0.7155425"
"115.29594","67.17743","814625","0.7106549"
"114.90588","66.63737","814642","0.70185727"
"114.45582","65.83728","814659","0.6969697"
"114.19579","65.35722","814675","0.6989247"
"113.925735","64.93717","814692","0.69990224"
"113.64571","64.56714","814709","0.70185727"
"113.35567","64.28711","814725","0.7038123"
"112.90561","64.05708","814742","0.70576733"
"112.625565","63.947063","814759","0.70674485"
"112.335526","63.887062","814775","0.70674485"
"112.09548","63.857063","814792","0.70674485"
"111.995476","63.847054","814809","0.70674485"
"111.775444","63.87706","814825","0.70772237"
"111.745445","64.00708","814842","0.70772237"
"111.735435","64.1571","814859","0.70772237"
"111.865456","64.43712","814875","0.7086999"
"112.30552","65.0972","814892","0.7047898"
"112.70558","65.62725","814909","0.7038123"
"113.07563","66.177315","814925","0.7028348"
"113.45568","66.79738","814942","0.6979472"
"113.80573","67.42745","814959","0.6969697"
"114.21578","68.35756","814975","0.69990224"
"114.45582","68.97762","814992","0.6989247"
"114.67585","69.53769","815009","0.6979472"
"114.79586","70.06775","815025","0.6969697"
"114.91588","70.567795","815042","0.6969697"
"115.27592","71.24787","815059","0.71260995"
"115.39594","71.68793","815075","0.71652"
"115.44595","72.01796","815092","0.71847504"
"115.36594","72.207985","815109","0.71652"
"115.02589","72.338","815125","0.7028348"
"114.88588","72.438","815142","0.7028348"
"114.695854","72.438","815159","0.7038123"
"114.43582","72.42801","815175","0.70576733"
"114.12577","72.26799","815192","0.7047898"
"113.585686","71.837944","815209","0.7047898"
"113.15564","71.40789","815225","0.70576733"
"112.665565","70.92784","815242","0.7096774"
"112.1355","70.337776","815259","0.7106549"
"111.49541","69.39767","815275","0.71260995"
"111.145355","68.737595","815292","0.71358746"
"110.815315","68.06753","815309","0.714565"
"110.475266","67.44746","815325","0.7155425"
"110.095215","66.81738","815342","0.71358746"
"109.49513","65.90728","815359","0.71163243"
"109.23509","65.34722","815375","0.71260995"
"108.98506","64.75716","815392","0.71358746"
"108.73503","64.13709","815409","0.71358746"
"108.35497","63.166985","815425","0.71358746"
"108.14495","62.53691","815442","0.71358746"
"107.91491","61.836838","815459","0.7106549"
"107.59487","61.07675","815475","0.70772237"
"107.24482","60.32667","815492","0.7086999"
"106.804756","59.136536","815509","0.7096774"
"106.57473","58.49647","815525","0.7096774"
"106.3547","57.946407","815542","0.7096774"
"106.15467","57.306335","815559","0.7028348"
"105.93463","56.556248","815575","0.6959922"
"105.574585","55.696156","815592","0.69501466"
"105.21455","55.226105","815609","0.70087975"
"104.824486","54.716045","815625","0.70576733"
"104.604454","54.045975","815642","0.70674485"
"104.38442","53.325893","815659","0.70772237"
"104.024376","52.455803","815675","0.7086999"
"103.78434","51.96574","815692","0.7086999"
"103.524315","51.525692","815709","0.7096774"
"103.28427","51.01564","815725","0.7194526"
"102.934235","50.21555","815742","0.7096774"
"102.674194","49.68549","815759","0.7096774"
"102.45416","49.40546","815775","0.7096774"
"102.24413","49.18544","815792","0.7096774"
"102.0541","48.785393","815809","0.7106549"
"101.77407","48.285336","815825","0.71163243"
"101.574036","48.005306","815842","0.71260995"
"101.374016","47.805283","815859","0.71260995"
"101.284","47.705273","815875","0.71260995"
"101.013954","47.51525","815892","0.7106549"
"100.92394","47.485245","815909","0.70772237"
"100.83393","47.38524","815925","0.70185727"
"100.71392","47.23522","815942","0.65102637"
"100.87395","47.23522","815959","0.24437928"
"100.96395","47.23522","815967","9.775171E-4"
"100.96395","47.23522","815975","9.775171E-4"
