"84.23164","9.741076","1092523","0.058651026"
"84.23164","9.741076","1092527","0.058651026"
"84.60169","9.531054","1092560","0.20527859"
"84.98174","9.531054","1092593","0.29912025"
"85.49181","9.741076","1092627","0.38514173"
"86.02189","10.151122","1092660","0.44183773"
"86.22192","10.31114","1092677","0.46725318"
"86.44195","10.461157","1092693","0.49462366"
"86.66197","10.581169","1092710","0.51319647"
"86.96202","10.941209","1092727","0.5259042"
"87.17204","11.231242","1092743","0.53372437"
"87.40208","11.551276","1092760","0.542522"
"87.6221","11.901315","1092777","0.5601173"
"87.862144","12.271357","1092793","0.57575756"
"88.2522","12.821418","1092810","0.5884653"
"88.492226","13.161454","1092827","0.58651024"
"88.752266","13.471489","1092843","0.5855327"
"89.0323","13.831529","1092860","0.59530795"
"89.48236","14.301581","1092877","0.6031281"
"89.79241","14.551608","1092893","0.60703814"
"90.07244","14.851642","1092910","0.6099707"
"90.34248","15.141675","1092927","0.61290324"
"90.63252","15.391702","1092943","0.61876833"
"91.04258","15.791746","1092960","0.6304985"
"91.30262","16.071777","1092977","0.6353861"
"91.53265","16.331804","1092993","0.63831866"
"91.76269","16.591835","1093010","0.6402737"
"92.6028","17.721958","1093077","0.65493643"
"92.712814","17.83197","1093093","0.65786904"
"92.95285","18.212013","1093110","0.6666667"
"93.07286","18.422035","1093127","0.67644185"
"93.18287","18.63206","1093143","0.69403714"
"93.28289","18.832083","1093160","0.70087975"
"93.40291","19.0121","1093177","0.6989247"
"93.52293","19.282131","1093193","0.70185727"
"93.62293","19.482153","1093210","0.7038123"
"93.73295","19.682175","1093227","0.70576733"
"93.83296","19.892199","1093243","0.70772237"
"94.022995","20.222235","1093260","0.7106549"
"94.133","20.452261","1093277","0.71163243"
"94.26302","20.682285","1093293","0.71260995"
"94.39305","20.882309","1093309","0.714565"
"94.52306","21.052328","1093327","0.71652"
"94.69309","21.542381","1093343","0.71847504"
"94.8331","21.922422","1093360","0.7194526"
"94.97312","22.302464","1093377","0.7174975"
"95.10314","22.682507","1093393","0.7155425"
"95.23316","23.032547","1093410","0.70185727"
"95.58321","23.362583","1093427","0.6989247"
"95.71323","23.582607","1093443","0.71163243"
"95.81325","23.96265","1093460","0.71652"
"96.06328","24.272682","1093477","0.7174975"
"96.29331","24.742735","1093493","0.72140765"
"96.44332","25.072771","1093510","0.7253177"
"96.56335","25.382805","1093527","0.72825027"
"96.69336","25.662834","1093543","0.73216033"
"96.83338","25.98287","1093560","0.7360704"
"97.10342","26.392918","1093577","0.7419355"
"97.213425","26.622942","1093593","0.74584556"
"97.42346","26.88297","1093610","0.7487781"
"97.6435","27.293016","1093627","0.72727275"
"97.79352","27.67306","1093643","0.70772237"
"97.90353","27.983093","1093660","0.7155425"
"98.04355","28.193115","1093677","0.71847504"
"98.16357","28.41314","1093693","0.72238517"
"98.333595","28.623161","1093710","0.72629523"
"98.57362","28.953197","1093727","0.73216033"
"98.72363","29.163223","1093743","0.7360704"
"98.88366","29.363245","1093760","0.73900294"
"99.04368","29.543266","1093777","0.73998046"
"99.203705","29.753288","1093793","0.740958"
"99.45374","30.363356","1093810","0.7468231"
"99.59376","30.673391","1093827","0.7487781"
"99.70378","30.913416","1093843","0.75171065"
"99.9138","31.173449","1093860","0.7536657"
"100.19384","31.553488","1093877","0.7595308"
"100.33386","31.76351","1093893","0.76246333"
"100.473885","31.993534","1093910","0.76441836"
"100.61391","32.213562","1093927","0.7663734"
"100.74392","32.423584","1093943","0.76930594"
"100.86394","32.623608","1093960","0.773216"
"101.00396","32.923637","1093977","0.77614856"
"101.13397","33.333683","1093993","0.7790811"
"101.25399","33.72373","1094010","0.75268817"
"101.334","33.893745","1094027","0.72727275"
"101.41402","34.19378","1094043","0.7302053"
"101.524025","34.403805","1094060","0.73216033"
"101.55403","34.583824","1094077","0.73216033"
"101.60404","34.80385","1094093","0.7350929"
"101.66405","35.123882","1094110","0.7370479"
"101.66405","35.333904","1094127","0.7360704"
"101.66405","35.54393","1094143","0.7360704"
"101.66405","35.763954","1094160","0.7380254"
"101.65404","35.963974","1094177","0.7380254"
"101.63404","36.804066","1094241","0.7438905"
"101.60404","36.954086","1094260","0.742913"
"101.50403","37.0841","1094277","0.73998046"
"101.40401","37.174107","1094293","0.7438905"
"101.294","37.26412","1094310","0.7478006"
"101.25399","37.354126","1094327","0.75171065"
"101.11397","37.46414","1094343","0.7546432"
"101.00396","37.54415","1094360","0.7546432"
"100.91395","37.574154","1094377","0.7556207"
"100.83393","37.70417","1094393","0.7546432"
"100.83393","37.70417","1094410","0.75659823"
"100.61391","37.874187","1094427","0.77028346"
"100.48389","37.9842","1094443","0.78396875"
"100.273865","38.08421","1094460","0.78396875"
"100.12383","38.18422","1094477","0.7536657"
"100.02383","38.214226","1094488","0.7243402"
"99.8938","38.29423","1094510","0.7253177"
"99.64377","38.34424","1094527","0.7253177"
"99.43374","38.404243","1094543","0.7253177"
"99.23371","38.45425","1094560","0.7253177"
"98.923676","38.59427","1094577","0.7253177"
"98.69364","38.63427","1094593","0.7233627"
"98.493614","38.73428","1094610","0.7233627"
"98.403595","38.754284","1094627","0.7243402"
"98.14356","38.834293","1094643","0.72238517"
"97.853516","38.9243","1094660","0.72043014"
"97.65349","38.98431","1094677","0.72043014"
"97.51347","39.014313","1094693","0.72140765"
"97.39346","39.06432","1094710","0.72140765"
"97.28344","39.114323","1094723","0.71847504"
"97.16343","39.214336","1094743","0.72043014"
"97.16343","39.214336","1094760","0.7194526"
"97.0334","39.34435","1094777","0.71847504"
"96.99341","39.464363","1094793","0.7174975"
"96.9534","39.724392","1094810","0.7194526"
"96.9534","39.854404","1094827","0.7194526"
"96.9534","40.044426","1094843","0.7194526"
"97.00341","40.254448","1094860","0.72140765"
"97.06341","40.464474","1094877","0.72140765"
"97.19343","40.774506","1094893","0.7194526"
"97.273445","40.87452","1094910","0.72238517"
"97.41346","41.13455","1094927","0.72238517"
"97.54348","41.334568","1094943","0.7233627"
"97.83351","41.654602","1094960","0.72140765"
"98.06355","41.81462","1094977","0.7233627"
"98.283585","41.97464","1094993","0.7233627"
"98.483604","42.13466","1095010","0.7243402"
"98.713646","42.28467","1095027","0.7253177"
"99.0637","42.534702","1095043","0.7253177"
"99.26372","42.69472","1095060","0.72629523"
"99.26372","42.844734","1095077","0.7360704"
"99.39373","42.97475","1095093","0.73216033"
"99.78379","43.214775","1095110","0.7174975"
"99.973816","43.394794","1095127","0.71652"
"100.183846","43.60482","1095143","0.71358746"
"100.38387","43.804844","1095160","0.7086999"
"100.523895","43.99486","1095177","0.70674485"
"100.79393","44.264893","1095193","0.70674485"
"100.95395","44.43491","1095210","0.70674485"
"101.033966","44.52492","1095227","0.70674485"
"101.16398","44.69494","1095243","0.70674485"
"101.304","44.854958","1095260","0.70772237"
"101.49402","45.07498","1095277","0.7086999"
"101.60404","45.194996","1095293","0.7096774"
"101.70405","45.30501","1095310","0.7086999"
"101.79407","45.465027","1095327","0.70772237"
"101.90408","45.705048","1095343","0.70772237"
"102.0341","45.86507","1095360","0.7096774"
"102.13411","46.035088","1095377","0.7106549"
"102.22414","46.205105","1095393","0.7086999"
"102.334145","46.345123","1095410","0.7106549"
"102.49416","46.585148","1095427","0.7106549"
"102.57417","46.745167","1095443","0.71163243"
"102.65418","46.905186","1095460","0.7106549"
"102.70419","47.085205","1095477","0.71163243"
"102.73419","47.195213","1095493","0.71163243"
"102.73419","47.195213","1095510","0.71847504"
"102.85421","47.295227","1095527","0.71358746"
"102.90422","47.43524","1095543","0.71358746"
"103.00423","47.565258","1095560","0.71358746"
"103.12425","47.805283","1095572","0.71358746"
"103.214264","47.9653","1095593","0.71358746"
"103.264275","48.12532","1095610","0.71358746"
"103.35428","48.365345","1095625","0.71358746"
"103.48431","48.525364","1095643","0.71358746"
"103.62432","48.785393","1095660","0.71260995"
"103.65432","48.875404","1095676","0.71260995"
"103.79434","49.04542","1095693","0.71260995"
"103.91437","49.065426","1095710","0.71358746"
"104.15439","49.24544","1095727","0.71358746"
"104.28442","49.235443","1095743","0.71358746"
"104.43443","49.205437","1095760","0.71358746"
"104.604454","49.19544","1095775","0.71358746"
"104.774475","49.28545","1095793","0.714565"
"105.00452","49.28545","1095810","0.71260995"
"105.38455","49.30545","1095826","0.7086999"
"105.61459","49.295452","1095843","0.70674485"
"105.79462","49.26544","1095860","0.70674485"
"105.994644","49.205437","1095876","0.70674485"
"106.28468","49.145435","1095893","0.70772237"
"106.46471","49.105427","1095910","0.70772237"
"106.64474","49.085426","1095926","0.70674485"
"106.81476","49.075424","1095941","0.70674485"
"107.08479","49.075424","1095960","0.70674485"
"107.25482","49.075424","1095976","0.70772237"
"107.46485","49.075424","1095993","0.70674485"
"107.67487","49.105427","1096010","0.70674485"
"107.85491","49.19544","1096026","0.70674485"
"108.12494","49.18544","1096043","0.70674485"
"108.21495","49.165436","1096060","0.70772237"
"108.38498","49.065426","1096076","0.70772237"
"108.535","49.065426","1096093","0.70772237"
"108.67502","49.065426","1096110","0.70772237"
"108.98506","48.995415","1096126","0.70674485"
"109.14508","48.885406","1096143","0.70674485"
"109.32511","48.8554","1096160","0.70674485"
"109.41511","48.835396","1096176","0.70674485"
"109.75517","48.785393","1096193","0.7086999"
"109.91519","48.765392","1096210","0.70772237"
"110.0052","48.75539","1096226","0.7086999"
"110.15522","48.725384","1096243","0.7096774"
"110.275246","48.71538","1096260","0.7096774"
"110.525276","48.73539","1096276","0.7096774"
"110.6253","48.765392","1096293","0.7086999"
"110.71531","48.8654","1096310","0.7086999"
"110.815315","48.975414","1096326","0.7086999"
"110.91534","49.095425","1096343","0.7086999"
"111.00533","49.11543","1096360","0.7086999"
"111.105354","49.11543","1096372","0.70772237"
"111.225365","49.22544","1096393","0.70772237"
"111.305374","49.365456","1096410","0.70772237"
"111.445404","49.615486","1096426","0.70674485"
"111.55541","49.7455","1096443","0.70576733"
"111.665436","49.855515","1096460","0.7047898"
"111.76545","49.96552","1096476","0.7047898"
"111.87546","50.095535","1096493","0.70576733"
"111.95547","50.21555","1096505","0.7047898"
"111.98547","50.31556","1096526","0.7047898"
"112.08549","50.405575","1096543","0.7047898"
"112.11549","50.51558","1096560","0.7047898"
"112.1655","50.615593","1096576","0.7038123"
"112.24551","50.725605","1096593","0.7038123"
"112.27551","50.825623","1096610","0.69501466"
"112.36553","50.93563","1096626","0.6911046"
"112.36553","50.93563","1096643","0.6979472"
"112.39552","51.035637","1096660","0.7028348"
"112.495544","51.125652","1096676","0.7028348"
"112.51555","51.215664","1096693","0.7028348"
"112.63557","51.335674","1096708","0.70185727"
"112.63557","51.335674","1096726","0.70087975"
"112.83559","51.485695","1096743","0.69990224"
"112.94561","51.625706","1096760","0.69990224"
"113.06563","51.72572","1096776","0.69990224"
"113.19565","51.82573","1096793","0.6989247"
"113.335655","51.95574","1096809","0.6989247"
"113.48568","52.055756","1096826","0.6979472"
"113.625694","52.15576","1096843","0.6979472"
"113.77572","52.245773","1096860","0.6969697"
"113.93574","52.355785","1096876","0.6959922"
"114.21578","52.595814","1096893","0.69403714"
"114.3658","52.74583","1096910","0.69403714"
"114.52582","52.885845","1096926","0.6930596"
"114.745865","53.045864","1096943","0.6969697"
"115.18592","53.3859","1096960","0.7086999"
"115.32593","53.525917","1096976","0.70772237"
"115.47596","53.675934","1096993","0.70674485"
"115.55597","53.76594","1097010","0.70576733"
"115.806","53.985966","1097026","0.7047898"
"116.09605","54.195988","1097043","0.7028348"
"116.296074","54.326","1097060","0.70185727"
"116.46609","54.436016","1097076","0.69990224"
"116.63612","54.54603","1097093","0.69990224"
"116.806145","54.666042","1097106","0.6979472"
"117.06618","54.786057","1097126","0.6969697"
"117.2562","54.89607","1097143","0.6959922"
"117.45622","55.04608","1097160","0.69501466"
"117.65625","55.1861","1097176","0.69403714"
"117.936295","55.386124","1097193","0.6920821"
"118.13632","55.516136","1097210","0.6911046"
"118.326355","55.65615","1097226","0.6901271"
"118.53638","55.77617","1097243","0.68817204"
"118.74641","55.896183","1097260","0.68817204"
"119.02645","56.106205","1097276","0.6852395"
"119.20648","56.246216","1097293","0.684262"
"119.3865","56.35623","1097310","0.68328446"
"119.47651","56.476246","1097326","0.68230695"
"119.76655","56.856285","1097343","0.68914956"
"120.1166","57.19632","1097360","0.69501466"
"120.29663","57.396343","1097376","0.69403714"
"120.46665","57.56636","1097393","0.69403714"
"120.55666","57.746384","1097410","0.6979472"
"120.64668","58.026413","1097426","0.71163243"
"120.886696","58.166428","1097443","0.7106549"
"121.11673","58.29644","1097460","0.7086999"
"121.35677","58.43646","1097476","0.70772237"
"121.606804","58.546474","1097493","0.70576733"
"121.836845","58.836506","1097510","0.7038123"
"121.94685","59.01652","1097526","0.70185727"
"122.22689","59.17654","1097543","0.70185727"
"122.51693","59.356564","1097560","0.70087975"
"122.996994","59.646595","1097576","0.6979472"
"123.24703","59.84661","1097593","0.6959922"
"123.49706","60.05664","1097610","0.6959922"
"123.53708","60.296665","1097626","0.70576733"
"123.597084","60.506687","1097643","0.714565"
"123.90711","60.80672","1097660","0.71260995"
"124.07715","61.00675","1097676","0.71163243"
"124.227165","61.196766","1097693","0.7106549"
"124.387184","61.416786","1097710","0.7106549"
"124.49721","61.646812","1097726","0.7086999"
"124.72724","62.016853","1097743","0.7174975"
"124.83726","62.296886","1097760","0.7253177"
"124.99728","62.546913","1097776","0.7253177"
"125.107285","62.78694","1097793","0.7253177"
"125.29732","63.09697","1097810","0.7243402"
"125.41733","63.28699","1097826","0.7233627"
"125.54735","63.49702","1097843","0.72238517"
"125.667366","63.747047","1097860","0.72238517"
"125.797386","64.16709","1097876","0.7233627"
"125.9074","64.40712","1097893","0.72140765"
"126.00741","64.637146","1097910","0.72140765"
"126.06742","64.85717","1097926","0.72043014"
"126.08742","65.077194","1097943","0.72043014"
"126.10743","65.277214","1097960","0.7194526"
"126.16744","65.57725","1097976","0.72043014"
"126.16744","65.66726","1097993","0.72043014"
"126.16744","65.83728","1098010","0.72043014"
"126.16744","65.9973","1098026","0.72140765"
"126.13743","66.20732","1098043","0.72043014"
"126.01742","66.23732","1098060","0.7194526"
"125.89739","66.33733","1098076","0.7174975"
"125.72738","66.33733","1098093","0.71652"
"125.52735","66.32733","1098110","0.71652"
"125.147285","66.24732","1098126","0.7174975"
"124.847244","66.12731","1098143","0.71847504"
"124.477196","65.977295","1098160","0.72043014"
"124.107155","65.767265","1098176","0.72140765"
"123.597084","65.38723","1098193","0.71652"
"123.32705","65.1572","1098210","0.7028348"
"123.007","64.917175","1098226","0.6959922"
"122.636955","64.64714","1098243","0.6979472"
"122.246895","64.33711","1098260","0.6989247"
"121.88684","63.857063","1098276","0.70185727"
"121.72682","63.52702","1098293","0.7028348"
"121.406784","63.256992","1098310","0.7047898"
"121.10674","63.01696","1098326","0.70674485"
"120.81669","62.746933","1098343","0.7086999"
"120.49665","62.286884","1098360","0.7047898"
"120.32663","61.91684","1098376","0.6920821"
"120.1166","61.5368","1098393","0.684262"
"119.85656","61.216763","1098410","0.6852395"
"119.47651","60.6567","1098426","0.68914956"
"119.21648","60.27666","1098443","0.6901271"
"118.986435","59.936626","1098460","0.6920821"
"118.76642","59.596592","1098476","0.6930596"
"118.53638","59.296555","1098493","0.69403714"
"118.26635","58.986523","1098510","0.69501466"
"118.116325","58.856503","1098526","0.6959922"
"117.99631","58.766502","1098543","0.6959922"
"117.906296","58.75649","1098560","0.6959922"
"117.906296","58.74649","1098576","0.69501466"
"117.806274","58.74649","1098593","0.69501466"
"117.71628","58.7965","1098625","0.69501466"
"117.696266","58.956512","1098643","0.69403714"
"117.686264","59.196545","1098660","0.6920821"
"117.726265","59.49658","1098676","0.6920821"
"117.78628","59.876617","1098693","0.6911046"
"117.82629","60.226658","1098710","0.6901271"
"117.886284","60.5767","1098726","0.68817204"
"118.09631","61.08675","1098743","0.686217"
"118.25633","61.37678","1098760","0.6852395"
"118.42637","61.706818","1098776","0.68914956"
"118.68639","62.066864","1098793","0.6911046"
"119.146454","62.566917","1098810","0.68817204"
"119.446495","62.87695","1098826","0.686217"
"119.76655","63.20699","1098843","0.68328446"
"120.086586","63.537025","1098860","0.6813294"
"120.41664","63.907066","1098876","0.6783969"
"120.8067","64.52713","1098893","0.6901271"
"121.10674","64.917175","1098910","0.6930596"
"121.43678","65.30722","1098926","0.6920821"
"121.67681","65.66726","1098943","0.6901271"
"121.85684","66.00729","1098960","0.68817204"
"122.036865","66.47735","1098976","0.6871945"
"122.23689","66.80739","1098993","0.6871945"
"122.42691","67.107414","1099010","0.68817204"
"122.55693","67.28744","1099026","0.6871945"
"122.67695","67.43746","1099039","0.6871945"
"122.67695","67.54746","1099056","0.6871945"
"122.67695","67.65748","1099076","0.68914956"
"122.64694","67.74749","1099093","0.68914956"
"122.636955","67.74749","1099110","0.6911046"
"122.43693","67.847496","1099126","0.6911046"
"122.3169","67.8775","1099143","0.6901271"
"122.16688","67.9175","1099159","0.6911046"
"121.996864","67.93751","1099176","0.6920821"
"121.89684","67.93751","1099193","0.6920821"
"121.77682","67.93751","1099203","0.6911046"
"121.46678","67.89751","1099226","0.6920821"
"121.196754","67.7775","1099243","0.6920821"
"120.93671","67.567474","1099260","0.6930596"
"120.586655","67.24743","1099276","0.69403714"
"120.45665","66.997406","1099293","0.69501466"
"120.346634","66.67737","1099310","0.684262"
"120.15661","66.32733","1099326","0.6744868"
"120.036575","65.98729","1099343","0.67546433"
"119.79655","65.487236","1099360","0.67741936"
"119.626526","65.1372","1099376","0.6793744"
"119.43651","64.73716","1099393","0.6803519"
"119.21648","64.317116","1099410","0.6813294"
"118.89642","63.717045","1099426","0.68230695"
"118.68639","63.36701","1099443","0.684262"
"118.486374","63.056973","1099460","0.6852395"
"118.26635","62.746933","1099476","0.6871945"
"118.026306","62.436897","1099493","0.68914956"
"117.61626","61.946846","1099510","0.6911046"
"117.316216","61.62681","1099526","0.68914956"
"117.04617","61.386787","1099543","0.6871945"
"116.83614","61.126762","1099560","0.68914956"
"116.61611","60.846725","1099576","0.6901271"
"116.26606","60.396675","1099593","0.6930596"
"116.04604","60.136646","1099610","0.69501466"
"115.86601","60.006638","1099626","0.6959922"
"115.72599","59.90662","1099643","0.6969697"
"115.60597","59.89662","1099660","0.6969697"
"115.51596","59.886623","1099676","0.6969697"
"115.42595","59.886623","1099693","0.6979472"
"115.30593","59.886623","1099710","0.6969697"
"115.0559","59.92662","1099726","0.6871945"
"114.80586","59.976624","1099743","0.67741936"
"114.78587","60.086643","1099760","0.67644185"
"114.775856","60.386673","1099776","0.6744868"
"115.01589","60.696712","1099793","0.68328446"
"115.285934","61.016747","1099810","0.6920821"
"115.335945","61.386787","1099826","0.6911046"
"115.35594","61.486794","1099843","0.6911046"
"115.37594","61.80683","1099860","0.6959922"
"115.42595","62.10687","1099876","0.6989247"
"115.50596","62.50691","1099893","0.6979472"
"115.55597","62.736935","1099910","0.6979472"
"115.59597","62.976963","1099926","0.6989247"
"115.63599","63.246994","1099943","0.6989247"
"115.69599","63.557022","1099960","0.6989247"
"115.826004","64.08708","1099976","0.6959922"
"116.04604","64.68716","1100010","0.6959922"
"116.16605","64.93717","1100026","0.6959922"
"116.24606","65.29722","1100043","0.69501466"
"116.346085","65.527245","1100060","0.69501466"
"116.46609","65.767265","1100076","0.69403714"
"116.5661","66.00729","1100093","0.69403714"
"116.66612","66.24732","1100110","0.6930596"
"116.82615","66.60737","1100126","0.69501466"
"117.02618","66.84739","1100143","0.6959922"
"117.216194","67.05741","1100160","0.6920821"
"117.40622","67.25743","1100176","0.6901271"
"117.61626","67.46746","1100193","0.68914956"
"117.95629","67.7775","1100210","0.68817204"
"118.17634","67.99752","1100226","0.6871945"
"118.396355","68.23754","1100243","0.686217"
"118.626396","68.46757","1100260","0.6852395"
"118.92644","68.86761","1100276","0.68230695"
"119.08646","69.07764","1100293","0.6813294"
"119.166466","69.187645","1100310","0.68230695"
"119.34649","69.45768","1100326","0.6813294"
"119.446495","69.6477","1100340","0.6813294"
"119.54652","69.81772","1100357","0.6813294"
"119.56653","69.967735","1100376","0.68230695"
"119.56653","70.09775","1100393","0.68328446"
"119.536514","70.19776","1100410","0.6852395"
"119.43651","70.287766","1100426","0.6871945"
"119.21648","70.48779","1100443","0.6871945"
"119.076454","70.567795","1100460","0.6871945"
"118.90644","70.5878","1100476","0.68914956"
"118.706406","70.5878","1100493","0.6901271"
"118.33636","70.5878","1100510","0.69403714"
"118.06632","70.577805","1100526","0.69501466"
"117.806274","70.51779","1100543","0.6959922"
"117.53625","70.39778","1100560","0.6969697"
"117.27621","70.18776","1100576","0.6989247"
"116.85614","69.79772","1100593","0.70185727"
"116.61611","69.48768","1100610","0.7028348"
"116.39608","69.117645","1100626","0.7038123"
"116.186066","68.737595","1100643","0.70576733"
"115.88602","68.167534","1100660","0.70674485"
"115.65598","67.79749","1100676","0.7086999"
"115.43595","67.46746","1100693","0.7096774"
"115.10591","67.18742","1100710","0.69990224"
"114.80586","66.89739","1100726","0.69501466"
"114.54583","66.41734","1100743","0.6920821"
"114.41581","66.10731","1100760","0.6920821"
"114.27579","65.77727","1100776","0.69403714"
"114.135765","65.49724","1100793","0.69501466"
"113.99575","65.26722","1100810","0.6959922"
"113.73572","64.917175","1100826","0.6959922"
"113.54569","64.64714","1100843","0.6979472"
"113.285645","64.387115","1100860","0.6989247"
"113.01562","64.13709","1100876","0.70087975"
"112.64555","63.827057","1100893","0.7028348"
"112.415535","63.707043","1100910","0.7028348"
"112.1655","63.577023","1100926","0.7038123"
"111.96548","63.447018","1100941","0.7047898"
"111.81546","63.357002","1100960","0.7047898"
"111.695435","63.307","1100976","0.7047898"
"111.58543","63.266994","1100993","0.7047898"
"111.49541","63.236988","1101010","0.7047898"
"111.405396","63.236988","1101017","0.7047898"
"111.305374","63.337","1101043","0.7038123"
"111.28538","63.42701","1101060","0.7028348"
"111.275375","63.717045","1101076","0.70185727"
"111.305374","64.02708","1101093","0.70087975"
"111.485405","64.36712","1101110","0.69990224"
"111.745445","64.90717","1101126","0.6989247"
"111.91547","65.247215","1101143","0.6979472"
"112.09548","65.58725","1101160","0.6969697"
"112.34551","65.91729","1101176","0.6969697"
"112.61557","66.21732","1101193","0.6959922"
"112.93561","66.61736","1101210","0.6979472"
"113.14564","66.907394","1101226","0.6979472"
"113.34567","67.157425","1101243","0.69403714"
"113.52569","67.36745","1101260","0.6930596"
"113.81573","67.71748","1101276","0.6930596"
"114.00576","67.977516","1101293","0.6920821"
"114.19579","68.23754","1101310","0.6911046"
"114.3658","68.48757","1101326","0.6901271"
"114.475815","68.7576","1101343","0.68817204"
"114.76586","69.187645","1101360","0.6871945"
"114.92588","69.477684","1101376","0.6871945"
"115.1159","69.79772","1101393","0.6920821"
"115.36594","70.11775","1101410","0.70185727"
"115.52596","70.43778","1101426","0.70674485"
"115.75599","70.88783","1101443","0.7047898"
"115.876015","71.177864","1101460","0.7047898"
"116.006035","71.477905","1101476","0.6989247"
"116.11604","71.757935","1101493","0.6989247"
"116.23606","72.01796","1101510","0.7038123"
"116.256065","72.16798","1101526","0.7047898"
"116.256065","72.31799","1101543","0.7047898"
"116.256065","72.41801","1101558","0.70576733"
"116.256065","72.50801","1101576","0.70576733"
"116.22607","72.59803","1101593","0.70576733"
"116.09605","72.61802","1101610","0.70674485"
"115.97602","72.61802","1101626","0.70772237"
"115.846016","72.61802","1101643","0.7096774"
"115.75599","72.61802","1101660","0.7106549"
"115.25592","72.46801","1101676","0.70087975"
"114.90588","72.357994","1101693","0.6901271"
"114.695854","72.287994","1101710","0.6911046"
"114.45582","72.17798","1101726","0.6930596"
"114.12577","71.95795","1101743","0.69403714"
"113.91574","71.77793","1101759","0.6959922"
"113.70572","71.5379","1101776","0.6979472"
"113.48568","71.28788","1101793","0.6989247"
"113.27566","71.04785","1101809","0.69990224"
"112.925606","70.60781","1101826","0.70185727"
"112.695564","70.29777","1101843","0.70185727"
"112.44553","70.00774","1101859","0.7028348"
"112.17551","69.717705","1101876","0.7038123"
"111.895454","69.30766","1101893","0.7038123"
"111.735435","69.027626","1101909","0.7047898"
"111.60542","68.7176","1101926","0.7047898"
"111.4154","68.38756","1101943","0.70674485"
"111.28538","68.06753","1101959","0.70772237"
"111.03535","67.607475","1101976","0.7086999"
"110.88532","67.327446","1101993","0.7086999"
"110.7453","67.077415","1102009","0.7096774"
"110.6253","66.787384","1102026","0.7096774"
"110.49526","66.48735","1102043","0.7096774"
"110.34525","66.0873","1102059","0.7106549"
"110.225235","65.817276","1102076","0.7106549"
"110.0552","65.567245","1102093","0.7096774"
"109.82519","65.32722","1102109","0.7086999"
"109.62515","64.92718","1102126","0.7086999"
"109.50513","64.64714","1102143","0.7096774"
"109.385124","64.35711","1102159","0.7106549"
"109.2451","64.08708","1102176","0.71163243"
"109.11508","63.787052","1102193","0.71358746"
"108.89505","63.337","1102209","0.71358746"
"108.77503","63.046967","1102226","0.71358746"
"108.66501","62.78694","1102243","0.714565"
"108.535","62.55691","1102259","0.7155425"
"108.39498","62.336887","1102276","0.7155425"
"108.23496","61.85684","1102293","0.70772237"
"108.084946","61.576805","1102309","0.7086999"
"107.89491","61.32678","1102326","0.7086999"
"107.74489","61.07675","1102343","0.7086999"
"107.48485","60.676704","1102359","0.7086999"
"107.34484","60.396675","1102376","0.7086999"
"107.134796","60.126648","1102393","0.7086999"
"106.964775","59.84661","1102409","0.7086999"
"106.834755","59.44657","1102426","0.7086999"
"106.69475","58.946518","1102443","0.7096774"
"106.61474","58.706486","1102459","0.7096774"
"106.54473","58.49647","1102476","0.7096774"
"106.4847","58.276443","1102493","0.7096774"
"106.43471","58.076416","1102509","0.7096774"
"106.39471","57.8964","1102526","0.7096774"
"106.344696","57.62637","1102543","0.7096774"
"106.324684","57.416348","1102559","0.7096774"
"106.3147","57.206326","1102576","0.7106549"
"106.33469","56.556248","1102593","0.6959922"
"106.3647","56.35623","1102609","0.69501466"
"106.46471","56.106205","1102626","0.69501466"
"106.554726","55.92618","1102643","0.69501466"
"106.584724","55.746166","1102659","0.69501466"
"106.714745","55.466125","1102676","0.6959922"
"106.76475","55.276108","1102693","0.6959922"
"106.79476","55.176094","1102709","0.6959922"
"106.89478","54.91607","1102726","0.6959922"
"107.02479","54.636036","1102743","0.6969697"
"107.134796","54.45602","1102759","0.6969697"
"107.30483","54.306004","1102776","0.6969697"
"107.46485","54.09598","1102793","0.6969697"
"107.63488","53.895958","1102809","0.6969697"
"107.93492","53.605927","1102826","0.6969697"
"108.12494","53.465908","1102843","0.6969697"
"108.31496","53.325893","1102859","0.6969697"
"108.535","53.19588","1102876","0.6959922"
"108.74503","53.055862","1102893","0.6969697"
"109.06507","52.875847","1102909","0.6969697"
"109.27511","52.695827","1102926","0.6969697"
"109.72517","52.325783","1102959","0.6979472"
"109.975204","52.145763","1102976","0.6989247"
"110.145226","51.995747","1102993","0.70087975"
"110.24523","51.855732","1103009","0.70087975"
"110.34525","51.6157","1103026","0.69990224"
"110.45526","51.445683","1103043","0.69990224"
"110.53527","51.15565","1103059","0.70087975"
"110.61529","50.975636","1103076","0.6959922"
"110.645294","50.83562","1103093","0.68817204"
"110.685295","50.705605","1103109","0.6930596"
"110.7253","50.465576","1103126","0.70087975"
"110.7253","50.27556","1103143","0.70087975"
"110.7253","50.185547","1103159","0.70185727"
"110.71531","50.05553","1103176","0.7028348"
"110.70529","49.95552","1103193","0.7028348"
"110.67529","49.845512","1103209","0.70087975"
"110.57529","49.715496","1103226","0.70185727"
"110.475266","49.615486","1103243","0.70185727"
"110.395256","49.525475","1103259","0.7028348"
"110.395256","49.525475","1103276","0.7038123"
"110.24523","49.30545","1103293","0.70185727"
"110.12521","49.205437","1103309","0.70185727"
"109.975204","49.125427","1103326","0.70087975"
"109.87518","49.125427","1103343","0.6989247"
"109.75517","49.125427","1103359","0.6989247"
"109.61514","49.11543","1103376","0.6979472"
"109.48513","49.11543","1103393","0.6989247"
"109.32511","49.11543","1103409","0.6979472"
"109.15508","49.13543","1103426","0.6969697"
"108.84504","49.155434","1103443","0.6969697"
"108.60501","49.13543","1103459","0.6979472"
"108.30497","49.125427","1103476","0.6969697"
"107.974915","49.255444","1103493","0.6969697"
"107.64488","49.315453","1103509","0.6959922"
"107.20482","49.39546","1103526","0.6959922"
"106.93478","49.41546","1103543","0.6969697"
"106.674736","49.41546","1103559","0.6959922"
"106.45472","49.385456","1103576","0.6959922"
"106.14467","49.32545","1103593","0.69501466"
"105.93463","49.255444","1103609","0.69501466"
"105.72462","49.13543","1103626","0.69403714"
"105.51459","49.085426","1103643","0.69403714"
"105.244545","49.085426","1103659","0.6979472"
"105.01452","49.21544","1103676","0.7028348"
"104.8545","49.21544","1103693","0.7028348"
"104.694466","49.205437","1103709","0.7028348"
"104.54444","49.205437","1103726","0.70185727"
"104.2544","49.18544","1103743","0.69990224"
"104.1644","49.19544","1103759","0.6979472"
"104.144394","49.355457","1103776","0.6969697"
"104.13439","49.555473","1103793","0.6959922"
"104.184395","49.87551","1103809","0.69501466"
"104.37443","50.365566","1103826","0.69403714"
"104.42442","50.695606","1103843","0.6989247"
"104.484436","51.00564","1103859","0.6989247"
"104.54444","51.305668","1103876","0.6930596"
"104.654465","51.5857","1103893","0.6930596"
"104.904495","52.055756","1103909","0.69403714"
"105.164536","52.315784","1103926","0.68914956"
"105.43456","52.585815","1103943","0.684262"
"105.61459","52.92585","1103959","0.684262"
"105.90464","53.505913","1103976","0.68328446"
"106.07465","53.96597","1103993","0.68328446"
"106.26469","54.426014","1104009","0.684262"
"106.47472","54.776054","1104026","0.68328446"
"106.674736","55.04608","1104043","0.68328446"
"106.784744","55.246105","1104059","0.684262"
"106.884766","55.376118","1104070","0.684262"
"106.90478","55.486134","1104093","0.684262"
"106.90478","55.58614","1104126","0.6852395"
"106.90478","55.686153","1104143","0.684262"
"106.90478","55.686153","1104159","0.6852395"
"106.79476","55.71616","1104176","0.6852395"
"106.79476","55.736156","1104183","0.6852395"
"106.68474","55.736156","1104209","0.6852395"
"106.56473","55.626152","1104259","0.6852395"
"106.4847","55.506138","1104276","0.6852395"
"106.25468","55.086094","1104293","0.6871945"
"106.124664","54.786057","1104309","0.6871945"
"105.994644","54.416016","1104326","0.68817204"
"105.86464","53.86595","1104343","0.68914956"
"105.6346","52.955853","1104359","0.68817204"
"105.46458","52.435795","1104376","0.68914956"
"105.194534","52.02575","1104393","0.69403714"
"104.904495","51.655712","1104409","0.69990224"
"104.694466","51.215664","1104426","0.69990224"
"104.364426","50.51558","1104443","0.6959922"
"104.09438","50.05553","1104459","0.70185727"
"103.79434","49.58548","1104476","0.70185727"
"103.514305","49.255444","1104493","0.70185727"
"103.25427","48.925407","1104509","0.7028348"
"102.87422","48.265335","1104526","0.70185727"
"102.60418","47.87529","1104543","0.7028348"
"102.30413","47.535255","1104559","0.7028348"
"102.0441","47.305225","1104576","0.70185727"
"101.67405","46.80517","1104593","0.6989247"
"101.40401","46.345123","1104609","0.6989247"
"101.17397","45.97508","1104626","0.6989247"
"100.97395","45.665047","1104643","0.6989247"
"100.79393","45.325012","1104659","0.69990224"
"100.5539","44.92497","1104676","0.6969697"
"100.32387","44.604927","1104693","0.7047898"
"100.08383","44.264893","1104709","0.71163243"
"99.8738","44.014862","1104726","0.7106549"
"99.663765","43.774837","1104743","0.7096774"
"99.34372","43.364796","1104759","0.7096774"
"99.123695","43.114765","1104776","0.7096774"
"99.01369","42.88474","1104793","0.7047898"
"98.81366","42.68472","1104809","0.7106549"
"98.363594","42.484695","1104826","0.7194526"
"98.22357","42.33468","1104843","0.71847504"
"98.01354","42.15466","1104859","0.7174975"
"97.823524","42.004642","1104876","0.7174975"
"97.56348","41.73461","1104893","0.71652"
"97.40346","41.5846","1104909","0.714565"
"97.28344","41.41458","1104926","0.714565"
"97.15343","41.254562","1104943","0.71358746"
"97.00341","41.094543","1104959","0.71163243"
"96.803375","40.834515","1104976","0.71163243"
"96.683365","40.624493","1104993","0.71260995"
"96.57334","40.414467","1105009","0.71163243"
"96.39332","40.214443","1105026","0.71847504"
"96.2033","39.97442","1105043","0.7243402"
"95.99327","39.63438","1105059","0.7243402"
"95.833244","39.404354","1105076","0.72238517"
"95.64322","39.17433","1105093","0.72140765"
"95.44319","38.964306","1105109","0.72043014"
"95.24316","38.72428","1105126","0.72043014"
"94.89312","38.384243","1105143","0.714565"
"94.653076","38.09421","1105159","0.7106549"
"94.363045","37.754173","1105176","0.7243402"
"94.05299","37.47414","1105193","0.7438905"
"93.59293","37.064095","1105209","0.7438905"
"93.272896","36.794064","1105226","0.7419355"
"92.99285","36.494034","1105243","0.740958"
"92.712814","36.173996","1105259","0.740958"
"92.44277","35.81396","1105276","0.7360704"
"92.01272","35.09388","1105293","0.7302053"
"91.70267","34.693836","1105309","0.72825027"
"91.26261","34.293793","1105326","0.7302053"
"90.83255","33.903748","1105343","0.73313785"
"90.51251","33.533707","1105359","0.7311828"
"89.99243","32.903637","1105376","0.7292278"
"89.60239","32.363575","1105393","0.7497556"
"89.202324","31.943531","1105409","0.7683284"
"88.76227","31.593493","1105426","0.7673509"
"88.09218","31.123442","1105443","0.76441836"
"87.70212","30.813404","1105459","0.7614858"
"87.34208","30.483372","1105476","0.7605083"
"86.97202","30.13333","1105493","0.7595308"
"86.60197","29.733286","1105509","0.7595308"
"85.961876","29.083214","1105526","0.7595308"
"85.52182","28.69317","1105543","0.76344085"
"85.18177","28.263124","1105559","0.76344085"
"84.85172","27.833075","1105576","0.76246333"
"84.34165","27.213007","1105593","0.7790811"
"83.9716","26.842968","1105609","0.8005865"
"83.61156","26.272902","1105626","0.799609"
"83.27151","25.722841","1105643","0.7986315"
"82.921455","25.25279","1105659","0.79667646"
"82.421394","24.35269","1105676","0.79667646"
"82.121346","23.872639","1105693","0.79569894"
"81.8113","23.452593","1105709","0.799609"
"81.50126","22.832523","1105726","0.8044966"
"81.13122","22.102446","1105743","0.80156404"
"80.61114","21.27235","1105759","0.79667646"
"80.29109","20.872307","1105776","0.79667646"
"79.97105","20.472263","1105793","0.79667646"
"79.661","20.112223","1105809","0.79569894"
"79.170944","19.63217","1105826","0.7947214"
"78.8509","19.282131","1105843","0.7937439"
"78.570854","18.91209","1105859","0.77028346"
"78.32082","18.572052","1105876","0.75757575"
"78.06078","18.222015","1105893","0.7653959"
"77.71074","17.63195","1105909","0.76344085"
"77.50071","17.201902","1105926","0.76344085"
"77.29068","16.73185","1105943","0.7614858"
"77.07065","16.271797","1105959","0.7595308"
"76.77061","15.621727","1105976","0.7595308"
"76.600586","15.191679","1105993","0.75855327"
"76.41056","14.791635","1106009","0.75073314"
"76.28054","14.301581","1106026","0.7438905"
"76.15052","13.751519","1106043","0.7233627"
"76.07051","12.901426","1106059","0.70087975"
"76.0005","12.261355","1106076","0.6783969"
"75.9505","11.641287","1106093","0.6783969"
"75.93049","11.12123","1106109","0.67644185"
"75.93049","10.691182","1106126","0.67155427"
"76.050514","10.051111","1106143","0.6744868"
"76.07051","9.871091","1106159","0.6744868"
"76.33054","9.321031","1106176","0.684262"
"76.33054","9.321031","1106193","0.6930596"
"76.680595","8.820974","1106209","0.71652"
"77.09065","8.480937","1106226","0.740958"
"77.57072","8.220908","1106243","0.7380254"
"77.57072","8.220908","1106259","0.7350929"
"78.1908","8.110896","1106276","0.7311828"
"79.20095","8.100895","1106293","0.7243402"
"79.71101","8.120897","1106309","0.72140765"
"80.20108","8.210908","1106326","0.7194526"
"80.72115","8.230909","1106343","0.7194526"
"81.26123","8.230909","1106359","0.7243402"
"81.7913","8.250912","1106370","0.72825027"
"82.31138","8.4009285","1106393","0.72825027"
"82.86145","8.560946","1106409","0.72727275"
"83.42153","8.730966","1106426","0.72727275"
"83.981606","8.930987","1106443","0.7086999"
"84.87173","9.401039","1106459","0.6959922"
"85.19177","9.671069","1106476","0.6979472"
"85.49181","9.981103","1106493","0.69990224"
"85.82186","10.361145","1106509","0.7038123"
"86.381935","10.891204","1106526","0.7243402"
"86.66197","11.341253","1106543","0.72629523"
"86.92201","11.861311","1106559","0.72825027"
"87.17204","12.431375","1106576","0.74486804"
"87.43208","12.961433","1106593","0.75073314"
"87.87214","13.701515","1106609","0.740958"
"88.2122","14.201569","1106626","0.7438905"
"88.54223","14.731628","1106643","0.74584556"
"88.872284","15.161675","1106659","0.7468231"
"89.40236","15.741739","1106676","0.7478006"
"89.762405","16.141785","1106693","0.7487781"
"90.12245","16.56183","1106709","0.7536657"
"90.50251","17.021881","1106726","0.7546432"
"90.95257","17.501934","1106743","0.7556207"
"91.63266","18.132006","1106759","0.75659823"
"92.08273","18.532047","1106776","0.7605083"
"92.462776","18.92209","1106793","0.76930594"
"92.802826","19.322136","1106809","0.77517104"
"93.3529","19.962206","1106826","0.7800586"
"93.75296","20.442259","1106843","0.78201365"
"94.09301","20.812302","1106859","0.78396875"
"94.403046","21.212345","1106876","0.78494626"
"94.7131","21.792408","1106893","0.7869013"
"95.163155","22.6125","1106909","0.78299123"
"95.5432","23.022545","1106926","0.76246333"
"95.873245","23.372583","1106943","0.7546432"
"96.17329","23.852636","1106959","0.7653959"
"96.513336","24.492706","1106976","0.7673509"
"96.933395","25.462814","1106993","0.7722385"
"97.223434","26.072882","1107009","0.7771261"
"97.59349","26.78296","1107026","0.78103614"
"97.913536","27.533045","1107043","0.76246333"
"98.333595","28.483149","1107059","0.7468231"
"98.713646","29.073214","1107076","0.75268817"
"99.163704","29.793291","1107093","0.75855327"
"99.61377","30.58338","1107109","0.76344085"
"100.04382","31.283459","1107126","0.7683284"
"100.61391","32.163555","1107143","0.7790811"
"100.99396","32.813625","1107159","0.79569894"
"101.324005","33.5037","1107176","0.773216"
"101.62404","34.153774","1107193","0.73998046"
"101.92408","34.70384","1107209","0.7438905"
"102.364136","35.593937","1107226","0.7478006"
"102.66418","36.194","1107243","0.75268817"
"102.91422","36.764065","1107259","0.7556207"
"103.10424","37.304123","1107276","0.75855327"
"103.41429","38.144215","1107293","0.75855327"
"103.75433","38.65427","1107309","0.7302053"
"103.984375","39.14433","1107326","0.73216033"
"104.21441","39.654385","1107343","0.7302053"
"104.45444","40.194443","1107359","0.73216033"
"104.80449","41.004536","1107376","0.73313785"
"105.00452","41.52459","1107393","0.73411536"
"105.21455","42.05465","1107409","0.73411536"
"105.324554","42.5447","1107426","0.73411536"
"105.67461","43.264782","1107443","0.71847504"
"105.94465","43.764835","1107459","0.7194526"
"106.20468","44.244892","1107476","0.71847504"
"106.46471","44.67494","1107493","0.7174975"
"106.73475","45.104984","1107509","0.7174975"
"107.16481","45.935078","1107526","0.71847504"
"107.424835","46.49514","1107543","0.7174975"
"107.71489","46.955193","1107559","0.72140765"
"108.064926","47.275227","1107576","0.72140765"
"108.40498","47.67527","1107593","0.71652"
"108.865036","48.42535","1107609","0.71652"
"109.15508","48.8554","1107626","0.7155425"
"109.455124","49.165436","1107643","0.714565"
"109.77518","49.275444","1107659","0.714565"
"110.24523","49.625484","1107676","0.7174975"
"110.46526","49.865513","1107693","0.71652"
"110.67529","50.075535","1107709","0.7155425"
"110.895325","50.255554","1107726","0.7155425"
"111.105354","50.445576","1107743","0.714565"
"111.405396","50.725605","1107759","0.70576733"
"111.60542","50.905624","1107776","0.7047898"
"111.81546","51.01564","1107793","0.7106549"
"111.92547","51.13565","1107809","0.7028348"
"112.1355","51.39568","1107826","0.6744868"
"112.35553","51.835728","1107842","0.21309873"
"112.51555","51.945744","1107849","9.775171E-4"
"112.51555","51.945744","1107856","9.775171E-4"
