"94.49306","39.294342","1459794","0.11339198"
"94.49306","39.294342","1459806","0.14173998"
"94.45305","39.394356","1459840","0.257087"
"94.563065","39.584373","1459873","0.33822092"
"94.98312","40.06443","1459906","0.38025415"
"95.363174","40.64449","1459923","0.40957966"
"95.61321","41.074543","1459940","0.43792766"
"95.85325","41.464584","1459956","0.46138808"
"96.163284","41.78462","1459973","0.47214076"
"96.61336","42.204662","1459990","0.4848485"
"96.9134","42.5147","1460006","0.48875856"
"97.093414","42.85474","1460023","0.49951124"
"97.38345","43.224777","1460040","0.5083089"
"99.44374","45.875072","1460140","0.53861195"
"99.8938","46.59515","1460156","0.542522"
"100.17384","47.075203","1460173","0.5434995"
"100.43388","47.475246","1460190","0.5532747"
"100.69392","47.805283","1460206","0.5581623"
"101.13397","48.42535","1460223","0.5610948"
"101.44402","48.925407","1460240","0.5650049"
"101.72406","49.40546","1460256","0.56793743"
"101.98409","49.905518","1460273","0.57087"
"102.32414","50.465576","1460290","0.5718475"
"102.85421","51.255665","1460306","0.58162266"
"103.15425","51.735718","1460323","0.58651024"
"103.4643","52.15576","1460340","0.5845552"
"103.74433","52.505806","1460356","0.58748776"
"104.1244","53.08587","1460373","0.59237534"
"104.33441","53.615925","1460390","0.59433043"
"104.51445","54.275997","1460406","0.59628546"
"104.71448","54.89607","1460423","0.5982405"
"105.07452","55.396122","1460440","0.59433043"
"105.524574","55.99619","1460456","0.5904203"
"105.72462","56.486244","1460473","0.6001955"
"105.93463","56.986305","1460490","0.6177908"
"106.86477","59.196545","1460556","0.61974585"
"107.0948","59.816612","1460573","0.62463343"
"107.34484","60.316666","1460590","0.627566"
"107.72488","60.936733","1460606","0.6285435"
"107.95492","61.316776","1460623","0.629521"
"108.224945","61.706818","1460640","0.6304985"
"108.495","62.146873","1460656","0.6363636"
"108.73503","62.656925","1460673","0.6412512"
"109.045074","63.407005","1460690","0.6412512"
"109.23509","63.95707","1460706","0.6402737"
"109.425125","64.49713","1460723","0.6392962"
"109.54514","65.00719","1460740","0.63831866"
"109.85518","65.50724","1460756","0.6402737"
"110.25523","66.14731","1460773","0.6402737"
"110.475266","66.53735","1460790","0.6392962"
"110.7253","66.9574","1460806","0.64320624"
"110.96534","67.41745","1460823","0.64418375"
"111.355385","68.06753","1460840","0.6402737"
"111.665436","68.45757","1460856","0.6392962"
"112.025475","68.7776","1460873","0.63734114"
"112.45555","69.067635","1460890","0.6353861"
"112.8856","69.33766","1460906","0.6344086"
"113.31566","69.77772","1460923","0.6304985"
"113.54569","70.047745","1460940","0.6285435"
"113.76572","70.30777","1460956","0.62658846"
"113.99575","70.567795","1460973","0.62463343"
"114.22578","70.81783","1460990","0.6226784"
"114.56583","71.11786","1461006","0.61974585"
"114.78587","71.29788","1461023","0.6177908"
"114.93588","71.347885","1461040","0.6226784"
"115.14591","71.4879","1461056","0.62658846"
"115.35594","71.54791","1461069","0.63147604"
"115.47596","71.56791","1461090","0.63831866"
"115.55597","71.4479","1461106","0.6402737"
"115.55597","71.177864","1461123","0.64320624"
"115.32593","70.697815","1461140","0.6412512"
"114.80586","69.6077","1461156","0.6334311"
"114.43582","68.79761","1461173","0.63245356"
"114.09577","68.02752","1461190","0.6353861"
"113.72571","67.29744","1461206","0.6412512"
"113.125626","66.32733","1461223","0.6392962"
"112.75559","65.78728","1461240","0.6412512"
"112.415535","65.30722","1461256","0.64418375"
"112.14549","64.92718","1461273","0.6451613"
"112.01549","64.65715","1461290","0.6461388"
"111.88547","64.427124","1461306","0.6461388"
"111.88547","64.427124","1461323","0.6451613"
"111.87546","64.317116","1461340","0.64320624"
"111.87546","64.317116","1461356","0.6422287"
"112.14549","64.307106","1461373","0.6392962"
"112.665565","64.51713","1461390","0.6344086"
"113.06563","64.78716","1461406","0.63147604"
"113.44568","65.1272","1461423","0.627566"
"113.85573","65.50724","1461440","0.6236559"
"114.41581","66.0473","1461456","0.6177908"
"114.80586","66.377335","1461473","0.61974585"
"115.24593","66.667366","1461490","0.627566"
"115.59597","66.9774","1461506","0.63734114"
"115.826004","67.30744","1461523","0.63734114"
"116.176056","67.74749","1461540","0.6285435"
"116.37608","68.03752","1461556","0.62658846"
"116.5561","68.34755","1461573","0.6236559"
"116.726135","68.657585","1461590","0.6217009"
"116.926155","68.947624","1461606","0.61974585"
"117.27621","69.38767","1461623","0.6168133"
"117.526245","69.6677","1461640","0.61485827"
"117.75626","69.89773","1461656","0.61290324"
"117.96631","70.12775","1461673","0.6119257"
"118.28635","70.41778","1461690","0.60801566"
"118.496376","70.5878","1461706","0.6060606"
"118.68639","70.73782","1461723","0.6041056"
"118.87643","70.85783","1461740","0.6031281"
"119.06646","70.89784","1461753","0.60215056"
"119.21648","70.947845","1461773","0.60215056"
"119.34649","70.977844","1461790","0.60117304"
"119.446495","70.99785","1461798","0.60117304"
"119.446495","70.99785","1461823","0.60215056"
"119.54652","70.99785","1461836","0.6031281"
"119.64654","70.89784","1461873","0.6060606"
"119.63653","70.63781","1461890","0.6099707"
"119.52652","70.247765","1461906","0.61485827"
"119.13647","69.31766","1461923","0.62072337"
"118.706406","68.667595","1461940","0.62463343"
"118.26635","68.087524","1461956","0.6285435"
"117.83629","67.51746","1461973","0.63831866"
"117.36623","66.9274","1461990","0.6402737"
"116.70612","66.07731","1462006","0.6412512"
"116.37608","65.527245","1462023","0.6451613"
"116.09605","64.96718","1462040","0.64907134"
"115.816","64.427124","1462056","0.6520039"
"115.335945","63.73705","1462073","0.65102637"
"115.02589","63.357002","1462090","0.6480938"
"114.745865","63.01696","1462106","0.6451613"
"114.54583","62.706932","1462123","0.6422287"
"114.42581","62.4069","1462140","0.6480938"
"114.3458","62.016853","1462156","0.6363636"
"114.3358","61.88684","1462173","0.63147604"
"114.41581","61.786827","1462190","0.6304985"
"114.50582","61.746822","1462206","0.629521"
"114.695854","61.656815","1462223","0.6334311"
"115.0559","61.636814","1462240","0.6412512"
"115.31593","61.636814","1462256","0.64320624"
"115.52596","61.636814","1462273","0.6402737"
"115.796005","61.746822","1462290","0.6363636"
"116.346085","62.25688","1462306","0.6451613"
"116.82615","62.676926","1462323","0.63831866"
"117.28622","63.14698","1462340","0.627566"
"117.686264","63.587032","1462356","0.6226784"
"118.0463","64.07708","1462373","0.61876833"
"118.486374","64.837166","1462390","0.61388075"
"118.75641","65.37723","1462406","0.6089932"
"119.01645","65.85728","1462423","0.6060606"
"119.25649","66.26733","1462440","0.6031281"
"119.64654","66.827385","1462456","0.6031281"
"119.94658","67.16743","1462473","0.60801566"
"120.19661","67.46746","1462490","0.60801566"
"120.41664","67.71748","1462506","0.6060606"
"120.636665","67.8675","1462523","0.60801566"
"120.98672","67.967514","1462540","0.6119257"
"121.5568","68.007515","1462573","0.60801566"
"121.71682","68.007515","1462588","0.60703814"
"121.85684","67.8275","1462623","0.6109482"
"121.836845","67.607475","1462640","0.61388075"
"121.71682","67.16743","1462656","0.6168133"
"121.41678","66.52735","1462673","0.61876833"
"120.696686","65.37723","1462690","0.61974585"
"120.28662","64.51713","1462706","0.6158358"
"119.81656","63.75705","1462723","0.6158358"
"119.3565","63.116974","1462740","0.6217009"
"118.93644","62.516914","1462756","0.63245356"
"118.41637","61.706818","1462773","0.62658846"
"118.25633","61.32678","1462790","0.62463343"
"118.16633","61.05675","1462806","0.62561095"
"118.146324","60.956738","1462823","0.62561095"
"118.146324","60.80672","1462840","0.6226784"
"118.526375","60.766716","1462856","0.6168133"
"118.87643","60.936733","1462873","0.6119257"
"119.286476","61.22677","1462890","0.6060606"
"119.75655","61.62681","1462906","0.6001955"
"120.45665","62.49691","1462923","0.6119257"
"120.91671","63.026966","1462940","0.6158358"
"121.37677","63.46702","1462956","0.6109482"
"121.72682","63.907066","1462973","0.6060606"
"122.06687","64.32711","1462990","0.60215056"
"122.57694","64.85717","1463006","0.597263"
"122.90698","65.1672","1463023","0.60117304"
"123.19702","65.41724","1463040","0.6060606"
"123.437065","65.62725","1463056","0.6099707"
"123.717094","65.87728","1463073","0.61290324"
"123.87713","65.90728","1463090","0.6119257"
"124.03715","65.94729","1463106","0.6109482"
"124.19717","65.96729","1463123","0.6109482"
"124.33719","65.96729","1463137","0.6099707"
"124.4272","65.96729","1463156","0.6109482"
"124.4272","65.96729","1463173","0.61290324"
"124.45719","65.85728","1463190","0.61485827"
"124.45719","65.607254","1463206","0.6177908"
"124.437195","65.32722","1463223","0.6217009"
"124.19717","64.77716","1463240","0.629521"
"123.99713","64.40712","1463256","0.6344086"
"123.797104","64.08708","1463273","0.6392962"
"123.62709","63.79705","1463290","0.6422287"
"123.387054","63.397007","1463306","0.64418375"
"123.297035","63.116974","1463323","0.6402737"
"123.19702","62.836945","1463340","0.63734114"
"123.08701","62.546913","1463356","0.6471163"
"122.98701","62.25688","1463373","0.64907134"
"122.706955","61.836838","1463390","0.6285435"
"122.456924","61.586803","1463406","0.62658846"
"122.25689","61.346783","1463423","0.629521"
"122.046875","61.08675","1463440","0.63245356"
"121.6168","60.386673","1463473","0.6402737"
"121.37677","60.06664","1463490","0.64418375"
"121.05673","59.746605","1463506","0.6480938"
"120.79669","59.416565","1463523","0.6471163"
"120.44664","58.96652","1463540","0.6422287"
"120.23662","58.71649","1463556","0.6392962"
"119.95658","58.48646","1463573","0.6422287"
"119.64654","58.256443","1463590","0.6451613"
"119.30649","58.036415","1463606","0.6480938"
"118.776405","57.72638","1463623","0.6529814"
"118.41637","57.456352","1463640","0.66471165"
"118.0063","57.08631","1463656","0.65689147"
"117.566246","56.746277","1463673","0.6422287"
"116.99616","56.276222","1463690","0.64907134"
"116.65612","55.99619","1463706","0.6520039"
"116.32607","55.736156","1463723","0.65591395"
"116.01603","55.476135","1463740","0.65884656"
"115.70599","55.226105","1463756","0.6617791"
"115.16591","54.82606","1463773","0.6627566"
"114.71585","54.516026","1463790","0.65591395"
"114.3358","54.22599","1463806","0.6539589"
"113.99575","53.93596","1463823","0.65591395"
"113.675705","53.64593","1463840","0.65884656"
"113.23565","53.325893","1463856","0.6617791"
"112.95561","53.13587","1463873","0.66373414"
"112.67557","52.955853","1463890","0.66471165"
"112.415535","52.795837","1463906","0.6666667"
"112.06549","52.565807","1463923","0.6676442"
"111.865456","52.455803","1463940","0.6686217"
"111.67544","52.38579","1463956","0.66959924"
"111.51542","52.275776","1463972","0.67057675"
"111.38538","52.19577","1463990","0.67057675"
"111.25537","52.11576","1464006","0.67155427"
"111.145355","52.03575","1464023","0.67155427"
"111.05534","51.985744","1464040","0.6725318"
"110.95532","51.86573","1464056","0.6735093"
"110.90532","51.775726","1464073","0.6735093"
"110.85532","51.685715","1464090","0.6725318"
"110.845314","51.565697","1464106","0.6852395"
"110.93533","51.435684","1464123","0.68230695"
"111.065346","51.345676","1464140","0.6656892"
"111.34538","51.225662","1464156","0.6656892"
"111.535416","51.165657","1464173","0.66471165"
"111.735435","51.09565","1464190","0.66373414"
"111.98547","51.02564","1464206","0.6627566"
"112.26552","50.985634","1464223","0.6617791"
"112.64555","50.92563","1464240","0.6608016"
"112.8856","50.84562","1464256","0.6598241"
"113.14564","50.74561","1464273","0.65884656"
"113.39567","50.675602","1464290","0.65884656"
"113.73572","50.585594","1464306","0.65689147"
"113.975746","50.535587","1464323","0.65591395"
"114.20578","50.47558","1464340","0.6539589"
"114.43582","50.415577","1464356","0.6529814"
"114.85587","50.37557","1464373","0.65786904"
"115.16591","50.37557","1464390","0.66373414"
"115.335945","50.335564","1464406","0.6627566"
"115.42595","50.29556","1464423","0.6608016"
"115.57597","50.255554","1464440","0.6608016"
"115.69599","50.21555","1464456","0.6608016"
"115.97602","50.095535","1464473","0.65884656"
"116.06604","50.065533","1464490","0.65786904"
"116.21605","50.01553","1464506","0.65689147"
"116.36608","49.975525","1464523","0.65591395"
"116.4761","49.94552","1464540","0.65493643"
"116.57612","49.905518","1464556","0.65493643"
"116.676125","49.805504","1464573","0.6539589"
"116.806145","49.68549","1464606","0.6529814"
"116.89616","49.64549","1464623","0.6529814"
"117.006165","49.605484","1464640","0.6520039"
"117.1262","49.59548","1464656","0.6520039"
"117.236206","49.57548","1464673","0.6520039"
"117.35622","49.545475","1464690","0.6520039"
"117.476234","49.535477","1464706","0.64907134"
"117.74626","49.555473","1464723","0.6480938"
"117.99631","49.545475","1464740","0.6461388"
"118.30634","49.48547","1464756","0.64418375"
"118.68639","49.41546","1464773","0.6412512"
"118.88643","49.365456","1464790","0.6402737"
"119.04645","49.275444","1464806","0.6392962"
"119.18647","49.19544","1464823","0.63831866"
"119.33649","49.105427","1464836","0.63831866"
"119.4865","49.015423","1464856","0.63734114"
"119.63653","48.915405","1464873","0.63734114"
"119.80656","48.875404","1464890","0.6451613"
"120.0766","48.835396","1464906","0.6529814"
"120.25662","48.67538","1464919","0.6529814"
"120.41664","48.535362","1464938","0.6529814"
"120.57666","48.38535","1464956","0.6529814"
"120.73668","48.22533","1464973","0.6529814"
"120.98672","47.985302","1464990","0.6529814"
"121.17675","47.785286","1465006","0.65884656"
"121.20675","47.61526","1465023","0.6412512"
"121.34677","47.43524","1465040","0.6422287"
"121.52679","47.225224","1465056","0.6422287"
"121.66681","47.005196","1465073","0.64320624"
"121.81683","46.705162","1465090","0.6451613"
"121.96685","46.52514","1465106","0.6451613"
"122.05686","46.375126","1465123","0.6461388"
"122.1869","46.215107","1465140","0.6471163"
"122.3169","46.05509","1465152","0.6461388"
"122.44692","45.905075","1465173","0.6471163"
"122.55693","45.76506","1465190","0.6471163"
"122.60694","45.67505","1465206","0.6471163"
"122.71695","45.595043","1465212","0.6471163"
"122.836975","45.47503","1465238","0.6471163"
"122.926994","45.355015","1465256","0.6480938"
"122.926994","45.355015","1465265","0.6471163"
"122.926994","45.355015","1465323","0.6461388"
"122.926994","45.355015","1465339","0.6451613"
"122.926994","45.355015","1465352","0.64418375"
"122.90698","45.58504","1465389","0.60801566"
"122.89699","45.79506","1465406","0.46041057"
"122.67695","45.995087","1465423","0.038123168"
"122.666954","46.185104","1465427","9.775171E-4"
"122.666954","46.185104","1465434","9.775171E-4"
"110.7953","51.5957","1465847","0.06158358"
"110.7953","51.5957","1465856","0.07722385"
"110.87533","51.5057","1465873","0.15542522"
"110.98534","51.39568","1465889","0.26979473"
"111.00533","51.255665","1465906","0.35679373"
"111.00533","51.255665","1465923","0.427175"
"110.98534","51.05564","1465939","0.4965787"
"110.90532","50.875626","1465956","0.51808405"
"110.78532","50.56559","1465973","0.5493646"
"110.645294","50.31556","1465989","0.57478005"
"110.36526","49.905518","1466006","0.6050831"
"110.18523","49.625484","1466023","0.61876833"
"109.965195","49.32545","1466039","0.62658846"
"109.70516","49.18544","1466056","0.6304985"
"109.48513","49.075424","1466073","0.6344086"
"109.16508","48.69538","1466089","0.6412512"
"108.89505","48.435352","1466106","0.6461388"
"108.62501","48.15532","1466123","0.65004885"
"108.34497","47.865288","1466139","0.6529814"
"107.88491","47.65527","1466156","0.65689147"
"107.55487","47.525253","1466173","0.65786904"
"107.26482","47.225224","1466189","0.65689147"
"106.97478","46.875183","1466206","0.65884656"
"106.674736","46.49514","1466223","0.6608016"
"106.324684","45.875072","1466239","0.6627566"
"106.084656","45.435024","1466256","0.66373414"
"105.834625","45.154987","1466273","0.66471165"
"105.574585","44.934967","1466289","0.6656892"
"105.26455","44.604927","1466306","0.67057675"
"104.824486","44.104874","1466323","0.6744868"
"104.564445","43.784843","1466339","0.6744868"
"104.34441","43.4148","1466356","0.6686217"
"104.03437","43.044758","1466373","0.6735093"
"103.4643","42.564705","1466389","0.6813294"
"103.134254","42.254673","1466406","0.6813294"
"102.91422","41.96464","1466423","0.6813294"
"102.73419","41.69461","1466439","0.6813294"
"102.52417","41.434578","1466456","0.6803519"
"102.24413","40.984528","1466473","0.6813294"
"102.0641","40.7145","1466489","0.68230695"
"101.90408","40.464474","1466506","0.68230695"
"101.72406","40.194443","1466523","0.68230695"
"101.55403","39.91441","1466539","0.68230695"
"101.35401","39.584373","1466556","0.684262"
"101.25399","39.37435","1466573","0.68914956"
"101.12398","39.16433","1466589","0.6911046"
"100.99396","38.934303","1466606","0.6911046"
"100.81393","38.59427","1466623","0.6901271"
"100.6339","38.34424","1466639","0.70087975"
"100.43388","38.114216","1466656","0.714565"
"100.24385","37.924194","1466673","0.71358746"
"100.15384","37.84418","1466689","0.71260995"
"99.9138","37.594154","1466706","0.71163243"
"99.79379","37.514145","1466723","0.71163243"
"99.673775","37.484142","1466739","0.7096774"
"99.52376","37.44414","1466756","0.7086999"
"99.38374","37.414135","1466773","0.70674485"
"99.11369","37.39413","1466789","0.70674485"
"98.75364","37.39413","1466823","0.7038123"
"98.63363","37.414135","1466839","0.7028348"
"98.363594","37.414135","1466852","0.70185727"
"97.92353","37.484142","1466889","0.70087975"
"97.71351","37.54415","1466906","0.6989247"
"97.50348","37.674164","1466923","0.6969697"
"97.20344","37.834183","1466939","0.6959922"
"97.013405","37.944195","1466956","0.69501466"
"96.78337","37.9842","1466973","0.6979472"
"96.49333","38.10421","1466989","0.7028348"
"96.2033","38.25423","1467006","0.7038123"
"96.12328","38.34424","1467023","0.6920821"
"95.99327","38.494255","1467039","0.6803519"
"95.76324","38.57426","1467056","0.6783969"
"95.58321","38.57426","1467073","0.67741936"
"95.43319","38.624268","1467089","0.67644185"
"95.27316","38.67428","1467106","0.67644185"
"95.13315","38.754284","1467123","0.6617791"
"95.073135","38.99431","1467139","0.4799609"
"95.123146","39.094322","1467156","0.029325513"
"95.34317","39.18433","1467156","9.775171E-4"
"95.34317","39.18433","1467164","9.775171E-4"
"100.87395","38.27423","1467456","0.3479961"
"100.67391","38.18422","1467473","0.38514173"
"100.5939","38.034203","1467489","0.4525904"
"100.43388","37.81418","1467506","0.51808405"
"100.24385","37.64416","1467523","0.55034214"
"100.13384","37.484142","1467539","0.58064514"
"99.95382","37.024094","1467556","0.6217009"
"99.79379","36.74406","1467573","0.6412512"
"99.56376","36.43403","1467589","0.65786904"
"99.27371","36.103992","1467606","0.67057675"
"98.713646","35.523926","1467623","0.68230695"
"98.34359","35.11388","1467639","0.6871945"
"98.04355","34.80385","1467656","0.6901271"
"97.80352","34.513813","1467673","0.69501466"
"97.67349","34.22378","1467689","0.70087975"
"97.45347","33.793736","1467706","0.70674485"
"97.33345","33.38369","1467723","0.70087975"
"97.223434","33.02365","1467739","0.72238517"
"97.18343","32.863632","1467756","0.7536657"
"97.14342","32.703613","1467773","0.7536657"
"97.11342","32.443584","1467789","0.75171065"
"97.06341","32.243565","1467806","0.7487781"
"97.00341","32.023537","1467823","0.7468231"
"96.9534","31.813517","1467839","0.74486804"
"96.853386","31.443474","1467856","0.740958"
"96.67336","31.053434","1467873","0.7370479"
"96.37332","30.483372","1467889","0.7370479"
"96.053276","29.853298","1467906","0.7370479"
"95.78324","29.303238","1467923","0.7311828"
"95.32317","28.573158","1467939","0.71847504"
"94.92311","28.0331","1467956","0.6979472"
"94.573074","27.383028","1467973","0.714565"
"94.28302","26.742956","1467989","0.74486804"
"93.96298","26.082882","1468006","0.740958"
"93.552925","25.16278","1468023","0.73900294"
"93.272896","24.70273","1468039","0.7370479"
"93.08286","24.252682","1468056","0.73411536"
"92.922844","23.96265","1468073","0.7311828"
"92.702805","23.392586","1468089","0.72825027"
"92.43277","22.932535","1468106","0.7419355"
"92.19274","22.442482","1468123","0.7419355"
"91.952705","21.932425","1468139","0.740958"
"91.72267","21.462374","1468156","0.73998046"
"91.45264","20.882309","1468173","0.73998046"
"91.1826","20.442259","1468189","0.73998046"
"90.83255","20.072218","1468206","0.73998046"
"90.50251","19.672174","1468223","0.740958"
"89.972435","19.032103","1468239","0.7302053"
"89.57238","18.592054","1468256","0.71163243"
"89.14232","18.122002","1468273","0.71260995"
"88.702255","17.581944","1468289","0.71260995"
"88.24219","16.971876","1468306","0.71260995"
"87.5421","16.081778","1468323","0.7155425"
"87.03202","15.581722","1468339","0.714565"
"86.54196","15.121671","1468356","0.714565"
"85.99188","14.511603","1468373","0.7106549"
"85.43181","13.901537","1468389","0.7028348"
"84.611694","13.241464","1468406","0.69403714"
"84.06162","12.75141","1468423","0.6744868"
"83.56155","12.231352","1468439","0.6735093"
"83.11148","11.721295","1468456","0.6735093"
"82.4814","11.091227","1468473","0.6744868"
"82.09134","10.681181","1468489","0.6744868"
"81.72129","10.2811365","1468506","0.6744868"
"81.531265","10.121119","1468523","0.6627566"
"81.21123","9.751078","1468537","0.64907134"
"80.76116","9.281026","1468556","0.64418375"
"80.36111","8.880981","1468573","0.6686217"
"80.36111","8.880981","1468589","0.6930596"
"79.94105","8.580948","1468597","0.69403714"
"79.500984","8.280915","1468623","0.69501466"
"79.02092","8.060891","1468639","0.69403714"
"79.02092","8.060891","1468656","0.67057675"
"78.48084","7.8708696","1468673","0.6451613"
"77.88077","7.670848","1468689","0.64418375"
"77.34069","7.4408226","1468706","0.6422287"
"77.34069","7.4408226","1468723","0.65102637"
"76.88062","7.3108077","1468732","0.65004885"
"76.44057","7.290806","1468756","0.627566"
"76.44057","7.2808046","1468773","0.61388075"
"75.9805","7.4408226","1468789","0.5884653"
"75.500435","7.470826","1468800","0.5894428"
"75.01037","7.5808377","1468823","0.5904203"
"74.55031","7.7108526","1468856","0.59237534"
"74.060234","8.05089","1468873","0.6353861"
"74.060234","8.05089","1468889","0.6392962"
"73.80019","8.450934","1468905","0.60117304"
"73.640175","8.930987","1468923","0.60215056"
"73.57016","9.641066","1468939","0.60215056"
"73.480156","10.231131","1468956","0.6031281"
"73.430145","10.791193","1468973","0.6031281"
"73.45015","11.361256","1468989","0.60215056"
"73.610176","12.011329","1469006","0.60117304"
"73.86021","13.03144","1469023","0.6031281"
"74.060234","13.601504","1469039","0.6177908"
"74.32027","14.201569","1469056","0.65004885"
"74.64031","14.801637","1469073","0.6656892"
"75.170395","15.621727","1469089","0.66471165"
"75.56044","16.211792","1469106","0.66373414"
"75.970505","16.861864","1469123","0.6656892"
"76.40056","17.511936","1469139","0.6725318"
"76.83062","18.112001","1469156","0.67644185"
"77.48071","18.932093","1469173","0.6735093"
"77.950775","19.53216","1469189","0.6901271"
"78.43084","20.092222","1469206","0.71358746"
"78.9409","20.532269","1469223","0.714565"
"79.470985","21.012321","1469239","0.714565"
"80.21108","21.752403","1469256","0.714565"
"80.71116","22.35247","1469273","0.7155425"
"81.22122","23.042545","1469289","0.7174975"
"81.68129","23.622612","1469306","0.7194526"
"82.32138","24.222675","1469323","0.7194526"
"82.751434","24.542713","1469339","0.71847504"
"83.1915","24.97276","1469356","0.72043014"
"83.58155","25.40281","1469373","0.72140765"
"83.931595","25.68284","1469389","0.72238517"
"84.39166","26.192896","1469406","0.7233627"
"84.6717","26.622942","1469423","0.7243402"
"84.93174","27.04299","1469439","0.7253177"
"85.16177","27.40303","1469456","0.71847504"
"85.4418","27.86308","1469473","0.68230695"
"85.59183","28.133108","1469489","0.6969697"
"85.64183","28.41314","1469506","0.6989247"
"85.70185","28.653168","1469523","0.6989247"
"85.751854","28.873192","1469539","0.7028348"
"85.86187","29.193228","1469556","0.7038123"
"85.88187","29.283236","1469573","0.70576733"
"85.88187","29.443254","1469589","0.7086999"
"85.84186","29.58327","1469606","0.7086999"
"85.82186","29.713284","1469623","0.7096774"
"85.81186","29.933311","1469639","0.71163243"
"85.81186","29.933311","1469656","0.71358746"
"85.89187","29.96331","1469673","0.71358746"
"86.06189","29.973312","1469689","0.71260995"
"86.381935","29.693281","1469706","0.71358746"
"86.631966","29.463257","1469723","0.714565"
"86.932014","29.203228","1469739","0.71260995"
"87.26206","28.973204","1469756","0.71163243"
"87.64212","28.753178","1469773","0.71163243"
"88.36221","28.31313","1469789","0.7086999"
"88.89228","28.023098","1469806","0.6930596"
"89.40236","27.733063","1469823","0.71260995"
"89.88242","27.48304","1469839","0.7487781"
"90.28247","27.263016","1469856","0.7478006"
"90.83255","26.85297","1469873","0.74584556"
"91.2026","26.482927","1469889","0.740958"
"91.54265","26.162891","1469906","0.73998046"
"91.85269","25.932865","1469923","0.73998046"
"92.29275","25.642836","1469939","0.73998046"
"92.6428","25.522821","1469956","0.73900294"
"93.05286","25.40281","1469973","0.73900294"
"93.48291","25.382805","1469989","0.73900294"
"94.29303","25.742847","1470023","0.70576733"
"94.54307","26.002872","1470039","0.48680353"
"94.74309","26.50293","1470056","0.015640274"
"94.90311","26.932976","1470059","9.775171E-4"
"94.90311","26.932976","1470067","9.775171E-4"
"86.341934","30.433365","1470336","0.40860215"
"86.341934","30.433365","1470339","0.40860215"
"86.341934","30.343353","1470356","0.44770283"
"86.341934","30.343353","1470373","0.44281524"
"86.52196","30.363356","1470389","0.43792766"
"86.99203","30.58338","1470406","0.45356792"
"87.41208","30.733398","1470423","0.4740958"
"87.93216","30.963423","1470439","0.48973608"
"88.492226","31.233452","1470456","0.50048876"
"89.0623","31.483479","1470473","0.5151515"
"89.85242","31.873524","1470489","0.5434995"
"90.4125","32.18356","1470506","0.5601173"
"91.01257","32.603603","1470523","0.5767351"
"91.56265","33.02365","1470539","0.56891495"
"92.23275","33.72373","1470556","0.5835777"
"92.54278","34.043762","1470573","0.5982405"
"92.85284","34.3938","1470589","0.6109482"
"93.162865","34.783844","1470606","0.6217009"
"93.51292","35.313904","1470623","0.63245356"
"93.99299","36.043983","1470639","0.6461388"
"94.26302","36.45403","1470656","0.6529814"
"94.49306","36.854073","1470673","0.6598241"
"94.7131","37.244118","1470689","0.6656892"
"94.993126","37.74417","1470706","0.6735093"
"95.14315","38.0242","1470723","0.67644185"
"95.28317","38.384243","1470739","0.6676442"
"95.43319","38.73428","1470756","0.6608016"
"95.573204","38.98431","1470773","0.6656892"
"95.753235","39.37435","1470789","0.6686217"
"95.90325","39.644382","1470806","0.66959924"
"96.053276","39.954414","1470823","0.67057675"
"96.29331","40.40447","1470839","0.63831866"
"96.253296","40.774506","1470856","0.29716522"
"96.263306","41.094543","1470863","9.775171E-4"
"96.263306","41.094543","1470871","9.775171E-4"
