"95.52319","40.024426","1702243","0.062561095"
"95.52319","40.024426","1702243","0.062561095"
"95.40319","39.834404","1702276","0.20430107"
"95.39318","39.724392","1702310","0.37927663"
"95.60321","39.744392","1702360","0.5669599"
"95.703224","39.764397","1702376","0.59335285"
"95.90325","39.97442","1702393","0.6236559"
"96.01327","40.09443","1702410","0.6392962"
"96.12328","40.204445","1702426","0.6529814"
"96.27331","40.314457","1702443","0.65884656"
"96.48333","40.44447","1702460","0.65884656"
"96.73336","40.624493","1702476","0.66373414"
"96.87338","40.744507","1702493","0.66959924"
"97.013405","40.884518","1702510","0.6744868"
"97.13342","41.004536","1702526","0.67741936"
"97.25344","41.114544","1702543","0.68230695"
"97.36346","41.24456","1702560","0.6901271"
"97.44347","41.354572","1702576","0.6930596"
"97.54348","41.474583","1702593","0.69501466"
"97.57349","41.574596","1702610","0.6969697"
"97.7035","41.69461","1702626","0.70087975"
"97.783516","41.78462","1702643","0.7028348"
"97.863525","41.89463","1702660","0.7047898"
"98.283585","42.554703","1702743","0.71260995"
"98.44361","42.674717","1702760","0.714565"
"98.44361","42.79473","1702776","0.72727275"
"98.833664","43.024757","1702793","0.70772237"
"98.93367","43.14477","1702810","0.70772237"
"99.03369","43.25478","1702826","0.7096774"
"99.123695","43.354794","1702843","0.7106549"
"99.22372","43.454803","1702856","0.71163243"
"99.31373","43.504807","1702876","0.71260995"
"99.40374","43.59482","1702886","0.71358746"
"99.503746","43.69483","1702910","0.714565"
"99.503746","43.69483","1702926","0.7155425"
"99.623764","43.88485","1702943","0.71847504"
"99.72378","43.984863","1702976","0.7194526"
"99.72378","43.984863","1702993","0.72140765"
"99.77379","44.084873","1703006","0.7233627"
"99.8638","44.20489","1703025","0.7233627"
"99.883804","44.314896","1703043","0.7243402"
"99.883804","44.314896","1703060","0.7253177"
"99.98381","44.43491","1703074","0.72727275"
"100.06383","44.544926","1703093","0.72629523"
"100.093834","44.634933","1703110","0.72727275"
"100.183846","44.75495","1703126","0.7253177"
"100.28385","44.864956","1703143","0.7233627"
"100.41388","44.97497","1703160","0.72043014"
"100.50389","45.05498","1703176","0.7174975"
"100.61391","45.204998","1703210","0.72043014"
"100.66391","45.355015","1703226","0.72140765"
"100.79393","45.625042","1703243","0.7243402"
"100.90394","45.75506","1703260","0.72825027"
"100.933945","45.885075","1703276","0.7311828"
"101.013954","46.005085","1703293","0.7360704"
"101.013954","46.1351","1703310","0.73998046"
"101.103966","46.27512","1703326","0.74486804"
"101.18398","46.41513","1703343","0.74584556"
"101.21399","46.545147","1703360","0.7468231"
"101.324005","46.695164","1703376","0.7478006"
"101.40401","46.80517","1703393","0.7478006"
"101.56403","47.0452","1703410","0.7478006"
"101.64405","47.175213","1703426","0.7487781"
"101.64405","47.175213","1703443","0.75073314"
"101.744064","47.28523","1703460","0.75171065"
"101.83408","47.36524","1703476","0.75855327"
"101.93409","47.455246","1703493","0.75268817"
"102.0241","47.59526","1703510","0.75171065"
"102.124115","47.735275","1703526","0.75171065"
"102.22414","47.84529","1703540","0.75268817"
"102.32414","47.975304","1703559","0.75268817"
"102.424164","48.135323","1703576","0.75268817"
"102.52417","48.255333","1703593","0.75171065"
"102.634186","48.38535","1703610","0.75171065"
"102.7642","48.635376","1703623","0.75171065"
"102.91422","48.825394","1703643","0.75073314"
"103.04424","49.085426","1703659","0.75171065"
"103.17426","49.175438","1703676","0.75268817"
"103.27428","49.175438","1703693","0.75171065"
"103.37428","49.255444","1703708","0.75171065"
"103.48431","49.40546","1703726","0.75171065"
"103.58431","49.565483","1703743","0.75268817"
"103.674324","49.705494","1703760","0.75171065"
"103.76434","49.815506","1703776","0.75268817"
"103.96438","50.05553","1703793","0.75171065"
"104.2244","50.555588","1703860","0.7438905"
"104.30441","50.685604","1703876","0.7360704"
"104.32442","50.83562","1703893","0.74584556"
"104.40443","50.965633","1703910","0.7536657"
"104.43443","51.09565","1703926","0.7536657"
"104.55444","51.335674","1703943","0.7536657"
"104.64446","51.425682","1703960","0.7536657"
"104.67447","51.525692","1703976","0.7536657"
"104.80449","51.64571","1704010","0.7536657"
"104.9445","51.835728","1704026","0.7536657"
"104.9745","51.93574","1704043","0.7536657"
"105.12453","51.96574","1704060","0.75073314"
"105.244545","52.01575","1704076","0.7487781"
"105.33456","52.17577","1704093","0.7487781"
"105.454575","52.19577","1704110","0.74584556"
"105.56459","52.285778","1704126","0.742913"
"105.58459","52.375786","1704143","0.742913"
"105.744606","52.595814","1704176","0.7438905"
"105.834625","52.68582","1704193","0.7438905"
"105.85463","52.775837","1704210","0.7438905"
"105.93463","52.865845","1704226","0.7438905"
"105.93463","52.965855","1704238","0.742913"
"105.964645","53.08587","1704260","0.742913"
"106.05466","53.20588","1704276","0.742913"
"106.07465","53.335896","1704293","0.742913"
"106.10467","53.475906","1704310","0.742913"
"106.18468","53.855953","1704326","0.742913"
"106.20468","53.985966","1704343","0.742913"
"106.23467","54.175987","1704360","0.7438905"
"106.28468","54.316","1704376","0.742913"
"106.3147","54.45602","1704393","0.742913"
"106.44471","54.736046","1704410","0.742913"
"106.52472","54.866066","1704426","0.742913"
"106.54473","55.016083","1704443","0.742913"
"106.57473","55.146095","1704460","0.742913"
"106.674736","55.26611","1704472","0.742913"
"106.674736","55.396122","1704490","0.742913"
"106.72475","55.506138","1704510","0.742913"
"106.75476","55.616146","1704526","0.742913"
"106.834755","55.736156","1704543","0.742913"
"106.85477","55.956184","1704560","0.7419355"
"106.87476","56.0762","1704576","0.7419355"
"106.90478","56.28622","1704610","0.7419355"
"106.90478","56.46624","1704626","0.7360704"
"106.94478","56.806274","1704643","0.7292278"
"106.94478","56.986305","1704660","0.742913"
"106.964775","57.216324","1704676","0.75757575"
"106.98479","57.336338","1704693","0.75757575"
"107.03479","57.56636","1704710","0.75757575"
"107.134796","57.676376","1704726","0.75757575"
"107.16481","57.776382","1704743","0.75757575"
"107.24482","57.876396","1704760","0.75757575"
"107.27482","57.99641","1704776","0.75757575"
"107.32483","58.096424","1704793","0.75757575"
"107.40484","58.19643","1704810","0.75757575"
"107.43485","58.29644","1704826","0.75757575"
"107.51485","58.406456","1704843","0.75757575"
"107.53486","58.50647","1704860","0.75757575"
"107.61487","58.74649","1704876","0.75757575"
"107.64488","58.88651","1704893","0.75757575"
"107.68488","59.036526","1704910","0.75757575"
"107.72488","59.25655","1704926","0.75855327"
"107.77489","59.616592","1704943","0.75757575"
"107.814896","59.84661","1704960","0.75757575"
"107.8649","60.03664","1704976","0.75757575"
"107.92491","60.226658","1704993","0.75757575"
"107.98493","60.406673","1705010","0.75757575"
"108.064926","60.696712","1705026","0.75855327"
"108.11494","60.88673","1705043","0.75757575"
"108.16495","61.07675","1705060","0.75757575"
"108.274956","61.256775","1705076","0.75757575"
"108.37497","61.516804","1705093","0.75757575"
"108.39498","61.716824","1705110","0.7497556"
"108.48499","61.926846","1705126","0.742913"
"108.48499","62.056858","1705143","0.7536657"
"108.60501","62.3969","1705160","0.7653959"
"108.68502","62.546913","1705176","0.7653959"
"108.70502","62.69693","1705193","0.7653959"
"108.72502","62.836945","1705210","0.7653959"
"108.74503","62.976963","1705226","0.7653959"
"108.76503","63.106976","1705238","0.7663734"
"108.76503","63.256992","1705260","0.7673509"
"108.76503","63.407005","1705276","0.7683284"
"108.76503","63.537025","1705293","0.7683284"
"108.76503","63.657032","1705310","0.7673509"
"108.76503","63.887062","1705326","0.7673509"
"108.795044","64.00708","1705343","0.7673509"
"108.81504","64.11708","1705360","0.7673509"
"108.835045","64.2171","1705376","0.7683284"
"108.85504","64.307106","1705393","0.7683284"
"108.90505","64.40712","1705410","0.7683284"
"108.93505","64.49713","1705421","0.7683284"
"109.01506","64.61714","1705443","0.7683284"
"109.01506","64.717155","1705460","0.7683284"
"109.03507","64.82716","1705472","0.7683284"
"109.06507","64.93717","1705491","0.7683284"
"109.09507","65.05719","1705510","0.7683284"
"109.125084","65.1572","1705526","0.7683284"
"109.14508","65.247215","1705543","0.7683284"
"109.14508","65.33723","1705560","0.76930594"
"109.16508","65.42723","1705569","0.7683284"
"109.18508","65.55724","1705593","0.7683284"
"109.18508","65.657265","1705610","0.7683284"
"109.20509","65.74726","1705623","0.7673509"
"109.225105","65.86728","1705643","0.7683284"
"109.27511","65.98729","1705676","0.7683284"
"109.27511","66.097305","1705693","0.7683284"
"109.3051","66.227325","1705710","0.7683284"
"109.3051","66.227325","1705726","0.7683284"
"109.33511","66.33733","1705743","0.7683284"
"109.33511","66.42734","1705760","0.7683284"
"109.35511","66.577354","1705773","0.76246333"
"109.375114","66.67737","1705792","0.75757575"
"109.375114","66.76738","1705810","0.7605083"
"109.375114","66.867386","1705826","0.7663734"
"109.375114","66.9774","1705843","0.76930594"
"109.375114","67.06741","1705860","0.77028346"
"109.35511","67.157425","1705871","0.77028346"
"109.33511","67.28744","1705893","0.77028346"
"109.3051","67.38745","1705910","0.77028346"
"109.27511","67.50746","1705926","0.76930594"
"109.21509","67.70749","1705943","0.76930594"
"109.175095","67.8275","1705960","0.76930594"
"109.125084","67.94751","1705976","0.76930594"
"109.09507","68.05752","1705993","0.76930594"
"109.06507","68.167534","1706010","0.77028346"
"109.03507","68.27755","1706026","0.771261"
"109.01506","68.38756","1706043","0.771261"
"108.98506","68.49757","1706060","0.77028346"
"108.96505","68.617584","1706076","0.76930594"
"108.94505","68.7576","1706093","0.77028346"
"108.91505","69.00763","1706110","0.76930594"
"108.885056","69.117645","1706126","0.77028346"
"108.85504","69.21765","1706143","0.77028346"
"108.835045","69.32766","1706160","0.76930594"
"108.81504","69.437675","1706176","0.77028346"
"108.80503","69.55769","1706193","0.77028346"
"108.795044","69.6577","1706210","0.77028346"
"108.785034","69.757706","1706226","0.77028346"
"108.76503","69.847725","1706243","0.77028346"
"108.73503","70.03774","1706260","0.76930594"
"108.72502","70.12775","1706276","0.77028346"
"108.72502","70.12775","1706293","0.771261"
"108.70502","70.22776","1706307","0.77028346"
"108.70502","70.34778","1706326","0.77028346"
"108.70502","70.34778","1706343","0.76930594"
"108.70502","70.43778","1706360","0.76930594"
"108.70502","70.43778","1706387","0.77028346"
"108.70502","70.537796","1706409","0.77028346"
"108.70502","70.62781","1706439","0.77028346"
"108.70502","70.62781","1706460","0.76930594"
"108.69502","70.73782","1706476","0.77028346"
"108.68502","70.73782","1706480","0.77028346"
"108.64501","70.82783","1706510","0.77028346"
"108.635025","70.92784","1706526","0.77028346"
"108.62501","70.92784","1706543","0.77028346"
"108.595","71.01785","1706560","0.77028346"
"108.555","71.11786","1706576","0.76930594"
"108.555","71.11786","1706593","0.77028346"
"108.525","71.22787","1706607","0.77028346"
"108.51499","71.31789","1706643","0.7673509"
"108.495","71.41789","1706660","0.76441836"
"108.48499","71.5179","1706676","0.76441836"
"108.47499","71.5179","1706693","0.76441836"
"108.42498","71.60792","1706710","0.7663734"
"108.36497","71.717926","1706726","0.7673509"
"108.25496","71.85794","1706743","0.77028346"
"108.224945","71.94795","1706760","0.771261"
"108.12494","72.05796","1706774","0.771261"
"108.04493","72.17798","1706792","0.771261"
"107.99492","72.30799","1706810","0.77028346"
"107.85491","72.54802","1706843","0.771261"
"107.73489","72.69804","1706860","0.77028346"
"107.58487","72.938065","1706876","0.77028346"
"107.48485","73.07808","1706893","0.77028346"
"107.45485","73.16808","1706910","0.76930594"
"107.29483","73.37811","1706926","0.7673509"
"107.16481","73.52813","1706943","0.75855327"
"107.03479","73.68814","1706960","0.74486804"
"106.95478","73.80816","1706976","0.71847504"
"106.72475","73.87817","1706993","0.6471163"
"106.86477","74.038185","1707010","0.285435"
"106.834755","74.14819","1707018","9.775171E-4"
"106.834755","74.14819","1707026","9.775171E-4"
"108.87505","66.65737","1707476","0.35386118"
"108.87505","66.65737","1707476","0.35386118"
"108.87505","66.65737","1707493","0.4115347"
"109.00506","66.757385","1707510","0.44868034"
"109.21509","66.77738","1707526","0.5102639"
"109.57514","66.76738","1707543","0.56989247"
"110.02521","66.79738","1707560","0.63734114"
"110.225235","66.8874","1707576","0.6617791"
"110.37525","66.9174","1707593","0.67546433"
"110.50527","66.9674","1707610","0.68817204"
"110.635284","67.05741","1707626","0.6979472"
"110.765305","67.107414","1707643","0.70772237"
"110.865326","67.20743","1707660","0.71260995"
"110.95532","67.29744","1707676","0.7155425"
"111.05534","67.38745","1707693","0.7194526"
"111.15535","67.477455","1707710","0.7233627"
"111.25537","67.557465","1707726","0.72727275"
"111.3754","67.68748","1707743","0.7302053"
"111.405396","67.78749","1707760","0.73216033"
"111.485405","67.90751","1707776","0.73411536"
"111.535416","68.13753","1707793","0.7370479"
"111.645424","68.24754","1707809","0.7380254"
"111.67544","68.36755","1707826","0.73900294"
"111.75545","68.507576","1707843","0.73900294"
"111.785446","68.62759","1707859","0.73998046"
"111.88547","68.747604","1707872","0.740958"
"111.93546","68.85761","1707893","0.7419355"
"112.025475","68.97762","1707909","0.742913"
"112.11549","69.08764","1707926","0.742913"
"112.22551","69.17764","1707943","0.742913"
"112.325516","69.25765","1707959","0.74486804"
"112.415535","69.33766","1707976","0.7438905"
"112.51555","69.41767","1707993","0.74486804"
"112.60557","69.467674","1708007","0.74584556"
"112.68558","69.61769","1708026","0.74584556"
"112.70558","69.7077","1708043","0.7468231"
"112.795586","69.79772","1708059","0.7468231"
"112.825584","69.89773","1708076","0.7478006"
"112.925606","70.00774","1708093","0.7487781"
"113.07563","70.18776","1708109","0.7478006"
"113.15564","70.31777","1708126","0.7478006"
"113.24565","70.447784","1708143","0.7468231"
"113.32566","70.567795","1708157","0.7478006"
"113.40567","70.67781","1708176","0.7478006"
"113.52569","70.79783","1708193","0.7468231"
"113.6057","70.90784","1708209","0.7468231"
"113.70572","71.01785","1708226","0.7468231"
"113.81573","71.12786","1708243","0.7468231"
"113.925735","71.24787","1708255","0.74584556"
"114.06576","71.347885","1708276","0.74486804"
"114.185776","71.4379","1708293","0.742913"
"114.3258","71.5379","1708309","0.73998046"
"114.46582","71.64792","1708326","0.7360704"
"114.695854","71.77793","1708343","0.73998046"
"114.81587","71.85794","1708359","0.7438905"
"114.93588","71.877945","1708376","0.7438905"
"115.13592","71.96796","1708393","0.7487781"
"115.47596","72.00796","1708409","0.75855327"
"115.65598","72.037964","1708426","0.76441836"
"115.75599","72.06796","1708443","0.76344085"
"115.846016","72.10797","1708459","0.76344085"
"115.93603","72.10797","1708473","0.76246333"
"116.02603","72.13798","1708492","0.76246333"
"116.136055","72.157974","1708509","0.7614858"
"116.22607","72.157974","1708541","0.76246333"
"116.22607","72.157974","1708576","0.7653959"
"116.31607","72.077965","1708593","0.7663734"
"116.31607","71.96796","1708609","0.7673509"
"116.31607","71.877945","1708626","0.7683284"
"116.27608","71.74793","1708643","0.7653959"
"116.22607","71.60792","1708659","0.7663734"
"116.11604","71.35789","1708676","0.77028346"
"116.01603","71.19787","1708691","0.77028346"
"115.98602","71.027855","1708709","0.77028346"
"115.876015","70.76782","1708726","0.771261"
"115.76599","70.5878","1708743","0.771261"
"115.70599","70.40778","1708759","0.7722385"
"115.51596","70.247765","1708776","0.7683284"
"115.34594","69.967735","1708793","0.7653959"
"115.13592","69.757706","1708809","0.7614858"
"114.95588","69.54768","1708826","0.7556207"
"114.82586","69.31766","1708843","0.7556207"
"114.65584","69.107635","1708859","0.75659823"
"114.475815","68.7576","1708876","0.75855327"
"114.2958","68.51757","1708893","0.7595308"
"114.175766","68.26755","1708909","0.7595308"
"113.99575","68.007515","1708926","0.7605083"
"113.85573","67.74749","1708943","0.7614858"
"113.66571","67.37744","1708959","0.76344085"
"113.48568","67.13741","1708976","0.76344085"
"113.31566","66.83739","1708993","0.76246333"
"113.14564","66.53735","1709009","0.76246333"
"112.90561","66.1173","1709026","0.76344085"
"112.75559","65.83728","1709043","0.76344085"
"112.625565","65.59725","1709059","0.76441836"
"112.46554","65.37723","1709076","0.7653959"
"112.325516","65.1472","1709093","0.7663734"
"112.1355","64.80716","1709109","0.7663734"
"112.01549","64.56714","1709126","0.7663734"
"111.96548","64.36712","1709143","0.7653959"
"111.84545","64.17709","1709159","0.7614858"
"111.75545","63.97707","1709176","0.7487781"
"111.70544","63.75705","1709193","0.69501466"
"111.84545","63.50702","1709209","0.5796676"
"111.825455","63.09697","1709226","0.24242425"
"111.95547","62.846943","1709235","9.775171E-4"
"111.95547","62.846943","1709244","9.775171E-4"
"114.04576","62.826942","1709544","0.38807428"
"113.91574","62.826942","1709559","0.44477028"
"113.835724","63.01696","1709576","0.53274685"
"113.85573","63.116974","1709593","0.56402737"
"113.95575","63.246994","1709609","0.59335285"
"113.98575","63.387005","1709626","0.62463343"
"114.08577","63.547024","1709643","0.65591395"
"114.14578","63.847054","1709659","0.67057675"
"114.22578","64.08708","1709676","0.6793744"
"114.3358","64.317116","1709693","0.684262"
"114.45582","64.58714","1709709","0.68914956"
"114.67585","65.037186","1709726","0.69501466"
"114.81587","65.31722","1709743","0.6969697"
"115.0459","65.58725","1709759","0.70576733"
"115.34594","65.82728","1709776","0.71847504"
"115.52596","66.0673","1709793","0.7253177"
"115.76599","66.42734","1709809","0.7253177"
"115.88602","66.67737","1709826","0.7302053"
"116.02603","66.9374","1709843","0.7311828"
"116.16605","67.17743","1709859","0.72825027"
"116.31607","67.53747","1709876","0.72825027"
"116.44609","67.7775","1709893","0.72727275"
"116.57612","68.01752","1709909","0.72629523"
"116.71612","68.23754","1709926","0.72629523"
"116.86614","68.45757","1709943","0.7253177"
"117.146194","68.79761","1709959","0.72238517"
"117.30621","69.01763","1709976","0.72140765"
"117.49623","69.19765","1709993","0.71847504"
"117.71628","69.33766","1710009","0.71163243"
"117.936295","69.50769","1710026","0.7047898"
"118.13632","69.687706","1710043","0.68817204"
"118.30634","69.81772","1710059","0.6666667"
"118.47638","69.90773","1710076","0.63147604"
"118.656395","70.00774","1710093","0.55718476"
"118.84641","70.13776","1710109","0.21309873"
"118.79642","70.18776","1710124","9.775171E-4"
"118.79642","70.18776","1710131","9.775171E-4"
"119.40651","69.74771","1710334","0.092864126"
"119.40651","69.6377","1710343","0.14858261"
"119.43651","69.517685","1710359","0.27565983"
"119.43651","69.40768","1710376","0.3998045"
"119.3565","69.237656","1710393","0.48973608"
"119.27649","69.067635","1710409","0.5493646"
"119.076454","68.617584","1710426","0.61290324"
"118.93644","68.35756","1710443","0.64320624"
"118.76642","68.09753","1710459","0.6666667"
"118.58639","67.807495","1710476","0.686217"
"118.31636","67.30744","1710493","0.70576733"
"118.116325","66.8874","1710509","0.71163243"
"117.86629","66.42734","1710526","0.71652"
"117.58624","65.98729","1710543","0.72140765"
"117.33621","65.53725","1710559","0.72727275"
"116.96616","64.79716","1710576","0.73411536"
"116.74613","64.347115","1710593","0.7360704"
"116.5361","63.95707","1710609","0.7380254"
"116.346085","63.59703","1710626","0.73900294"
"116.09605","63.09697","1710643","0.73998046"
"115.93603","62.826942","1710659","0.740958"
"115.776","62.566917","1710676","0.73998046"
"115.46595","61.99685","1710709","0.7253177"
"114.995895","61.586803","1710726","0.6852395"
"114.81587","61.35678","1710743","0.65786904"
"114.725845","61.22677","1710759","0.6304985"
"114.60584","61.036747","1710776","0.58064514"
"114.61584","60.89673","1710793","0.44281524"
"114.55583","60.776714","1710809","9.775171E-4"
"114.28579","60.526688","1710815","9.775171E-4"
"114.28579","60.526688","1710823","9.775171E-4"
"116.23606","60.696712","1711011","0.28250244"
"116.23606","60.696712","1711026","0.342131"
"116.32607","60.826717","1711043","0.43304008"
"116.44609","60.916733","1711059","0.4916911"
"116.61611","61.016747","1711076","0.5552297"
"116.76613","61.13676","1711093","0.6041056"
"116.98617","61.486794","1711109","0.6451613"
"117.11618","61.716824","1711126","0.65884656"
"117.2962","62.056858","1711143","0.67155427"
"117.566246","62.4169","1711159","0.68230695"
"117.99631","62.896954","1711176","0.6871945"
"118.29634","63.296997","1711193","0.68914956"
"118.59638","63.717045","1711209","0.68914956"
"118.92644","64.11708","1711226","0.68817204"
"119.286476","64.52713","1711243","0.686217"
"119.79655","65.1272","1711259","0.68328446"
"120.1266","65.53725","1711276","0.6813294"
"120.44664","65.93729","1711293","0.6793744"
"120.66668","66.31733","1711309","0.6871945"
"121.02672","66.907394","1711326","0.70087975"
"121.39678","67.22743","1711343","0.6930596"
"121.63681","67.487465","1711359","0.6783969"
"121.85684","67.69748","1711376","0.6520039"
"122.09687","67.90751","1711393","0.60215056"
"122.2869","68.087524","1711409","0.4740958"
"122.42691","68.29755","1711426","0.020527858"
"122.206894","68.14754","1711432","9.775171E-4"
"122.206894","68.14754","1711440","9.775171E-4"
"122.49693","66.0473","1711679","0.26979473"
"122.49693","66.0473","1711693","0.2805474"
"122.296906","65.847275","1711709","0.32160312"
"122.15688","65.657265","1711726","0.40078202"
"122.01686","65.447235","1711743","0.48191592"
"121.85684","65.23721","1711759","0.55034214"
"121.74683","64.90717","1711776","0.59237534"
"121.5868","64.627144","1711793","0.62072337"
"121.23675","64.147095","1711809","0.6471163"
"121.03672","63.827057","1711826","0.6608016"
"120.8267","63.487015","1711843","0.66959924"
"120.606674","63.14698","1711859","0.6744868"
"120.46665","62.606915","1711876","0.6656892"
"120.27662","62.23688","1711893","0.6725318"
"120.00659","61.836838","1711909","0.6725318"
"119.73655","61.466797","1711926","0.6656892"
"119.52652","61.126762","1711943","0.6676442"
"119.21648","60.6267","1711959","0.66471165"
"118.986435","60.32667","1711976","0.6461388"
"118.81643","60.14665","1711993","0.6060606"
"118.526375","59.82661","1712009","0.5219941"
"118.31636","59.52658","1712026","0.3196481"
"118.47638","59.046528","1712043","9.775171E-4"
"118.47638","59.046528","1712049","9.775171E-4"
"119.67654","58.336445","1712319","0.22678396"
"119.67654","58.336445","1712326","0.22678396"
"119.86657","58.45646","1712343","0.33333334"
"120.036575","58.636482","1712359","0.39687195"
"120.25662","58.776497","1712376","0.45943305"
"120.47665","58.916515","1712393","0.51906157"
"120.67667","59.116535","1712409","0.5650049"
"120.98672","59.486576","1712426","0.6119257"
"121.26676","59.816612","1712443","0.627566"
"121.5768","60.166653","1712459","0.63734114"
"121.82683","60.49669","1712476","0.64320624"
"122.09687","61.016747","1712493","0.6471163"
"122.43693","61.35678","1712509","0.6461388"
"122.77696","61.66682","1712526","0.6461388"
"123.10701","62.02686","1712543","0.65004885"
"123.33704","62.366894","1712559","0.67155427"
"123.717094","62.78694","1712576","0.68817204"
"123.98714","63.046967","1712593","0.6871945"
"124.23717","63.296997","1712609","0.68817204"
"124.487206","63.547024","1712626","0.68914956"
"124.72724","63.79705","1712643","0.6911046"
"125.09728","64.17709","1712659","0.6959922"
"125.357315","64.387115","1712676","0.6969697"
"125.57735","64.57714","1712693","0.6979472"
"125.797386","64.75716","1712709","0.6989247"
"125.997406","64.92718","1712720","0.6989247"
"126.127426","65.067184","1712743","0.6989247"
"126.14743","65.1672","1712759","0.6989247"
"126.27745","65.25722","1712776","0.69990224"
"126.27745","65.25722","1712793","0.70185727"
"126.36747","65.277214","1712809","0.7047898"
"126.36747","65.277214","1712826","0.70772237"
"126.36747","65.277214","1712843","0.7086999"
"126.36747","65.277214","1712859","0.7106549"
"126.39747","65.23721","1712876","0.71260995"
"126.39747","65.1072","1712893","0.71652"
"126.39747","64.97719","1712909","0.7174975"
"126.38747","64.84717","1712926","0.71847504"
"126.36747","64.717155","1712943","0.71847504"
"126.32746","64.547134","1712959","0.72043014"
"126.27745","64.39712","1712976","0.72140765"
"126.19743","64.267105","1712993","0.7243402"
"126.15744","64.097084","1713009","0.72629523"
"126.14743","63.837055","1713026","0.72825027"
"126.14743","63.587032","1713043","0.7311828"
"126.11743","63.41701","1713059","0.73411536"
"126.02742","63.246994","1713076","0.7370479"
"125.997406","63.076977","1713093","0.73900294"
"125.93741","62.896954","1713109","0.7419355"
"125.84739","62.63693","1713126","0.7438905"
"125.77739","62.446903","1713143","0.74584556"
"125.697365","62.346897","1713159","0.7478006"
"125.59736","62.076866","1713176","0.75757575"
"125.39732","61.786827","1713193","0.742913"
"125.30731","61.69682","1713209","0.7350929"
"125.187294","61.5368","1713226","0.7370479"
"125.06729","61.37678","1713243","0.73900294"
"124.93726","61.216763","1713259","0.740958"
"124.687225","60.88673","1713276","0.7419355"
"124.5472","60.72671","1713293","0.7438905"
"124.407196","60.5767","1713309","0.74486804"
"124.257164","60.42668","1713326","0.74584556"
"124.097145","60.27666","1713343","0.7478006"
"123.937126","60.136646","1713359","0.7487781"
"123.687096","59.95663","1713376","0.7497556"
"123.597084","59.78661","1713393","0.742913"
"123.597084","59.646595","1713409","0.73313785"
"123.33704","59.436565","1713426","0.7311828"
"123.227036","59.346558","1713443","0.7311828"
"123.05701","59.23655","1713459","0.73313785"
"122.89699","59.126537","1713476","0.73411536"
"122.74696","59.02652","1713493","0.73411536"
"122.44692","58.856503","1713509","0.7360704"
"122.296906","58.8165","1713526","0.7370479"
"122.14688","58.71649","1713543","0.7380254"
"122.01686","58.706486","1713559","0.7370479"
"121.91684","58.66649","1713576","0.7380254"
"121.82683","58.656483","1713593","0.7380254"
"121.82683","58.656483","1713609","0.73900294"
"121.82683","58.656483","1713617","0.7380254"
"121.82683","58.656483","1713643","0.7370479"
"121.82683","58.656483","1713659","0.7380254"
"121.82683","58.656483","1713693","0.7370479"
"121.82683","58.656483","1713698","0.7380254"
"121.82683","58.656483","1713771","0.73900294"
"121.80683","58.546474","1713809","0.73998046"
"121.69682","58.50647","1713826","0.740958"
"121.5968","58.416454","1713843","0.7419355"
"121.496796","58.326447","1713859","0.7419355"
"121.38677","58.226437","1713876","0.742913"
"121.15675","57.99641","1713892","0.7438905"
"121.04673","57.886402","1713909","0.74486804"
"120.92671","57.776382","1713925","0.7468231"
"120.79669","57.666374","1713942","0.7468231"
"120.66668","57.546364","1713959","0.742913"
"120.62667","57.416348","1713976","0.73900294"
"120.50666","57.146317","1713992","0.72825027"
"120.36663","56.946293","1714009","0.70674485"
"120.1466","56.79628","1714026","0.70674485"
"119.97658","56.62626","1714042","0.7155425"
"119.836555","56.52625","1714059","0.71652"
"119.70655","56.43624","1714076","0.7174975"
"119.57653","56.326225","1714092","0.71847504"
"119.4265","56.216213","1714109","0.7194526"
"119.12646","56.036198","1714126","0.72140765"
"119.036446","55.99619","1714142","0.72140765"
"118.87643","55.886177","1714159","0.72238517"
"118.626396","55.766163","1714176","0.7233627"
"118.47638","55.646156","1714192","0.7253177"
"118.15633","55.466125","1714226","0.72629523"
"118.0063","55.376118","1714242","0.72727275"
"117.76628","55.26611","1714259","0.72727275"
"117.596245","55.166096","1714276","0.7292278"
"117.42622","55.02608","1714292","0.7302053"
"117.2562","54.886063","1714309","0.7302053"
"117.11618","54.796062","1714326","0.7311828"
"116.82615","54.67605","1714342","0.73216033"
"116.70612","54.55603","1714359","0.73313785"
"116.58611","54.516026","1714376","0.73313785"
"116.4761","54.416016","1714391","0.73411536"
"116.35607","54.336006","1714409","0.73411536"
"116.21605","54.236","1714426","0.7360704"
"116.086044","54.135986","1714442","0.7370479"
"115.96602","54.045975","1714459","0.7370479"
"115.846016","53.94596","1714470","0.7370479"
"115.72599","53.835953","1714492","0.7380254"
"115.63599","53.755943","1714509","0.7380254"
"115.52596","53.675934","1714526","0.73900294"
"115.52596","53.675934","1714542","0.73998046"
"115.40595","53.56592","1714553","0.73998046"
"115.17591","53.425903","1714576","0.7360704"
"115.035904","53.29589","1714592","0.7311828"
"114.85587","53.185883","1714626","0.72825027"
"114.71585","53.095867","1714642","0.7253177"
"114.62584","53.045864","1714659","0.7253177"
"114.49582","52.93585","1714676","0.72629523"
"114.40581","52.885845","1714692","0.72629523"
"114.3058","52.795837","1714709","0.72629523"
"114.19579","52.755833","1714726","0.72629523"
"113.96575","52.675823","1714742","0.72825027"
"113.85573","52.585815","1714759","0.7292278"
"113.73572","52.55581","1714776","0.7292278"
"113.6157","52.505806","1714792","0.7292278"
"113.50569","52.445797","1714809","0.7302053"
"113.40567","52.39579","1714826","0.7302053"
"113.30566","52.355785","1714842","0.7302053"
"113.215645","52.315784","1714859","0.7311828"
"113.125626","52.275776","1714876","0.7311828"
"113.02562","52.225773","1714892","0.7311828"
"113.02562","52.215775","1714903","0.7311828"
"112.93561","52.17577","1714926","0.7311828"
"112.93561","52.15576","1714942","0.7311828"
"112.93561","52.15576","1714959","0.7311828"
"112.83559","52.055756","1714969","0.7311828"
"112.745575","51.975746","1715020","0.7311828"
"112.65557","51.945744","1715042","0.73216033"
"112.65557","51.925743","1715059","0.73313785"
"112.56556","51.835728","1715076","0.73216033"
"112.47555","51.80573","1715106","0.73313785"
"112.36553","51.72572","1715126","0.73313785"
"112.255516","51.63571","1715142","0.73313785"
"112.15551","51.5957","1715176","0.73313785"
"112.04549","51.5057","1715192","0.73411536"
"111.95547","51.465687","1715242","0.73411536"
"111.95547","51.445683","1715256","0.73411536"
"111.865456","51.39568","1715342","0.73313785"
"111.865456","51.38568","1715359","0.73411536"
"111.775444","51.345676","1715392","0.73411536"
"111.775444","51.32567","1715407","0.73411536"
"111.695435","51.225662","1715442","0.73313785"
"111.59541","51.13565","1715476","0.73313785"
"111.59541","51.13565","1715492","0.7302053"
"111.50542","51.02564","1715504","0.7292278"
"111.39539","50.915623","1715526","0.7243402"
"111.36539","50.825623","1715542","0.7155425"
"111.325386","50.735607","1715559","0.7106549"
"111.225365","50.635597","1715576","0.72140765"
"111.18536","50.52559","1715592","0.71847504"
"111.08534","50.435574","1715609","0.71652"
"110.99533","50.395573","1715626","0.7155425"
"110.895325","50.28556","1715642","0.714565"
"110.895325","50.28556","1715647","0.71358746"
"110.7953","50.245556","1715676","0.71358746"
"110.7953","50.23555","1715685","0.71358746"
"110.70529","50.155544","1715726","0.71260995"
"110.70529","50.155544","1715737","0.71260995"
"110.6953","50.065533","1715792","0.71358746"
"110.685295","50.065533","1715798","0.71358746"
"110.645294","49.96552","1715826","0.71260995"
"110.61529","49.865513","1715842","0.71358746"
"110.57529","49.7755","1715859","0.714565"
"110.53527","49.68549","1715876","0.714565"
"110.44526","49.57548","1715888","0.714565"
"110.40525","49.475468","1715909","0.714565"
"110.32526","49.375454","1715926","0.714565"
"110.24523","49.26544","1715942","0.714565"
"110.11521","49.22544","1715959","0.71358746"
"109.85518","49.065426","1715976","0.71358746"
"109.72517","49.04542","1715992","0.71358746"
"109.60514","49.015423","1716009","0.71358746"
"109.48513","48.89541","1716026","0.71358746"
"109.35511","48.785393","1716038","0.714565"
"109.21509","48.655376","1716059","0.714565"
"109.06507","48.525364","1716076","0.714565"
"108.80503","48.41535","1716092","0.7155425"
"108.60501","48.355343","1716109","0.7155425"
"108.244965","48.30534","1716126","0.7155425"
"107.98493","48.285336","1716142","0.7155425"
"107.71489","48.255333","1716159","0.7155425"
"107.46485","48.195328","1716176","0.71652"
"107.16481","48.14532","1716192","0.71652"
"106.97478","48.11532","1716209","0.71652"
"106.81476","48.075314","1716226","0.71652"
"106.624725","48.035305","1716242","0.71652"
"106.53471","48.01531","1716259","0.7174975"
"106.23467","47.975304","1716276","0.7155425"
"106.10467","47.955303","1716292","0.7155425"
"105.994644","47.9453","1716309","0.714565"
"105.994644","47.9353","1716326","0.70674485"
"105.874626","47.83529","1716342","0.6783969"
"105.784615","47.555256","1716359","0.540567"
"105.92464","47.58526","1716376","0.26099706"
"105.964645","47.425243","1716388","9.775171E-4"
"105.964645","47.425243","1716395","9.775171E-4"
"108.835045","49.075424","1716755","0.49560118"
"108.835045","49.075424","1716759","0.49560118"
"108.615","49.055424","1716776","0.5278592"
"108.51499","49.03542","1716792","0.5532747"
"108.50499","48.93541","1716809","0.5610948"
"108.47499","48.58537","1716826","0.59237534"
"108.43498","48.265335","1716842","0.6217009"
"108.37497","47.9153","1716859","0.6402737"
"108.25496","47.60526","1716876","0.65004885"
"108.17495","47.34523","1716892","0.65493643"
"108.05493","47.305225","1716909","0.6598241"
"107.94492","47.14521","1716926","0.66959924"
"107.8349","46.905186","1716942","0.67155427"
"107.71489","46.665157","1716959","0.6744868"
"107.54486","46.33512","1716976","0.684262"
"107.44485","46.23511","1716992","0.6901271"
"107.32483","46.08509","1717009","0.6930596"
"107.20482","45.935078","1717026","0.6959922"
"106.93478","45.665047","1717042","0.6979472"
"106.79476","45.545033","1717059","0.70087975"
"106.65474","45.455025","1717076","0.7047898"
"106.51472","45.365013","1717090","0.70772237"
"106.39471","45.275005","1717109","0.7086999"
"106.28468","45.174995","1717126","0.7106549"
"106.18468","45.07498","1717142","0.71163243"
"106.084656","45.06498","1717159","0.71260995"
"105.994644","45.044983","1717176","0.7155425"
"105.90464","45.014973","1717192","0.71652"
"105.80463","44.98497","1717209","0.7174975"
"105.72462","44.864956","1717226","0.7174975"
"105.6946","44.76495","1717242","0.7174975"
"105.65461","44.664936","1717259","0.7174975"
"105.5946","44.534924","1717276","0.7174975"
"105.544586","44.43491","1717292","0.7194526"
"105.494576","44.334904","1717309","0.72140765"
"105.39456","44.244892","1717326","0.7233627"
"105.30456","44.104874","1717342","0.72727275"
"105.27454","44.004864","1717359","0.72825027"
"105.23454","43.914852","1717376","0.7302053"
"105.22453","43.914852","1717392","0.73411536"
"105.084526","43.79484","1717409","0.7370479"
"105.034515","43.674828","1717426","0.73900294"
"104.99451","43.564816","1717442","0.73900294"
"104.9445","43.454803","1717459","0.7419355"
"104.89449","43.354794","1717476","0.7438905"
"104.81448","43.24478","1717492","0.74584556"
"104.774475","42.97475","1717509","0.7438905"
"104.774475","42.85474","1717526","0.75855327"
"104.694466","42.69472","1717542","0.7673509"
"104.66447","42.504696","1717559","0.7605083"
"104.524445","42.274673","1717576","0.7614858"
"104.40443","42.094654","1717592","0.76344085"
"104.364426","42.004642","1717609","0.76344085"
"104.21441","41.73461","1717626","0.76344085"
"104.114395","41.54459","1717642","0.76344085"
"103.95436","41.26456","1717659","0.76441836"
"103.83434","41.044537","1717676","0.76441836"
"103.73434","40.80451","1717692","0.76441836"
"103.62432","40.584488","1717709","0.7653959"
"103.5043","40.36446","1717726","0.7653959"
"103.32427","40.024426","1717742","0.76441836"
"103.08424","39.604378","1717776","0.76441836"
"102.96423","39.394356","1717792","0.7653959"
"102.924225","39.20433","1717809","0.7653959"
"102.90422","39.054317","1717819","0.7663734"
"102.794205","38.81429","1717842","0.7663734"
"102.794205","38.71428","1717859","0.7663734"
"102.794205","38.57426","1717876","0.7653959"
"102.634186","38.234226","1717892","0.7947214"
"102.634186","38.114216","1717909","0.8240469"
"102.52417","37.874187","1717924","0.80840665"
"102.43415","37.72417","1717942","0.80840665"
"102.40415","37.574154","1717959","0.8064516"
"102.39415","37.39413","1717976","0.7927664"
"102.28414","37.144104","1717992","0.7917889"
"102.26413","36.98409","1718009","0.78983384"
"102.22414","36.83407","1718026","0.7888563"
"102.19412","36.674053","1718042","0.7878788"
"102.14411","36.404026","1718059","0.78983384"
"102.10411","36.26401","1718076","0.78983384"
"102.07411","36.173996","1718092","0.7878788"
"102.0441","35.91397","1718109","0.7869013"
"101.98409","35.633938","1718126","0.7869013"
"101.95409","35.54393","1718142","0.7878788"
"101.94409","35.2939","1718159","0.7859238"
"101.94409","35.123882","1718176","0.78494626"
"101.93409","35.033875","1718192","0.78396875"
"101.93409","34.783844","1718209","0.78299123"
"101.93409","34.65383","1718226","0.78396875"
"101.95409","34.533817","1718242","0.78299123"
"101.98409","34.423805","1718259","0.78299123"
"102.0641","34.32379","1718276","0.78103614"
"102.0641","34.233784","1718287","0.7800586"
"102.09411","34.12377","1718309","0.78103614"
"102.14411","34.033764","1718326","0.78103614"
"102.23413","33.943752","1718339","0.7771261"
"102.31414","33.83374","1718359","0.7790811"
"102.31414","33.83374","1718376","0.7781036"
"102.334145","33.623714","1718392","0.81329423"
"102.334145","33.4737","1718409","0.84359723"
"102.334145","33.4737","1718426","0.8308895"
"102.35414","33.253674","1718442","0.7800586"
"102.35414","33.253674","1718459","0.70576733"
"102.43415","33.143665","1718476","0.67546433"
"102.57417","33.143665","1718492","0.6676442"
"102.674194","33.243675","1718509","0.5347019"
"102.674194","33.243675","1718526","0.41642228"
"102.82421","33.243675","1718542","0.18181819"
"103.09425","33.133663","1718554","9.775171E-4"
"103.09425","33.133663","1718561","9.775171E-4"
"102.95423","33.333683","1719312","0.0684262"
"102.86421","33.323685","1719326","0.10166178"
"102.86421","33.313683","1719342","0.17595308"
"102.7442","33.313683","1719359","0.30400783"
"102.7442","33.313683","1719376","0.36168134"
"102.7442","33.313683","1719392","0.3890518"
"102.7442","33.313683","1719409","0.4056696"
"102.7442","33.313683","1719426","0.43010753"
"102.7442","33.313683","1719442","0.47311828"
"102.83421","33.413692","1719459","0.50048876"
"102.83421","33.413692","1719476","0.52297163"
"102.83421","33.413692","1719492","0.53763443"
"102.7442","33.413692","1719509","0.56402737"
"102.7442","33.413692","1719526","0.5826002"
"102.7442","33.553707","1719542","0.60703814"
"102.7442","33.64372","1719559","0.6285435"
"102.64418","33.663723","1719576","0.63734114"
"102.424164","33.713726","1719592","0.65102637"
"102.26413","33.76373","1719609","0.6608016"
"102.0141","33.82374","1719626","0.66959924"
"101.91408","33.853745","1719642","0.67644185"
"101.744064","33.93375","1719659","0.6783969"
"101.45402","34.043762","1719676","0.6803519"
"101.324005","34.093765","1719692","0.68328446"
"101.324005","34.093765","1719709","0.69403714"
"101.21399","34.093765","1719723","0.7028348"
"101.12398","34.11377","1719742","0.7047898"
"101.033966","34.20378","1719759","0.70674485"
"101.033966","34.20378","1719776","0.70772237"
"100.94395","34.32379","1719792","0.7096774"
"100.92394","34.413807","1719809","0.71260995"
"100.88394","34.513813","1719826","0.71260995"
"100.88394","34.633827","1719842","0.71260995"
"100.88394","34.753845","1719859","0.71260995"
"100.90394","34.85385","1719876","0.7155425"
"100.92394","34.94386","1719887","0.71652"
"101.00396","35.033875","1719906","0.71652"
"101.023964","35.123882","1719925","0.7174975"
"101.11397","35.243896","1719942","0.71847504"
"101.11397","35.243896","1719959","0.72140765"
"101.15398","35.473923","1719975","0.72727275"
"101.20399","35.633938","1719992","0.7302053"
"101.23399","35.763954","1720009","0.73216033"
"101.25399","35.863964","1720025","0.73216033"
"101.273994","35.973976","1720042","0.73313785"
"101.273994","36.09399","1720052","0.73313785"
"101.294","36.224003","1720075","0.7350929"
"101.314","36.314014","1720092","0.73411536"
"101.314","36.424026","1720109","0.7311828"
"101.304","36.514034","1720115","0.72825027"
"101.304","36.614048","1720142","0.7302053"
"101.304","36.614048","1720159","0.73313785"
"101.304","36.614048","1720175","0.7380254"
"101.304","36.614048","1720192","0.7419355"
"101.304","36.614048","1720209","0.74584556"
"101.20399","36.64405","1720225","0.7468231"
"101.103966","36.64405","1720242","0.7478006"
"101.013954","36.64405","1720259","0.7497556"
"100.91395","36.63405","1720275","0.75073314"
"100.66391","36.474033","1720292","0.75171065"
"100.513885","36.37402","1720309","0.75073314"
"100.36387","36.244003","1720325","0.75268817"
"100.23385","36.073986","1720342","0.7536657"
"100.08383","35.783955","1720359","0.75073314"
"99.94381","35.503925","1720375","0.75171065"
"99.82379","35.213894","1720392","0.75171065"
"99.713776","34.983868","1720409","0.75171065"
"99.663765","34.763844","1720425","0.75268817"
"99.60377","34.453808","1720442","0.7497556"
"99.56376","34.263786","1720459","0.7478006"
"99.54376","34.173775","1720475","0.7487781"
"99.513756","34.01376","1720492","0.7487781"
"99.503746","33.863747","1720509","0.7478006"
"99.45374","33.553707","1720525","0.74486804"
"99.42374","33.4437","1720542","0.7438905"
"99.38374","33.323685","1720559","0.77517104"
"99.33373","33.03365","1720575","0.79667646"
"99.28372","32.853634","1720592","0.7859238"
"99.24371","32.723618","1720609","0.78396875"
"99.1537","32.623608","1720625","0.78299123"
"99.123695","32.533592","1720642","0.78299123"
"99.11369","32.533592","1720659","0.78201365"
"99.01369","32.41358","1720667","0.78103614"
"98.913666","32.29357","1720690","0.78103614"
"98.823654","32.173557","1720709","0.78103614"
"98.80365","32.073547","1720725","0.7800586"
"98.74365","31.983534","1720742","0.7800586"
"98.703636","31.893526","1720759","0.7800586"
"98.663635","31.783512","1720775","0.7790811"
"98.563614","31.673502","1720792","0.7771261"
"98.52361","31.57349","1720809","0.7771261"
"98.4536","31.333464","1720825","0.77517104"
"98.413605","31.193447","1720842","0.7741935"
"98.3936","31.023426","1720859","0.7741935"
"98.35359","30.903416","1720875","0.773216"
"98.31358","30.793402","1720892","0.7722385"
"98.283585","30.51337","1720909","0.771261"
"98.26359","30.293348","1720925","0.76930594"
"98.233574","30.02332","1720942","0.77028346"
"98.21358","29.903303","1720959","0.77028346"
"98.16357","29.813295","1720975","0.76930594"
"98.113556","29.723286","1720992","0.76930594"
"98.073555","29.593273","1721009","0.7683284"
"98.05355","29.593273","1721025","0.7683284"
"98.01354","29.503262","1721042","0.76930594"
"98.00354","29.503262","1721059","0.7673509"
"97.913536","29.41325","1721075","0.7663734"
"97.88352","29.313238","1721092","0.7673509"
"97.863525","29.313238","1721105","0.7683284"
"97.75351","29.203228","1721125","0.7673509"
"97.65349","29.083214","1721142","0.7663734"
"97.65349","29.083214","1721159","0.7663734"
"97.56348","28.9632","1721167","0.7663734"
"97.47347","28.86319","1721192","0.7653959"
"97.433464","28.763178","1721209","0.7663734"
"97.35345","28.643167","1721225","0.7653959"
"97.30345","28.533154","1721242","0.76344085"
"97.213425","28.403137","1721259","0.7614858"
"97.16343","28.273125","1721275","0.7614858"
"96.99341","27.993095","1721292","0.75855327"
"96.9134","27.833075","1721309","0.75855327"
"96.87338","27.67306","1721325","0.75757575"
"96.76337","27.533045","1721342","0.7536657"
"96.55334","27.072992","1721359","0.78983384"
"96.52334","26.912977","1721375","0.80351907"
"96.503334","26.762959","1721392","0.80254155"
"96.45333","26.61294","1721409","0.80156404"
"96.2333","26.212894","1721442","0.797654"
"96.2033","26.06288","1721459","0.797654"
"96.09327","25.912865","1721475","0.797654"
"95.97327","25.772848","1721492","0.8005865"
"95.78324","25.43281","1721525","0.8044966"
"95.73323","25.342802","1721542","0.8044966"
"95.63321","25.232788","1721559","0.80351907"
"95.52319","25.202787","1721575","0.80351907"
"95.35318","24.942757","1721592","0.80254155"
"95.26317","24.782742","1721609","0.80351907"
"95.22315","24.63272","1721625","0.80254155"
"95.13315","24.51271","1721642","0.80156404"
"95.123146","24.422699","1721659","0.80254155"
"95.00313","24.222675","1721675","0.80156404"
"94.96313","24.132668","1721692","0.80156404"
"94.94312","24.132668","1721709","0.80254155"
"94.90311","24.032658","1721725","0.80254155"
"94.86311","23.932644","1721742","0.80156404"
"94.84311","23.842634","1721753","0.799609"
"94.84311","23.842634","1721775","0.8005865"
"94.84311","23.752626","1721792","0.799609"
"94.84311","23.662615","1721809","0.799609"
"94.84311","23.572605","1721825","0.8005865"
"94.84311","23.572605","1721842","0.80156404"
"94.84311","23.482595","1721859","0.8005865"
"94.84311","23.392586","1721875","0.799609"
"94.84311","23.392586","1721892","0.799609"
"94.84311","23.282574","1721909","0.797654"
"94.84311","23.282574","1721925","0.78983384"
"94.74309","23.312576","1721942","0.7800586"
"94.74309","23.232567","1721959","0.7800586"
"94.62308","22.982538","1721975","0.7800586"
"94.54307","22.842524","1721992","0.79569894"
"94.45305","22.692509","1722009","0.8162268"
"94.363045","22.53249","1722025","0.82111436"
"94.24302","22.372475","1722042","0.82111436"
"94.16301","22.182453","1722059","0.82013685"
"94.00299","21.902422","1722075","0.82013685"
"93.88297","21.692396","1722092","0.82111436"
"93.75296","21.502377","1722109","0.8220919"
"93.62293","21.302355","1722125","0.82111436"
"93.42291","21.162338","1722142","0.82013685"
"93.3129","21.042326","1722159","0.82013685"
"93.14287","20.8023","1722175","0.82111436"
"93.012856","20.612278","1722192","0.82111436"
"92.82283","20.332249","1722209","0.82111436"
"92.74282","20.222235","1722220","0.82111436"
"92.59279","20.042215","1722242","0.82111436"
"92.462776","19.872196","1722259","0.82111436"
"92.29275","19.622168","1722275","0.8220919"
"92.05272","19.342138","1722292","0.8220919"
"92.002716","19.252129","1722309","0.82111436"
"91.822685","18.982098","1722325","0.8220919"
"91.70267","18.932093","1722342","0.82111436"
"91.58266","18.772076","1722359","0.81329423"
"91.45264","18.532047","1722375","0.8064516"
"91.26261","18.28202","1722392","0.8054741"
"91.13259","18.092","1722409","0.8054741"
"90.92256","17.881977","1722425","0.80351907"
"90.70254","17.531937","1722442","0.8044966"
"90.562515","17.30191","1722459","0.8044966"
"90.4325","17.081888","1722475","0.8044966"
"90.26247","16.841862","1722492","0.8054741"
"90.08245","16.461819","1722509","0.8044966"
"89.91242","16.271797","1722525","0.8064516"
"89.7424","16.041773","1722542","0.80938417"
"89.56238","15.801747","1722559","0.8103617"
"89.382355","15.541718","1722575","0.8113392"
"89.11231","15.171677","1722592","0.8172043"
"88.912285","14.901648","1722609","0.8181818"
"88.68226","14.601614","1722625","0.82111436"
"88.46223","14.271578","1722642","0.8240469"
"88.26219","13.991547","1722659","0.8230694"
"87.982155","13.6615095","1722675","0.82111436"
"87.79213","13.441485","1722692","0.8230694"
"87.602104","13.241464","1722709","0.8230694"
"87.44208","13.03144","1722725","0.8220919"
"87.28206","12.831417","1722742","0.8191593"
"87.04203","12.561389","1722759","0.8172043"
"86.96202","12.471378","1722775","0.8162268"
"86.78199","12.31136","1722792","0.8172043"
"86.53196","12.061333","1722809","0.81524926"
"86.28192","11.801304","1722825","0.8172043"
"86.06189","11.6212845","1722842","0.80742913"
"85.84186","11.481269","1722859","0.797654"
"85.68184","11.371257","1722875","0.79667646"
"85.59183","11.341253","1722892","0.797654"
"85.31179","11.12123","1722909","0.79569894"
"85.16177","11.021218","1722925","0.79569894"
"85.01175","10.931208","1722942","0.79569894"
"84.861725","10.841199","1722959","0.79667646"
"84.73171","10.731187","1722970","0.79569894"
"84.60169","10.651177","1722989","0.79667646"
"84.49168","10.621174","1723009","0.79667646"
"84.37166","10.521163","1723025","0.79667646"
"84.28165","10.421152","1723042","0.79667646"
"84.17163","10.321141","1723059","0.79569894"
"84.17163","10.321141","1723075","0.7947214"
"84.07162","10.291138","1723092","0.79569894"
"84.03162","10.191126","1723109","0.79667646"
"83.92159","10.091115","1723125","0.79569894"
"83.83158","10.0111065","1723137","0.7927664"
"83.73157","9.981103","1723159","0.7937439"
"83.65156","9.871091","1723175","0.7937439"
"83.61156","9.77108","1723192","0.7937439"
"83.59155","9.77108","1723209","0.7917889"
"83.59155","9.77108","1723225","0.79667646"
"83.59155","9.77108","1723242","0.797654"
"83.24151","9.361035","1723259","0.7986315"
"83.24151","9.361035","1723275","0.8172043"
"83.24151","9.361035","1723292","0.77614856"
"83.24151","9.361035","1723309","0.77614856"
"82.82144","9.020997","1723318","0.77517104"
"82.82144","9.020997","1723342","0.7741935"
"82.82144","9.020997","1723359","0.7927664"
"82.82144","9.020997","1723363","0.78983384"
"82.411385","8.760968","1723392","0.77028346"
"82.411385","8.760968","1723409","0.76930594"
"82.411385","8.760968","1723425","0.7888563"
"82.411385","8.760968","1723442","0.80840665"
"82.411385","8.760968","1723459","0.7859238"
"82.411385","8.760968","1723475","0.78494626"
"82.001335","8.340922","1723492","0.80742913"
"82.001335","8.340922","1723509","0.7859238"
"82.001335","8.340922","1723525","0.7595308"
"82.001335","8.340922","1723542","0.78201365"
"82.001335","8.340922","1723559","0.7800586"
"81.59128","8.030888","1723575","0.771261"
"81.59128","8.030888","1723592","0.8064516"
"81.14121","7.8608685","1723609","0.8044966"
"81.14121","7.8608685","1723625","0.78201365"
"81.14121","7.8608685","1723642","0.771261"
"80.74116","7.7408557","1723656","0.76930594"
"80.271095","7.60084","1723692","0.7722385"
"80.271095","7.60084","1723709","0.773216"
"79.82103","7.470826","1723742","0.7722385"
"79.420975","7.450824","1723759","0.78396875"
"79.420975","7.4408226","1723775","0.78396875"
"79.420975","7.4408226","1723792","0.78396875"
"78.93091","7.4308214","1723809","0.78494626"
"78.93091","7.4308214","1723825","0.77614856"
"78.52085","7.4308214","1723837","0.78494626"
"78.1208","7.460825","1723859","0.79569894"
"78.1208","7.4808264","1723875","0.79667646"
"77.72074","7.470826","1723892","0.7878788"
"77.72074","7.470826","1723909","0.7888563"
"77.28068","7.470826","1723925","0.7888563"
"77.28068","7.470826","1723942","0.7790811"
"77.28068","7.470826","1723959","0.7800586"
"76.85062","7.4908276","1723965","0.7800586"
"76.85062","7.4908276","1723992","0.78983384"
"76.45056","7.5808377","1724009","0.7917889"
"76.45056","7.5808377","1724025","0.7663734"
"76.45056","7.5808377","1724042","0.7370479"
"76.0105","7.6608467","1724055","0.72238517"
"76.0105","7.6608467","1724074","0.7233627"
"76.0105","7.6608467","1724092","0.72140765"
"75.61044","7.770859","1724109","0.72238517"
"75.61044","7.770859","1724125","0.7233627"
"75.61044","7.770859","1724142","0.74486804"
"75.61044","7.770859","1724159","0.7438905"
"75.19039","7.910874","1724175","0.7253177"
"75.19039","7.910874","1724192","0.74584556"
"75.19039","7.910874","1724209","0.7468231"
"75.19039","7.910874","1724225","0.76344085"
"75.19039","7.910874","1724242","0.7380254"
"75.19039","7.910874","1724259","0.74486804"
"75.19039","7.910874","1724275","0.77517104"
"75.19039","7.910874","1724292","0.73216033"
"74.79034","8.350924","1724309","0.6871945"
"74.79034","8.350924","1724342","0.68817204"
"74.79034","8.350924","1724359","0.68914956"
"74.79034","8.350924","1724367","0.7311828"
"74.79034","8.350924","1724392","0.7311828"
"74.700325","8.770969","1724409","0.77517104"
"74.700325","8.770969","1724425","0.73313785"
"74.700325","8.770969","1724438","0.6911046"
"74.700325","8.770969","1724459","0.73216033"
"74.81033","9.171014","1724475","0.7741935"
"74.81033","9.171014","1724492","0.7722385"
"74.81033","9.171014","1724509","0.73216033"
"74.96036","9.511052","1724525","0.6959922"
"74.98036","9.601061","1724542","0.71652"
"74.98036","9.761079","1724559","0.7370479"
"75.06037","9.911096","1724575","0.7370479"
"75.080376","10.121119","1724592","0.7360704"
"75.13038","10.241132","1724609","0.7360704"
"75.18039","10.391149","1724625","0.7360704"
"75.21039","10.521163","1724642","0.7360704"
"75.2604","10.631175","1724659","0.7360704"
"75.36041","10.8512","1724675","0.73900294"
"75.38042","10.971212","1724692","0.73900294"
"75.46043","11.071223","1724709","0.73900294"
"75.48043","11.201239","1724725","0.73998046"
"75.51044","11.321251","1724742","0.7419355"
"75.580444","11.431264","1724759","0.73900294"
"75.66045","11.561277","1724775","0.73998046"
"75.68046","11.701292","1724792","0.73900294"
"75.71046","11.84131","1724809","0.73900294"
"75.800476","11.961323","1724825","0.73998046"
"75.90049","12.181346","1724842","0.740958"
"75.920494","12.301359","1724859","0.740958"
"75.9505","12.421372","1724875","0.740958"
"76.0005","12.551388","1724892","0.740958"
"76.08051","12.761411","1724909","0.73998046"
"76.170525","12.891424","1724925","0.73998046"
"76.19054","12.981436","1724942","0.740958"
"76.29054","13.101448","1724959","0.7487781"
"76.380554","13.221461","1724975","0.7741935"
"76.550575","13.531496","1724992","0.7937439"
"76.640594","13.691514","1725009","0.7947214"
"76.7306","13.861531","1725025","0.7947214"
"76.85062","14.071555","1725040","0.7937439"
"76.99064","14.441596","1725059","0.79667646"
"77.100655","14.6816225","1725075","0.8064516"
"77.22067","14.871644","1725092","0.81524926"
"77.33069","15.091667","1725109","0.81524926"
"77.48071","15.281691","1725125","0.8162268"
"77.690735","15.631728","1725142","0.8162268"
"77.84075","15.851751","1725159","0.8181818"
"77.990776","16.09178","1725175","0.8181818"
"78.1008","16.341808","1725192","0.8191593"
"78.23081","16.571833","1725209","0.8220919"
"78.45084","16.951874","1725225","0.82013685"
"78.570854","17.1819","1725242","0.8191593"
"78.700874","17.381922","1725259","0.8191593"
"78.830894","17.611946","1725275","0.8172043"
"79.000916","17.921982","1725292","0.8191593"
"79.09093","18.021992","1725309","0.82013685"
"79.22095","18.28202","1725325","0.8191593"
"79.32096","18.46204","1725342","0.8044966"
"79.45098","18.63206","1725359","0.7947214"
"79.58099","18.92209","1725375","0.7986315"
"79.681015","19.18212","1725392","0.799609"
"79.79103","19.432146","1725409","0.8250244"
"79.92104","19.592165","1725425","0.8514174"
"79.94105","19.682175","1725442","0.8514174"
"80.13107","19.972208","1725459","0.8514174"
"80.221085","20.132225","1725475","0.8514174"
"80.3211","20.292244","1725492","0.85337245"
"80.41112","20.462261","1725506","0.85435"
"80.50112","20.62228","1725525","0.85239494"
"80.601135","20.782297","1725542","0.85337245"
"80.71116","21.032324","1725559","0.85337245"
"80.83117","21.232347","1725575","0.85337245"
"80.91118","21.35236","1725589","0.85435"
"81.0912","21.632391","1725609","0.856305"
"81.22122","21.882418","1725625","0.85923755"
"81.321236","22.162449","1725642","0.85923755"
"81.42125","22.442482","1725659","0.86021507"
"81.51127","22.772516","1725675","0.8611926"
"81.611275","22.97254","1725692","0.8611926"
"81.72129","23.182562","1725709","0.8611926"
"81.7713","23.372583","1725725","0.8611926"
"81.88132","23.562605","1725742","0.8611926"
"81.93132","23.722622","1725759","0.82600194"
"82.041336","23.722622","1725775","0.83773214"
"82.131355","23.722622","1725792","0.8514174"
"82.211365","23.862637","1725809","0.8514174"
"82.291374","23.992651","1725825","0.85337245"
"82.461395","24.292685","1725842","0.85239494"
"82.55141","24.442703","1725859","0.85337245"
"82.64142","24.59272","1725874","0.8553275"
"82.73143","24.752735","1725892","0.85435"
"82.83144","24.902752","1725909","0.85435"
"82.961464","25.14278","1725925","0.85435"
"83.11148","25.282795","1725942","0.85435"
"83.211494","25.412811","1725959","0.85435"
"83.24151","25.51282","1725975","0.85435"
"83.35152","25.68284","1725983","0.8553275"
"83.49154","25.572826","1726008","0.85435"
"83.601555","25.702839","1726025","0.8553275"
"83.72157","25.822855","1726042","0.85435"
"83.82159","25.95287","1726058","0.85337245"
"83.9716","26.222898","1726075","0.856305"
"84.07162","26.33291","1726092","0.8553275"
"84.15163","26.462925","1726108","0.8572825"
"84.18163","26.61294","1726125","0.8572825"
"84.30165","26.712952","1726138","0.8572825"
"84.38166","26.832964","1726158","0.8572825"
"84.43166","26.97298","1726175","0.85826004"
"84.54168","27.092995","1726192","0.85826004"
"84.6717","27.112995","1726208","0.8426197"
"84.781715","27.273014","1726225","0.81524926"
"84.87173","27.41303","1726242","0.8162268"
"84.96174","27.563046","1726258","0.8162268"
"85.04175","27.693062","1726275","0.8172043"
"85.12176","27.843077","1726292","0.82013685"
"85.21178","27.993095","1726308","0.8181818"
"85.301796","28.123108","1726325","0.8172043"
"85.4018","28.253122","1726342","0.8172043"
"85.48181","28.373138","1726358","0.8172043"
"85.64183","28.633165","1726375","0.82013685"
"85.72184","28.733175","1726392","0.82013685"
"85.741844","28.823185","1726408","0.8191593"
"85.84186","28.943201","1726425","0.8181818"
"85.961876","28.9632","1726442","0.8181818"
"86.211914","29.193228","1726458","0.8181818"
"86.33193","29.273237","1726475","0.8162268"
"86.36193","29.393248","1726492","0.8162268"
"86.48195","29.523264","1726506","0.8162268"
"86.57197","29.603273","1726525","0.8172043"
"86.69198","29.833298","1726542","0.8181818"
"86.812","29.933311","1726558","0.82013685"
"86.92201","30.053322","1726575","0.8191593"
"87.03202","30.173336","1726592","0.8181818"
"87.15205","30.273346","1726608","0.8181818"
"87.25206","30.363356","1726625","0.82013685"
"87.362076","30.443365","1726642","0.82111436"
"87.48209","30.563381","1726658","0.8220919"
"87.59211","30.66339","1726675","0.8230694"
"87.822136","30.86341","1726692","0.82111436"
"87.95215","30.963423","1726708","0.8230694"
"88.05217","31.043432","1726724","0.8240469"
"88.162186","31.13344","1726742","0.82600194"
"88.272194","31.243454","1726758","0.82600194"
"88.372215","31.343466","1726775","0.82600194"
"88.48223","31.443474","1726792","0.82600194"
"88.59224","31.533485","1726808","0.82697946"
"88.84228","31.703503","1726825","0.827957"
"88.95229","31.783512","1726842","0.8289345"
"89.0723","31.893526","1726858","0.827957"
"89.19233","31.993534","1726875","0.82697946"
"89.302345","32.093548","1726892","0.82697946"
"89.43236","32.30357","1726908","0.83968717"
"89.58238","32.613605","1726925","0.84359723"
"89.7024","32.693615","1726942","0.81427175"
"89.80241","32.783623","1726958","0.8162268"
"89.94243","32.993645","1726975","0.81427175"
"90.03244","33.113663","1726992","0.7888563"
"90.15246","33.243675","1727008","0.79081136"
"90.272484","33.36369","1727025","0.79081136"
"90.38249","33.4737","1727042","0.78983384"
"90.51251","33.56371","1727058","0.7917889"
"90.75254","33.783737","1727075","0.7927664"
"90.87255","33.903748","1727092","0.7927664"
"91.00258","34.033764","1727108","0.7937439"
"91.12259","34.063766","1727125","0.7937439"
"91.42263","34.28379","1727142","0.7917889"
"91.58266","34.453808","1727158","0.7888563"
"91.68267","34.573822","1727175","0.78983384"
"91.78269","34.693836","1727192","0.7927664"
"91.8927","34.80385","1727208","0.7937439"
"92.09273","35.053875","1727225","0.7927664"
"92.122734","35.153885","1727242","0.7917889"
"92.26276","35.313904","1727258","0.79569894"
"92.39277","35.493923","1727275","0.7947214"
"92.49278","35.703945","1727292","0.7947214"
"92.68281","35.923973","1727308","0.7986315"
"92.802826","36.01398","1727325","0.7986315"
"92.912834","36.133995","1727342","0.80156404"
"93.14287","36.38402","1727371","0.80254155"
"93.272896","36.524036","1727392","0.80351907"
"93.40291","36.674053","1727408","0.80254155"
"93.53292","36.764065","1727425","0.8044966"
"93.87297","37.054096","1727458","0.80742913"
"93.99299","37.18411","1727475","0.80742913"
"94.11301","37.324127","1727492","0.80938417"
"94.233025","37.45414","1727508","0.8103617"
"94.483055","37.72417","1727525","0.80938417"
"94.50306","37.834183","1727535","0.82697946"
"94.663086","37.944195","1727558","0.83186704"
"94.8031","38.154217","1727575","0.8289345"
"94.90311","38.414246","1727592","0.81329423"
"95.05314","38.53426","1727604","0.78494626"
"95.153145","38.664276","1727625","0.7869013"
"95.25316","38.80429","1727642","0.7888563"
"95.38318","39.024315","1727658","0.78983384"
"95.51321","39.194332","1727675","0.7888563"
"95.673225","39.404354","1727692","0.78983384"
"95.69322","39.494366","1727708","0.79081136"
"95.833244","39.75439","1727725","0.79081136"
"95.93325","39.934414","1727739","0.7917889"
"96.08328","40.16444","1727758","0.7937439"
"96.19329","40.36446","1727775","0.7937439"
"96.33331","40.544483","1727792","0.79081136"
"96.45333","40.664497","1727808","0.7878788"
"96.48333","40.844513","1727825","0.7869013"
"96.71336","41.064537","1727842","0.78201365"
"96.74337","41.214558","1727858","0.78103614"
"96.86339","41.36457","1727873","0.78201365"
"96.89339","41.50459","1727892","0.78396875"
"97.00341","41.614597","1727908","0.78396875"
"97.08341","41.744614","1727920","0.78103614"
"97.13342","41.874626","1727942","0.78396875"
"97.233444","42.014645","1727958","0.78494626"
"97.233444","42.014645","1727975","0.78299123"
"97.36346","42.214664","1727992","0.78396875"
"97.46347","42.304676","1728008","0.78494626"
"97.46347","42.304676","1728025","0.7859238"
"97.56348","42.41469","1728042","0.7859238"
"97.6635","42.43469","1728058","0.7869013"
"97.77351","42.574703","1728075","0.7859238"
"97.77351","42.574703","1728092","0.7947214"
"97.75351","42.70472","1728108","0.80156404"
"97.89353","42.734726","1728125","0.80156404"
"98.00354","42.874737","1728142","0.80156404"
"98.00354","42.874737","1728158","0.8064516"
"98.09356","42.89474","1728175","0.78983384"
"98.09356","42.89474","1728192","0.7869013"
"98.10356","42.984753","1728208","0.7888563"
"98.30359","42.984753","1728225","0.77614856"
"98.403595","43.004753","1728236","0.77614856"
"98.533615","43.104763","1728258","0.77614856"
"98.533615","43.104763","1728275","0.7771261"
"98.64363","43.13477","1728292","0.77614856"
"98.75364","43.224777","1728308","0.77614856"
"98.84366","43.274784","1728325","0.7771261"
"98.96368","43.364796","1728342","0.7771261"
"99.083694","43.454803","1728358","0.77614856"
"99.39373","43.674828","1728375","0.7741935"
"99.54376","43.774837","1728392","0.77517104"
"99.70378","43.90485","1728408","0.7771261"
"99.8638","44.004864","1728425","0.7771261"
"99.99381","44.164883","1728442","0.7781036"
"100.15384","44.314896","1728458","0.77517104"
"100.31386","44.42491","1728475","0.7722385"
"100.44388","44.59493","1728492","0.7683284"
"100.66391","44.854958","1728508","0.76441836"
"100.763916","45.03498","1728525","0.7653959"
"100.88394","45.154987","1728542","0.7653959"
"100.96395","45.31501","1728558","0.7653959"
"101.063965","45.49503","1728575","0.7663734"
"101.09397","45.58504","1728592","0.7653959"
"101.334","45.78506","1728608","0.75659823"
"101.334","45.80506","1728625","0.7438905"
"101.43401","45.835064","1728642","0.7038123"
"101.63404","45.915073","1728658","0.48582602"
"101.63404","45.745056","1728675","0.008797654"
"101.76406","45.825066","1728675","9.775171E-4"
"101.76406","45.825066","1728683","9.775171E-4"
