"89.40236","33.273678","220499","0.0136852395"
"89.56238","33.29368","220508","0.054740958"
"89.67239","33.323685","220541","0.15053764"
"89.85242","33.93375","220575","0.19843598"
"90.352486","35.2539","220625","0.28739002"
"90.95257","36.214005","220658","0.35386118"
"91.2026","36.55404","220675","0.3831867"
"91.50265","36.83407","220691","0.4125122"
"91.85269","37.1341","220708","0.43792766"
"92.20274","37.504147","220725","0.45943305"
"92.68281","38.064205","220741","0.45356792"
"93.07286","38.414246","220758","0.46627566"
"93.50293","38.74428","220775","0.48289344"
"93.96298","39.014313","220791","0.5073314"
"94.613075","39.484364","220808","0.542522"
"95.06313","39.854404","220825","0.55620724"
"95.4832","40.24445","220841","0.5650049"
"96.9534","41.79462","220891","0.5845552"
"97.34346","42.254673","220908","0.58748776"
"97.783516","42.724724","220925","0.5904203"
"98.09356","43.24478","220941","0.5894428"
"98.563614","43.764835","220958","0.5884653"
"99.39373","44.574924","220975","0.59433043"
"99.83379","45.084984","220991","0.59433043"
"100.303856","45.635044","221008","0.5894428"
"100.763916","46.31512","221025","0.5884653"
"101.40401","47.23522","221041","0.5913978"
"101.85408","47.755276","221058","0.59530795"
"102.41415","48.335346","221075","0.6001955"
"102.974236","48.925407","221091","0.60215056"
"103.45429","49.495472","221108","0.6060606"
"104.05438","50.435574","221125","0.6119257"
"104.394424","51.07565","221141","0.6217009"
"104.68446","51.695713","221158","0.62561095"
"105.084526","52.25577","221175","0.6168133"
"105.47458","52.805836","221191","0.61290324"
"105.77461","53.785942","221208","0.61485827"
"105.94465","54.446014","221225","0.6168133"
"106.10467","54.96608","221241","0.61974585"
"106.27469","55.416122","221258","0.62072337"
"106.52472","56.01619","221275","0.62072337"
"106.65474","56.506245","221291","0.6285435"
"106.77476","57.11631","221308","0.63831866"
"106.89478","57.606365","221325","0.6392962"
"106.99479","57.956406","221341","0.6392962"
"107.16481","58.49647","221358","0.6402737"
"107.35483","58.866505","221375","0.64320624"
"107.50486","59.33656","221391","0.6471163"
"107.67487","59.836613","221408","0.64907134"
"107.93492","60.446686","221425","0.64907134"
"108.26496","61.24677","221458","0.64907134"
"108.41498","61.646812","221475","0.64907134"
"108.525","62.086864","221491","0.6539589"
"108.785034","62.836945","221508","0.65689147"
"108.89505","63.236988","221525","0.65689147"
"109.08508","63.657032","221541","0.65591395"
"109.21509","64.097084","221558","0.65591395"
"109.33511","64.547134","221575","0.65591395"
"109.48513","65.22721","221591","0.6539589"
"109.60514","65.63725","221608","0.65493643"
"109.82519","66.0473","221625","0.65493643"
"110.0652","66.44734","221641","0.65689147"
"110.305244","67.04742","221658","0.6617791"
"110.45526","67.45746","221675","0.66471165"
"110.65528","67.78749","221691","0.66471165"
"110.845314","68.11753","221708","0.66373414"
"111.05534","68.44756","221725","0.66373414"
"111.36539","68.95763","221741","0.6627566"
"111.55541","69.28766","221758","0.6617791"
"111.75545","69.6577","221775","0.6608016"
"111.98547","70.03774","221791","0.65884656"
"112.285515","70.35778","221808","0.65786904"
"112.80559","70.73782","221825","0.65786904"
"113.045616","70.947845","221841","0.65591395"
"113.30566","71.11786","221858","0.65493643"
"113.5557","71.22787","221875","0.6539589"
"113.885735","71.4579","221891","0.6520039"
"114.07576","71.557915","221908","0.65102637"
"114.16578","71.57792","221925","0.65004885"
"114.41581","71.717926","221941","0.65493643"
"114.55583","71.88795","221958","0.65591395"
"114.66584","71.97796","221968","0.6520039"
"114.78587","72.00796","221991","0.65102637"
"114.78587","72.02796","222008","0.65004885"
"114.87587","72.077965","222025","0.65004885"
"115.0659","72.077965","222041","0.65689147"
"115.17591","72.06796","222058","0.6627566"
"115.17591","71.95795","222075","0.66471165"
"115.16591","71.74793","222091","0.66373414"
"115.02589","71.32788","222108","0.65786904"
"114.89588","70.977844","222125","0.6539589"
"114.81587","70.60781","222141","0.65493643"
"114.70585","70.26777","222158","0.65591395"
"114.59584","69.94773","222175","0.65786904"
"114.45582","69.6077","222191","0.65884656"
"114.14578","69.117645","222208","0.6608016"
"113.93574","68.827614","222225","0.6627566"
"113.74572","68.49757","222241","0.66373414"
"113.52569","68.177536","222258","0.6656892"
"113.215645","67.74749","222275","0.6666667"
"113.01562","67.45746","222291","0.6686217"
"112.81559","67.12742","222308","0.6744868"
"112.625565","66.76738","222325","0.6725318"
"112.415535","66.387344","222341","0.6676442"
"112.1355","65.817276","222358","0.66959924"
"112.025475","65.43723","222375","0.67057675"
"111.895454","65.067184","222391","0.67155427"
"111.775444","64.70715","222408","0.67155427"
"111.70544","64.37711","222425","0.6725318"
"111.50542","63.947063","222441","0.6735093"
"111.445404","63.697037","222458","0.6744868"
"111.405396","63.59703","222475","0.6744868"
"111.39539","63.43701","222491","0.6735093"
"111.39539","63.327003","222508","0.67155427"
"111.52541","63.246994","222525","0.67057675"
"111.645424","63.246994","222541","0.6686217"
"111.905464","63.357002","222558","0.6666667"
"112.1955","63.557022","222575","0.66471165"
"112.72558","63.927067","222591","0.6617791"
"113.01562","64.2371","222608","0.6598241"
"113.32566","64.58714","222625","0.65786904"
"113.625694","64.957184","222641","0.65591395"
"114.03576","65.527245","222658","0.6520039"
"114.28579","65.88728","222675","0.65004885"
"114.51583","66.227325","222691","0.6471163"
"114.82586","66.52735","222708","0.65102637"
"115.17591","66.83739","222725","0.6656892"
"115.53597","67.33745","222741","0.6676442"
"115.73599","67.59747","222758","0.6676442"
"115.90601","67.857506","222775","0.6656892"
"116.07604","68.087524","222791","0.66373414"
"116.256065","68.30755","222808","0.6627566"
"116.546104","68.657585","222825","0.65884656"
"116.76613","68.86761","222841","0.65786904"
"116.99616","69.04763","222858","0.65591395"
"117.2462","69.21765","222875","0.6539589"
"117.61626","69.42767","222891","0.65102637"
"117.856285","69.57769","222908","0.65004885"
"118.06632","69.7077","222925","0.64907134"
"118.15633","69.80772","222941","0.6471163"
"118.326355","69.917725","222958","0.6461388"
"118.576385","70.03774","222975","0.6451613"
"118.6664","70.06775","222991","0.64418375"
"118.75641","70.087746","223008","0.64418375"
"118.86643","70.087746","223041","0.64418375"
"118.956436","70.087746","223053","0.6451613"
"118.986435","69.997734","223074","0.6461388"
"119.02645","69.767715","223091","0.6471163"
"118.996445","69.347664","223108","0.65004885"
"118.88643","69.00763","223124","0.6520039"
"118.76642","68.7176","223141","0.6529814"
"118.59638","68.44756","223158","0.65493643"
"118.366356","68.13753","223174","0.65689147"
"118.06632","67.7775","223191","0.6598241"
"117.49623","67.21743","223208","0.6686217"
"117.10617","66.83739","223224","0.6686217"
"116.756134","66.47735","223241","0.66471165"
"116.4761","66.13731","223258","0.6676442"
"116.07604","65.63725","223274","0.67155427"
"115.86601","65.26722","223291","0.6735093"
"115.66598","64.84717","223308","0.67644185"
"115.45596","64.41712","223324","0.67741936"
"115.085915","63.997074","223341","0.66959924"
"114.725845","63.407005","223358","0.6608016"
"114.59584","63.046967","223374","0.6617791"
"114.48582","62.71693","223391","0.6617791"
"114.37581","62.386894","223408","0.6666667"
"114.3258","62.036854","223424","0.6627566"
"114.23578","61.636814","223441","0.65591395"
"114.20578","61.426792","223458","0.65493643"
"114.20578","61.286774","223474","0.6539589"
"114.22578","61.196766","223489","0.6520039"
"114.3658","61.186764","223508","0.64907134"
"114.49582","61.206764","223524","0.6471163"
"114.64584","61.35678","223541","0.64418375"
"115.02589","61.566807","223558","0.6520039"
"115.47596","61.80683","223574","0.65884656"
"115.91601","62.296886","223591","0.6656892"
"116.186066","62.606915","223608","0.6627566"
"116.46609","62.87695","223624","0.6598241"
"116.756134","63.166985","223641","0.65689147"
"117.03618","63.477016","223658","0.65493643"
"117.45622","64.017075","223674","0.65102637"
"117.78628","64.36712","223691","0.64907134"
"118.106316","64.70715","223708","0.6461388"
"118.366356","65.02719","223724","0.64418375"
"118.72641","65.447235","223741","0.6412512"
"118.93644","65.69726","223758","0.6392962"
"119.13647","65.94729","223774","0.63734114"
"119.34649","66.20732","223791","0.6353861"
"119.56653","66.457344","223808","0.6334311"
"119.90657","66.79738","223824","0.63734114"
"120.1166","67.03741","223841","0.63831866"
"120.27662","67.22743","223858","0.63831866"
"120.36663","67.317444","223874","0.6480938"
"120.74669","67.607475","223891","0.65004885"
"121.00672","67.70749","223908","0.64907134"
"121.246765","67.75749","223924","0.6471163"
"121.45678","67.81749","223941","0.6461388"
"121.5568","67.847496","223958","0.6461388"
"121.64681","67.89751","223970","0.6451613"
"121.75682","67.89751","223991","0.6451613"
"121.87684","67.857506","224008","0.6471163"
"121.87684","67.70749","224024","0.65004885"
"121.86684","67.49746","224041","0.65102637"
"121.80683","66.987404","224058","0.6539589"
"121.71682","66.627365","224074","0.6529814"
"121.496796","66.347336","224091","0.6539589"
"121.26676","66.03729","224108","0.65689147"
"120.836685","65.46724","224124","0.6608016"
"120.586655","65.02719","224141","0.65884656"
"120.38663","64.58714","224158","0.65102637"
"120.15661","64.1971","224174","0.6480938"
"119.89657","63.847054","224191","0.65004885"
"119.51652","63.36701","224208","0.6539589"
"119.286476","63.046967","224224","0.65689147"
"119.05646","62.72693","224241","0.65786904"
"118.80642","62.4069","224258","0.6608016"
"118.526375","62.016853","224274","0.6617791"
"118.106316","61.496796","224291","0.65493643"
"117.96631","61.236767","224308","0.65591395"
"117.84628","60.986744","224324","0.65786904"
"117.736275","60.746716","224341","0.65786904"
"117.686264","60.42668","224358","0.65884656"
"117.66627","60.236656","224374","0.65884656"
"117.66627","60.14665","224391","0.65884656"
"117.66627","59.996628","224408","0.65786904"
"117.75626","59.89662","224424","0.65493643"
"118.116325","59.856617","224441","0.6520039"
"118.396355","59.856617","224458","0.64907134"
"118.68639","59.856617","224474","0.6471163"
"118.93644","59.876617","224491","0.6451613"
"119.286476","60.006638","224508","0.6412512"
"119.536514","60.166653","224524","0.6392962"
"119.81656","60.43668","224541","0.6363636"
"120.1366","60.756714","224558","0.63245356"
"120.41664","61.10676","224574","0.6344086"
"120.74669","61.62681","224591","0.6461388"
"121.05673","61.96685","224608","0.6539589"
"121.31677","62.366894","224624","0.65786904"
"121.6168","62.756935","224641","0.65102637"
"121.87684","63.307","224658","0.6461388"
"122.086876","63.667038","224674","0.64418375"
"122.27689","64.017075","224691","0.6422287"
"122.546936","64.32711","224708","0.6412512"
"122.81697","64.627144","224724","0.6392962"
"123.15701","65.00719","224741","0.6451613"
"123.27704","65.22721","224758","0.65884656"
"123.427055","65.41724","224774","0.66471165"
"123.70709","65.54725","224791","0.6627566"
"123.937126","65.67726","224808","0.6617791"
"124.26717","65.74726","224824","0.6608016"
"124.477196","65.767265","224841","0.6608016"
"124.57722","65.767265","224858","0.65884656"
"124.74724","65.78728","224874","0.65786904"
"124.90726","65.817276","224891","0.65786904"
"125.157295","65.817276","224908","0.65689147"
"125.157295","65.817276","224924","0.6598241"
"125.2573","65.73727","224941","0.6627566"
"125.2573","65.39723","224958","0.6666667"
"125.1273","64.85717","224974","0.66959924"
"125.00726","64.45712","224991","0.67155427"
"124.867256","64.03708","225008","0.6744868"
"124.72724","63.60703","225024","0.67644185"
"124.567215","63.186985","225041","0.6783969"
"124.29717","62.546913","225058","0.6920821"
"124.057144","62.12687","225074","0.6871945"
"123.807106","61.746822","225091","0.6744868"
"123.597084","61.406788","225108","0.6793744"
"123.44705","60.916733","225124","0.6744868"
"123.32705","60.5967","225141","0.6656892"
"123.077","60.306667","225158","0.6676442"
"122.796974","59.996628","225174","0.67057675"
"122.456924","59.696598","225191","0.6735093"
"121.89684","59.276554","225208","0.6783969"
"121.656815","59.01652","225224","0.6803519"
"121.37677","58.776497","225241","0.68230695"
"121.01672","58.52647","225258","0.686217"
"120.67667","58.276443","225274","0.6852395"
"120.25662","57.8964","225291","0.67644185"
"119.89657","57.65637","225308","0.6793744"
"119.51652","57.336338","225324","0.6744868"
"119.10646","56.916294","225341","0.6676442"
"118.58639","56.406235","225358","0.67155427"
"118.24634","56.106205","225374","0.6744868"
"117.886284","55.806168","225391","0.67741936"
"117.556244","55.456127","225408","0.6803519"
"117.236206","55.086094","225424","0.684262"
"116.78613","54.606033","225441","0.6911046"
"116.48611","54.316","225458","0.69403714"
"116.15605","54.00597","225474","0.6959922"
"115.846016","53.665928","225491","0.6989247"
"115.545975","53.345894","225508","0.70087975"
"114.89588","52.82584","225524","0.6969697"
"114.41581","52.455803","225541","0.6901271"
"114.05576","52.17577","225558","0.6920821"
"113.69571","51.86573","225574","0.69501466"
"113.09563","51.405678","225591","0.6930596"
"112.65557","51.105648","225608","0.69403714"
"112.20551","50.725605","225624","0.69990224"
"111.81546","50.32556","225641","0.7028348"
"111.275375","49.715496","225658","0.7047898"
"110.93533","49.275444","225674","0.70674485"
"110.61529","48.995415","225691","0.7086999"
"110.29524","48.685383","225708","0.7106549"
"109.935196","48.215332","225724","0.7106549"
"109.41511","47.645267","225741","0.70576733"
"109.05507","47.455246","225758","0.7047898"
"108.72502","47.155212","225774","0.71163243"
"108.41498","46.725166","225791","0.71163243"
"108.09494","46.28512","225808","0.71163243"
"107.57487","45.61504","225824","0.714565"
"107.26482","45.174995","225841","0.714565"
"107.00479","44.944965","225858","0.714565"
"106.73475","44.724945","225874","0.71652"
"106.4847","44.354904","225891","0.7174975"
"106.06466","43.814846","225908","0.72238517"
"105.80463","43.474804","225924","0.72238517"
"105.56459","43.14477","225941","0.71847504"
"105.31456","42.804733","225958","0.7253177"
"104.9445","42.26467","225974","0.7370479"
"104.654465","41.854626","225991","0.7370479"
"104.35442","41.454582","226008","0.7380254"
"104.03437","41.034534","226024","0.73900294"
"103.5343","40.394466","226041","0.73900294"
"103.20426","39.954414","226058","0.7419355"
"102.94422","39.52437","226074","0.74486804"
"102.75419","39.094322","226091","0.74584556"
"102.56417","38.63427","226108","0.7438905"
"102.27413","38.114216","226124","0.75855327"
"101.83408","37.404133","226141","0.7722385"
"101.61404","36.934082","226158","0.771261"
"101.44402","36.484035","226174","0.773216"
"101.324005","35.95397","226191","0.7771261"
"100.99396","35.103878","226208","0.7800586"
"100.763916","34.54382","226224","0.7790811"
"100.473885","34.01376","226241","0.77517104"
"100.103836","33.373688","226258","0.76344085"
"99.73378","32.73362","226274","0.7800586"
"99.163704","31.883524","226291","0.799609"
"98.73364","31.343466","226308","0.7947214"
"98.323586","30.623384","226324","0.79081136"
"97.98354","29.863298","226341","0.78494626"
"97.54348","29.033209","226358","0.78103614"
"97.28344","28.553156","226374","0.7781036"
"96.9834","27.983093","226391","0.78396875"
"96.73336","27.303017","226408","0.8054741"
"96.55334","26.69295","226424","0.8162268"
"96.09327","25.802853","226441","0.8162268"
"95.753235","25.222788","226458","0.81524926"
"95.42319","24.62272","226474","0.8113392"
"95.06313","24.032658","226491","0.80938417"
"94.73309","23.572605","226508","0.81329423"
"94.27303","22.722511","226524","0.8250244"
"93.892975","22.012432","226541","0.8240469"
"93.49292","21.402367","226558","0.8230694"
"93.10287","20.972317","226574","0.8220919"
"92.6028","20.35225","226591","0.8181818"
"92.31276","19.972208","226608","0.8191593"
"92.04272","19.592165","226624","0.8181818"
"91.75268","19.222124","226641","0.8103617"
"91.48264","18.862085","226658","0.7986315"
"91.102585","18.29202","226674","0.79569894"
"90.822556","17.83197","226691","0.7927664"
"90.562515","17.35192","226708","0.79081136"
"90.302475","16.851864","226724","0.7927664"
"90.04244","16.371809","226741","0.7947214"
"89.59238","15.741739","226758","0.79081136"
"89.27234","15.321693","226774","0.7917889"
"88.94229","14.881645","226791","0.79081136"
"88.622246","14.431595","226808","0.79081136"
"88.14218","13.831529","226824","0.7917889"
"87.79213","13.431485","226841","0.78201365"
"87.46208","13.011439","226858","0.773216"
"87.18205","12.57139","226874","0.7722385"
"86.90201","12.091336","226891","0.771261"
"86.50195","11.40126","226908","0.7683284"
"86.20191","11.091227","226924","0.7614858"
"85.87187","10.831198","226941","0.75268817"
"85.581825","10.521163","226958","0.75073314"
"85.16177","10.04111","226974","0.7487781"
"84.88173","9.621063","226991","0.740958"
"84.88173","9.621063","227008","0.7468231"
"84.41167","9.111008","227024","0.77028346"
"84.01161","8.770969","227041","0.75073314"
"83.601555","8.510941","227058","0.771261"
"83.02148","8.2409115","227074","0.7605083"
"82.60141","8.030888","227091","0.75073314"
"82.19135","7.830866","227108","0.7595308"
"81.62128","7.540834","227120","0.7556207"
"81.21123","7.3308105","227141","0.73313785"
"80.76116","7.1407895","227158","0.7096774"
"80.36111","6.9807715","227174","0.7096774"
"79.82103","6.7507463","227191","0.7096774"
"79.82103","6.7507463","227208","0.70772237"
"79.30096","6.6107306","227219","0.7047898"
"78.790886","6.5207205","227241","0.7038123"
"78.36083","6.5207205","227258","0.7047898"
"78.36083","6.5207205","227274","0.70185727"
"77.94077","6.5207205","227291","0.7038123"
"77.4307","6.5207205","227308","0.7038123"
"77.4307","6.5207205","227324","0.71163243"
"76.92063","6.630733","227341","0.71163243"
"76.92063","6.630733","227358","0.71163243"
"76.380554","6.7307444","227374","0.6783969"
"75.910484","6.920765","227391","0.6451613"
"75.910484","6.920765","227408","0.6627566"
"75.450424","7.080783","227424","0.6627566"
"75.450424","7.080783","227429","0.66373414"
"75.02036","7.320809","227458","0.66471165"
"75.02036","7.320809","227474","0.6471163"
"75.02036","7.320809","227484","0.6480938"
"74.740326","7.760858","227508","0.6471163"
"74.740326","7.760858","227524","0.6793744"
"74.69032","8.170904","227541","0.68328446"
"74.68032","8.170904","227558","0.69403714"
"74.520294","8.690961","227574","0.6959922"
"74.490295","9.121009","227591","0.6353861"
"74.48029","9.671069","227608","0.65884656"
"74.530304","10.111117","227624","0.65786904"
"74.5903","10.571168","227641","0.65591395"
"74.72032","11.241242","227658","0.65786904"
"74.84035","11.731297","227674","0.65786904"
"74.94035","12.241353","227691","0.65786904"
"75.05037","12.741408","227708","0.65786904"
"75.2604","13.221461","227724","0.65591395"
"75.450424","13.671511","227741","0.6735093"
"75.830475","14.361587","227758","0.6871945"
"76.090515","14.891646","227774","0.70576733"
"76.39056","15.421705","227791","0.7302053"
"76.7006","15.961763","227808","0.7350929"
"77.19067","16.941872","227824","0.7350929"
"77.56072","17.641949","227841","0.73411536"
"77.96078","18.28202","227858","0.73411536"
"78.35083","18.862085","227874","0.72727275"
"78.93091","19.842194","227891","0.7438905"
"79.340965","20.452261","227908","0.7663734"
"79.74102","21.002321","227924","0.7673509"
"80.10107","21.62239","227941","0.76930594"
"80.45111","22.322468","227958","0.77028346"
"80.81117","23.072552","227974","0.77028346"
"81.39124","24.102665","227991","0.7741935"
"81.741295","24.62272","228008","0.773216"
"82.11134","25.272795","228024","0.7741935"
"82.5014","25.842857","228041","0.77517104"
"83.08148","26.732954","228058","0.7781036"
"83.49154","27.273014","228074","0.76930594"
"83.931595","27.693062","228091","0.7487781"
"84.361664","28.183115","228108","0.740958"
"84.76172","28.703175","228124","0.74584556"
"85.301796","29.473259","228141","0.75268817"
"85.62183","29.913305","228158","0.75659823"
"86.001884","30.423363","228174","0.7556207"
"86.381935","30.923418","228191","0.7546432"
"86.832","31.513483","228208","0.7605083"
"87.12204","31.84352","228224","0.7614858"
"87.38207","32.133553","228241","0.76344085"
"87.63211","32.49359","228258","0.76344085"
"87.87214","32.95364","228274","0.74584556"
"88.34221","33.543705","228291","0.7302053"
"88.72225","33.91375","228308","0.73216033"
"89.0723","34.173775","228324","0.7350929"
"89.382355","34.373802","228341","0.72140765"
"89.63239","34.583824","228358","0.52492666"
"90.28247","35.103878","228374","9.775171E-4"
"90.28247","35.103878","228380","9.775171E-4"
