"88.44222","15.481711","319068","0.039100684"
"88.44222","15.481711","319069","0.039100684"
"88.662254","15.831751","319103","0.102639295"
"89.212326","16.461819","319136","0.13294232"
"89.95244","17.381922","319186","0.18768328"
"90.75254","18.54205","319219","0.2404692"
"91.072586","19.0121","319236","0.25513196"
"91.412636","19.472153","319253","0.26979473"
"91.78269","19.942204","319269","0.29716522"
"92.122734","20.382252","319286","0.3264907"
"92.65281","21.152338","319303","0.35874876"
"93.08286","21.7224","319319","0.37927663"
"93.49292","22.292463","319336","0.39589444"
"93.91298","22.832523","319353","0.40175954"
"94.49306","23.68262","319369","0.42424244"
"94.8031","24.252682","319386","0.46138808"
"95.02313","24.812742","319403","0.4965787"
"95.35318","25.452812","319419","0.5210166"
"95.68322","26.022879","319436","0.5356794"
"96.15329","26.892971","319453","0.5259042"
"96.49333","27.433033","319469","0.5043988"
"96.87338","27.933088","319486","0.52981424"
"97.12342","28.423143","319503","0.5591398"
"97.29345","28.843187","319519","0.57575756"
"97.6935","29.543266","319536","0.59628546"
"97.96354","30.083326","319553","0.6089932"
"98.26359","30.603382","319569","0.6217009"
"98.59362","31.10344","319586","0.63245356"
"99.133705","31.713505","319603","0.6461388"
"99.47375","32.10355","319619","0.6598241"
"99.8138","32.503593","319636","0.6735093"
"100.523895","33.613716","319669","0.6529814"
"100.99396","34.28379","319686","0.65884656"
"101.273994","34.81385","319703","0.65884656"
"101.574036","35.35391","319719","0.6627566"
"101.874084","35.91397","319736","0.67057675"
"102.18412","36.484035","319753","0.67741936"
"102.65418","37.29412","319769","0.68817204"
"102.884224","37.894188","319786","0.67741936"
"103.19426","38.474255","319803","0.66471165"
"103.63432","38.99431","319819","0.6666667"
"104.13439","39.8244","319836","0.6676442"
"104.43443","40.384464","319853","0.67057675"
"104.74447","40.95453","319869","0.6744868"
"105.04451","41.50459","319886","0.67546433"
"105.31456","42.014645","319903","0.6744868"
"105.744606","42.744724","319919","0.67155427"
"106.044655","43.224777","319936","0.66471165"
"106.324684","43.69483","319953","0.66471165"
"106.60473","44.17488","319969","0.6676442"
"107.0448","44.884964","319986","0.66959924"
"107.30483","45.225","320002","0.66959924"
"107.58487","45.595043","320019","0.66959924"
"107.92491","46.05509","320036","0.66959924"
"108.274956","46.485138","320052","0.66959924"
"108.785034","47.10521","320069","0.67155427"
"109.125084","47.32523","320086","0.6735093"
"109.455124","47.57526","320102","0.6744868"
"109.80517","48.085316","320119","0.6744868"
"110.175224","48.67538","320136","0.67546433"
"110.685295","49.28545","320152","0.6744868"
"111.025345","49.555473","320169","0.67546433"
"111.36539","49.95552","320186","0.67546433"
"111.695435","50.30556","320202","0.6744868"
"112.17551","50.85562","320219","0.66373414"
"112.50555","51.215664","320236","0.6627566"
"112.83559","51.5057","320252","0.67057675"
"113.14564","51.74572","320269","0.66959924"
"113.44568","51.975746","320286","0.6686217"
"113.885735","52.315784","320302","0.6666667"
"114.185776","52.565807","320319","0.6656892"
"114.49582","52.83584","320336","0.66373414"
"115.846016","53.86595","320386","0.6744868"
"116.176056","54.115986","320402","0.6735093"
"116.49609","54.386013","320419","0.67155427"
"116.776146","54.606033","320436","0.66959924"
"117.266205","54.976078","320452","0.6656892"
"117.66627","55.25611","320469","0.66373414"
"118.05631","55.486134","320486","0.6617791"
"118.43636","55.676155","320502","0.65884656"
"118.80642","55.866177","320519","0.65689147"
"119.376495","56.216213","320536","0.6539589"
"119.75655","56.45624","320552","0.6520039"
"120.20661","56.846287","320569","0.65786904"
"120.61667","57.27633","320586","0.6735093"
"121.27676","57.666374","320602","0.6803519"
"121.70681","57.9164","320619","0.67644185"
"122.046875","58.18643","320636","0.6744868"
"122.42691","58.48646","320652","0.67155427"
"122.81697","58.786495","320669","0.66959924"
"123.28703","59.26655","320686","0.6686217"
"123.467064","59.62659","320702","0.67741936"
"123.57709","59.966625","320719","0.686217"
"123.847115","60.246662","320736","0.6852395"
"124.047134","60.526688","320752","0.684262"
"124.31718","60.956738","320769","0.68230695"
"124.477196","61.266773","320786","0.6803519"
"124.607216","61.566807","320802","0.6803519"
"124.66723","61.866837","320819","0.6871945"
"124.88726","62.306885","320836","0.6989247"
"124.98727","62.576916","320852","0.6979472"
"125.107285","62.846943","320869","0.6969697"
"125.21731","63.116974","320886","0.6969697"
"125.33732","63.41701","320902","0.6969697"
"125.407326","63.89706","320919","0.69501466"
"125.46734","64.2371","320936","0.69403714"
"125.52735","64.53713","320952","0.69403714"
"125.58736","64.79716","320969","0.69403714"
"125.62736","65.01718","320986","0.69403714"
"125.67737","65.32722","321002","0.6930596"
"125.697365","65.51724","321019","0.6930596"
"125.697365","65.727264","321036","0.6930596"
"125.67737","65.93729","321052","0.6930596"
"125.52735","66.16731","321069","0.6901271"
"125.41733","66.257324","321086","0.686217"
"125.27732","66.27732","321102","0.68328446"
"125.187294","66.27732","321119","0.6793744"
"124.90726","66.227325","321136","0.6793744"
"124.5472","66.03729","321152","0.6813294"
"124.28718","65.897285","321169","0.68328446"
"124.03715","65.74726","321186","0.68328446"
"123.78711","65.567245","321202","0.6813294"
"123.40705","65.1772","321219","0.684262"
"123.33704","64.93717","321236","0.67155427"
"123.217026","64.70715","321252","0.65689147"
"122.916985","64.427124","321269","0.65786904"
"122.61694","64.11708","321286","0.65884656"
"122.17688","63.557022","321302","0.6608016"
"121.94685","63.236988","321319","0.6617791"
"121.786835","62.946957","321336","0.66373414"
"121.53679","62.666927","321352","0.6656892"
"121.226746","62.32689","321369","0.6735093"
"120.686676","61.736824","321386","0.67741936"
"120.43664","61.336777","321402","0.65884656"
"120.16661","61.00675","321419","0.6471163"
"119.886566","60.716713","321436","0.64907134"
"119.51652","60.32667","321452","0.65102637"
"119.246475","60.116642","321469","0.6529814"
"118.996445","59.90662","321486","0.65493643"
"118.786415","59.7166","321502","0.65591395"
"118.61639","59.576584","321519","0.65689147"
"118.496376","59.46657","321536","0.65493643"
"118.496376","59.46657","321552","0.6529814"
"118.396355","59.456573","321561","0.6520039"
"118.38637","59.53658","321586","0.65102637"
"118.38637","59.646595","321602","0.65004885"
"118.38637","59.856617","321619","0.64907134"
"118.51638","60.106644","321636","0.6480938"
"118.68639","60.41668","321652","0.6461388"
"118.89642","60.756714","321669","0.64418375"
"119.25649","61.256775","321686","0.6402737"
"119.45651","61.61681","321702","0.64418375"
"119.69653","61.97685","321719","0.6520039"
"119.97658","62.31689","321736","0.65004885"
"120.176605","62.646927","321752","0.64907134"
"120.32663","63.09697","321769","0.65884656"
"120.44664","63.387005","321786","0.66373414"
"120.66668","63.667038","321802","0.6627566"
"120.856705","63.937065","321819","0.6627566"
"121.15675","64.39712","321836","0.6617791"
"121.36677","64.67715","321852","0.6608016"
"121.5868","64.93717","321869","0.6598241"
"121.77682","65.1872","321886","0.65884656"
"121.85684","65.42723","321902","0.65786904"
"121.956856","65.78728","321919","0.65884656"
"122.02686","66.03729","321936","0.6598241"
"122.02686","66.297325","321952","0.6598241"
"122.07686","66.55736","321969","0.6598241"
"122.21688","66.877396","321986","0.6617791"
"122.35691","67.28744","322002","0.6617791"
"122.43693","67.567474","322019","0.6627566"
"122.48692","67.857506","322036","0.66373414"
"122.52693","68.13753","322052","0.66373414"
"122.546936","68.53758","322069","0.6656892"
"122.536934","68.747604","322086","0.6666667"
"122.506935","68.83761","322102","0.6686217"
"122.38692","69.067635","322119","0.67057675"
"122.246895","69.20764","322136","0.6725318"
"122.14688","69.28766","322152","0.67155427"
"122.046875","69.28766","322169","0.67057675"
"121.93685","69.267654","322186","0.66959924"
"121.79684","68.97762","322202","0.66959924"
"121.6168","68.63759","322219","0.67057675"
"121.12674","68.05752","322236","0.67155427"
"120.8067","67.66748","322252","0.6744868"
"120.49665","67.277435","322269","0.67546433"
"120.26662","66.84739","322286","0.67741936"
"119.94658","66.14731","322302","0.6598241"
"119.586525","65.75727","322319","0.6608016"
"119.246475","65.41724","322336","0.66373414"
"118.916435","65.077194","322352","0.6656892"
"118.61639","64.69715","322369","0.6676442"
"118.16633","64.097084","322386","0.66959924"
"117.8763","63.747047","322402","0.67057675"
"117.596245","63.457016","322419","0.6725318"
"117.30621","63.176987","322436","0.6744868"
"116.89616","62.68693","322452","0.67741936"
"116.646126","62.386894","322469","0.6783969"
"116.416084","62.046852","322486","0.6793744"
"116.19605","61.766827","322502","0.67644185"
"116.006035","61.586803","322519","0.6744868"
"115.75599","61.35678","322536","0.67546433"
"115.60597","61.24677","322552","0.6744868"
"115.46595","61.16676","322569","0.6744868"
"115.23592","61.13676","322586","0.66959924"
"115.02589","61.116756","322602","0.6656892"
"114.67585","61.116756","322619","0.65591395"
"114.58583","61.196766","322636","0.65591395"
"114.58583","61.196766","322652","0.65493643"
"114.48582","61.32678","322669","0.65493643"
"114.46582","61.69682","322686","0.6539589"
"114.46582","62.076866","322702","0.65689147"
"114.57583","62.486908","322719","0.6598241"
"114.61584","62.826942","322736","0.65884656"
"114.73586","63.166985","322752","0.65786904"
"114.98589","63.68704","322769","0.6608016"
"115.29594","64.017075","322786","0.66959924"
"115.56597","64.32711","322802","0.6735093"
"115.776","64.60714","322819","0.6725318"
"115.98602","64.90717","322836","0.67155427"
"116.28607","65.36723","322852","0.66959924"
"116.46609","65.647255","322869","0.6686217"
"116.66612","65.90728","322886","0.6666667"
"116.85614","66.1173","322902","0.6656892"
"117.1262","66.40734","322919","0.66471165"
"117.27621","66.627365","322936","0.6686217"
"117.446236","66.877396","322952","0.6686217"
"117.63625","67.12742","322969","0.66471165"
"117.79627","67.37744","322986","0.66471165"
"117.96631","67.78749","323002","0.6676442"
"118.09631","68.06753","323019","0.6666667"
"118.29634","68.34755","323036","0.6656892"
"118.41637","68.60758","323052","0.6656892"
"118.53638","68.99763","323069","0.66373414"
"118.64639","69.237656","323086","0.66373414"
"118.74641","69.477684","323102","0.66471165"
"118.79642","69.717705","323119","0.66471165"
"118.81643","69.94773","323136","0.66471165"
"118.80642","70.287766","323152","0.6656892"
"118.786415","70.37778","323169","0.6676442"
"118.736404","70.537796","323186","0.6686217"
"118.64639","70.70782","323202","0.66959924"
"118.54639","70.83783","323219","0.67057675"
"118.326355","70.91784","323236","0.6725318"
"118.186325","70.90784","323252","0.6725318"
"117.96631","70.747826","323269","0.6725318"
"117.70626","70.537796","323286","0.6744868"
"117.32622","70.18776","323302","0.6744868"
"117.086174","69.88772","323319","0.67546433"
"116.886154","69.50769","323336","0.67644185"
"116.676125","69.067635","323352","0.6783969"
"116.44609","68.63759","323369","0.6803519"
"116.05603","68.06753","323386","0.68328446"
"115.816","67.75749","323402","0.6852395"
"115.57597","67.45746","323419","0.6871945"
"115.27592","67.13741","323436","0.68230695"
"114.88588","66.76738","323452","0.6725318"
"114.40581","66.24732","323469","0.6686217"
"114.15577","65.92729","323486","0.66959924"
"113.895744","65.61725","323502","0.67155427"
"113.64571","65.33723","323519","0.6725318"
"113.25566","64.957184","323536","0.67546433"
"112.99562","64.67715","323552","0.67644185"
"112.73557","64.43712","323569","0.67644185"
"112.46554","64.307106","323586","0.67741936"
"112.22551","64.12708","323602","0.67741936"
"111.98547","63.86706","323619","0.67546433"
"111.87546","63.717045","323636","0.67546433"
"111.79544","63.617035","323652","0.6744868"
"111.79544","63.617035","323686","0.6735093"
"111.775444","63.847054","323702","0.6735093"
"111.905464","64.17709","323719","0.67155427"
"112.08549","64.56714","323736","0.67155427"
"112.37553","65.01718","323752","0.66959924"
"112.83559","65.68726","323769","0.6676442"
"113.09563","66.1173","323786","0.6656892"
"113.37566","66.547356","323802","0.65884656"
"113.64571","66.9674","323819","0.65884656"
"113.90574","67.33745","323836","0.66471165"
"114.27579","67.807495","323852","0.6608016"
"114.51583","68.12753","323869","0.6598241"
"114.725845","68.42757","323886","0.6598241"
"115.00589","68.7276","323902","0.6627566"
"115.495964","69.22765","323919","0.6793744"
"115.65598","69.54768","323936","0.6803519"
"115.786","69.87772","323952","0.6803519"
"115.90601","70.19776","323969","0.6793744"
"116.006035","70.5278","323986","0.6793744"
"116.086044","70.99785","324002","0.6793744"
"116.14605","71.35789","324019","0.684262"
"116.20606","71.717926","324036","0.68817204"
"116.22607","71.96796","324050","0.686217"
"116.21605","72.09797","324069","0.686217"
"116.11604","72.11797","324086","0.68914956"
"116.006035","72.10797","324102","0.6901271"
"115.826004","72.037964","324119","0.6920821"
"115.50596","71.95795","324136","0.6901271"
"114.87587","71.80794","324152","0.67546433"
"114.61584","71.64792","324169","0.67546433"
"114.3258","71.477905","324186","0.67741936"
"114.03576","71.35789","324202","0.6783969"
"113.77572","71.22787","324219","0.6793744"
"113.385666","71.00785","324236","0.6813294"
"113.13563","70.87784","324252","0.6813294"
"112.8656","70.71781","324269","0.68328446"
"112.54555","70.51779","324286","0.68328446"
"112.04549","70.09775","324302","0.684262"
"111.80546","69.72771","324319","0.6852395"
"111.52541","69.32766","324336","0.6852395"
"111.25537","68.937614","324352","0.686217"
"111.00533","68.53758","324369","0.6871945"
"110.60528","67.887505","324386","0.68817204"
"110.37525","67.45746","324402","0.68817204"
"110.10521","66.997406","324419","0.6911046"
"109.78517","66.51736","324436","0.68914956"
"109.52515","66.0473","324452","0.68328446"
"109.15508","65.32722","324469","0.686217"
"108.92506","64.80716","324486","0.686217"
"108.71502","64.29711","324502","0.686217"
"108.50499","63.807053","324519","0.6871945"
"108.17495","63.046967","324536","0.686217"
"107.94492","62.566917","324552","0.6871945"
"107.71489","62.016853","324569","0.68328446"
"107.46485","61.476795","324586","0.6803519"
"107.19481","61.046745","324602","0.6813294"
"106.86477","60.386673","324619","0.68328446"
"106.70475","59.886623","324636","0.684262"
"106.56473","59.246548","324652","0.6852395"
"106.44471","58.636482","324669","0.686217"
"106.3147","58.206432","324686","0.686217"
"106.13467","57.636368","324702","0.686217"
"106.02466","57.10631","324719","0.69403714"
"105.95465","56.45624","324736","0.6871945"
"105.84463","55.916183","324752","0.6725318"
"105.70462","55.28611","324769","0.6744868"
"105.64459","54.886063","324786","0.67644185"
"105.56459","54.47602","324802","0.67741936"
"105.46458","53.985966","324819","0.67741936"
"105.30456","53.465908","324836","0.6813294"
"104.99451","52.865845","324852","0.6920821"
"104.84448","52.455803","324869","0.69403714"
"104.68446","52.03575","324886","0.69501466"
"104.51445","51.5857","324902","0.69501466"
"104.28442","50.86562","324919","0.6920821"
"104.104385","50.405575","324936","0.69990224"
"103.894356","50.01553","324952","0.7028348"
"103.66434","49.625484","324969","0.7047898"
"103.434296","49.275444","324986","0.70576733"
"103.02425","48.825394","325002","0.7047898"
"102.71419","48.31534","325019","0.70576733"
"102.40415","47.9253","325036","0.70674485"
"102.09411","47.565258","325052","0.70772237"
"101.85408","47.315228","325069","0.7047898"
"101.47402","46.905186","325086","0.7047898"
"101.18398","46.49514","325102","0.70576733"
"100.89394","46.035088","325119","0.70576733"
"100.5939","45.565037","325136","0.70576733"
"100.16385","45.004974","325152","0.714565"
"99.883804","44.634933","325169","0.72140765"
"99.57376","44.20489","325186","0.7194526"
"99.23371","43.824844","325202","0.72043014"
"98.85366","43.4648","325219","0.72238517"
"98.413605","42.91474","325236","0.72238517"
"97.913536","42.5447","325252","0.7311828"
"97.54348","42.14466","325269","0.7292278"
"97.16343","41.724613","325286","0.7292278"
"96.75338","41.284565","325302","0.73313785"
"96.11327","40.684498","325319","0.7438905"
"95.76324","40.24445","325336","0.7419355"
"95.413185","39.844406","325352","0.740958"
"95.04313","39.444363","325369","0.7380254"
"94.46306","38.854294","325386","0.7380254"
"94.073006","38.404243","325402","0.7380254"
"93.63294","37.944195","325419","0.7487781"
"93.19287","37.49415","325436","0.7595308"
"92.82283","37.054096","325452","0.75659823"
"92.28275","36.424026","325469","0.75073314"
"91.9327","35.963974","325486","0.75073314"
"91.58266","35.433918","325502","0.7468231"
"91.13259","34.863853","325519","0.74486804"
"90.552505","34.083767","325536","0.7438905"
"90.28247","33.623714","325552","0.742913"
"90.00243","33.243675","325569","0.740958"
"89.662384","32.713615","325586","0.73411536"
"89.31235","32.223564","325602","0.7536657"
"88.73226","31.75351","325619","0.7790811"
"88.3122","31.333464","325636","0.77614856"
"87.912155","30.893414","325652","0.773216"
"87.5421","30.443365","325669","0.76930594"
"87.21205","30.043322","325686","0.7683284"
"86.78199","29.423252","325702","0.76930594"
"86.53196","28.973204","325719","0.7683284"
"86.23191","28.513151","325736","0.7673509"
"85.86187","28.0431","325752","0.7683284"
"85.34179","27.433033","325769","0.7722385"
"85.03175","26.992983","325786","0.8064516"
"84.701706","26.452925","325802","0.8064516"
"84.37166","25.902864","325819","0.8044966"
"84.08162","25.572826","325836","0.80351907"
"83.58155","24.962759","325852","0.8044966"
"83.261505","24.462704","325869","0.80254155"
"82.99147","24.07266","325886","0.799609"
"82.721436","23.772629","325902","0.80351907"
"82.44139","23.43259","325919","0.80742913"
"82.02134","22.732513","325936","0.8054741"
"81.7613","22.322468","325952","0.8054741"
"81.46126","21.862415","325969","0.80156404"
"81.11121","21.392365","325986","0.7986315"
"80.66115","20.862307","326002","0.799609"
"80.3811","20.54227","326019","0.7986315"
"80.09107","20.192232","326036","0.797654"
"79.79103","19.842194","326052","0.79667646"
"79.45098","19.37214","326069","0.79569894"
"78.8209","18.652061","326085","0.77028346"
"78.330826","18.202013","326102","0.7614858"
"77.87076","17.711958","326119","0.7595308"
"77.4107","17.1819","326135","0.75757575"
"76.77061","16.2818","326152","0.7614858"
"76.31054","15.721737","326169","0.7536657"
"75.840485","15.231683","326185","0.7438905"
"75.450424","14.781634","326202","0.7419355"
"75.10038","14.311581","326219","0.7419355"
"74.64031","13.621505","326235","0.6920821"
"74.39028","13.141452","326252","0.67741936"
"74.20026","12.521384","326269","0.67546433"
"74.08024","11.821307","326285","0.6725318"
"74.04023","11.261246","326302","0.6735093"
"73.940216","10.651177","326319","0.67155427"
"73.92021","10.231131","326335","0.66959924"
"73.92021","10.001105","326352","0.6686217"
"73.940216","9.571058","326369","0.64418375"
"74.04023","9.14101","326385","0.64418375"
"74.19025","8.580948","326402","0.6793744"
"74.35027","8.130898","326419","0.67546433"
"74.35027","8.130898","326435","0.6529814"
"74.58031","7.590839","326452","0.64907134"
"74.740326","7.160792","326469","0.64320624"
"74.740326","7.160792","326485","0.65786904"
"75.00037","6.710742","326502","0.67155427"
"75.00037","6.710742","326519","0.65004885"
"75.49043","6.260692","326535","0.629521"
"75.960495","5.9706597","326552","0.6226784"
"75.960495","5.9706597","326569","0.65786904"
"76.45056","5.7806387","326585","0.6803519"
"77.020645","5.580617","326602","0.6676442"
"77.4507","5.5506134","326619","0.67155427"
"77.93077","5.5206103","326635","0.6793744"
"78.46084","5.500608","326652","0.6676442"
"79.040924","5.5306115","326669","0.6539589"
"79.601006","5.680628","326685","0.65004885"
"80.62114","5.890651","326702","0.6520039"
"81.17121","6.0306664","326719","0.6744868"
"81.71129","6.1606812","326735","0.6920821"
"82.17136","6.370704","326750","0.6920821"
"82.63142","6.700741","326769","0.6911046"
"83.10149","7.0707808","326785","0.6911046"
"83.54154","7.460825","326802","0.69501466"
"83.981606","7.770859","326819","0.70772237"
"84.55168","8.130898","326835","0.7174975"
"85.071754","8.580948","326852","0.6813294"
"85.071754","8.580948","326869","0.68230695"
"85.70185","9.341033","326885","0.684262"
"86.051895","9.6910715","326902","0.6979472"
"86.39194","10.061112","326919","0.70674485"
"86.79199","10.751188","326935","0.70772237"
"87.012024","11.261246","326952","0.7096774"
"87.24206","11.85131","326969","0.7106549"
"87.48209","12.501382","326985","0.72825027"
"87.89215","13.351477","327002","0.7380254"
"88.19219","13.831529","327019","0.7311828"
"88.52223","14.371588","327035","0.73313785"
"88.872284","14.971656","327052","0.73411536"
"89.202324","15.501714","327069","0.7350929"
"89.67239","16.371809","327085","0.7350929"
"89.99243","16.981876","327102","0.7360704"
"90.302475","17.521936","327119","0.7380254"
"90.642525","18.051996","327135","0.73998046"
"91.04258","18.562052","327152","0.7438905"
"91.50265","19.242126","327169","0.7614858"
"91.80269","19.862196","327202","0.7653959"
"91.85269","19.972208","327219","0.7194526"
"92.05272","20.062218","327224","0.5288367"
"92.6628","20.372253","327288","0.5288367"
"92.6628","20.372253","327289","0.5288367"
