"92.26276","37.404133","628855","0.038123168"
"92.03272","37.46414","628886","0.09677419"
"92.03272","37.45414","628919","0.23851417"
"92.03272","37.45414","628952","0.34017596"
"92.19274","37.45414","628986","0.42033234"
"92.29275","37.484142","629002","0.44477028"
"92.29275","37.484142","629019","0.46432063"
"92.29275","37.484142","629036","0.47214076"
"92.40277","37.484142","629052","0.5034213"
"92.52278","37.43414","629069","0.53763443"
"92.6428","37.424137","629085","0.5542522"
"92.76282","37.424137","629102","0.56402737"
"93.02285","37.44414","629119","0.57380253"
"93.12287","37.46414","629135","0.5796676"
"93.29289","37.594154","629152","0.57087"
"93.45292","37.61416","629169","0.58064514"
"93.72295","37.72417","629185","0.5884653"
"94.022995","37.944195","629202","0.58162266"
"94.133","38.08421","629219","0.5904203"
"94.403046","38.304234","629236","0.599218"
"94.50306","38.404243","629252","0.60703814"
"94.67308","38.554264","629269","0.61388075"
"95.02313","38.834293","629285","0.62072337"
"95.18315","38.964306","629302","0.62561095"
"95.32317","39.094322","629319","0.6304985"
"95.43319","39.20433","629335","0.6363636"
"95.883255","39.764397","629402","0.65493643"
"96.01327","39.91441","629419","0.65689147"
"96.18329","40.144436","629435","0.6617791"
"96.47333","40.40447","629452","0.65591395"
"96.683365","40.574486","629469","0.65004885"
"96.76337","40.674496","629485","0.6539589"
"96.99341","40.97453","629502","0.65591395"
"97.223434","41.314564","629519","0.6598241"
"97.33345","41.554596","629535","0.6617791"
"97.54348","41.764618","629552","0.66373414"
"97.7035","41.96464","629569","0.66471165"
"97.96354","42.24467","629585","0.6666667"
"98.13355","42.43469","629602","0.6666667"
"98.08355","42.654716","629619","0.6627566"
"98.29358","42.88474","629635","0.65786904"
"98.68364","43.114765","629652","0.65884656"
"99.02368","43.454803","629669","0.65884656"
"99.21371","43.674828","629685","0.65884656"
"99.38374","43.90485","629702","0.6608016"
"99.56376","44.134876","629719","0.6598241"
"99.8138","44.49492","629735","0.6608016"
"99.973816","44.724945","629752","0.6608016"
"100.13384","44.98497","629769","0.6617791"
"100.31386","45.114986","629785","0.65591395"
"100.49389","45.234997","629802","0.65004885"
"100.763916","45.61504","629819","0.64907134"
"100.96395","45.885075","629835","0.65004885"
"101.17397","46.1351","629852","0.65102637"
"101.39401","46.385124","629869","0.65102637"
"101.59404","46.615154","629885","0.65102637"
"101.89408","46.975193","629902","0.6520039"
"102.0441","47.095207","629919","0.6529814"
"102.19412","47.215218","629935","0.6539589"
"102.39415","47.43524","629952","0.6539589"
"102.69419","47.85529","629969","0.6539589"
"102.87422","48.185326","629985","0.6539589"
"103.04424","48.525364","630002","0.6539589"
"103.16425","48.885406","630019","0.6529814"
"103.30427","49.155434","630035","0.6529814"
"103.524315","49.385456","630052","0.6539589"
"103.65432","49.675488","630069","0.65493643"
"103.79434","49.935516","630085","0.6539589"
"103.90435","50.185547","630102","0.6539589"
"104.104385","50.445576","630119","0.65493643"
"104.274414","50.86562","630135","0.65591395"
"104.46445","51.15565","630152","0.64907134"
"104.624466","51.435684","630169","0.64907134"
"104.784485","51.72572","630185","0.64907134"
"104.954506","52.17577","630202","0.65004885"
"105.07452","52.515804","630219","0.65004885"
"105.33456","52.865845","630235","0.64418375"
"105.58459","53.235886","630252","0.6392962"
"105.6946","53.76594","630269","0.6392962"
"105.95465","54.45602","630285","0.63831866"
"106.10467","54.83606","630302","0.63831866"
"106.27469","55.2061","630319","0.63831866"
"106.46471","55.58614","630335","0.63734114"
"106.72475","56.246216","630352","0.6285435"
"106.86477","56.82628","630369","0.6353861"
"107.00479","57.306335","630385","0.6520039"
"107.134796","57.666374","630402","0.6520039"
"107.32483","58.026413","630419","0.6520039"
"107.68488","58.556473","630435","0.65102637"
"107.94492","58.976517","630452","0.65004885"
"108.18495","59.46657","630469","0.65004885"
"108.37497","59.90662","630485","0.65004885"
"108.545","60.25666","630502","0.65004885"
"108.71502","60.766716","630519","0.64907134"
"108.89505","61.09675","630535","0.64907134"
"109.05507","61.426792","630552","0.6480938"
"109.175095","61.85684","630569","0.65004885"
"109.41511","62.4169","630585","0.6520039"
"109.54514","62.756935","630602","0.6520039"
"109.65515","63.12698","630619","0.6520039"
"110.25523","64.61714","630669","0.65493643"
"110.41525","65.02719","630685","0.6539589"
"110.61529","65.41724","630702","0.6529814"
"110.7253","65.817276","630719","0.6529814"
"110.96534","66.457344","630735","0.6539589"
"111.11536","66.9474","630752","0.6539589"
"111.275375","67.42745","630769","0.64907134"
"111.46541","67.8775","630785","0.64907134"
"111.68543","68.32755","630802","0.6471163"
"112.035484","68.99763","630819","0.6461388"
"112.40554","69.40768","630835","0.64418375"
"112.78558","69.78771","630852","0.64320624"
"113.07563","70.13776","630869","0.6412512"
"113.34567","70.43778","630885","0.6402737"
"113.71572","70.87784","630902","0.6363636"
"113.93574","71.19787","630919","0.6392962"
"114.15577","71.507904","630935","0.6353861"
"114.38581","71.757935","630952","0.627566"
"114.71585","72.05796","630969","0.627566"
"114.93588","72.22798","630985","0.62561095"
"115.23592","72.368","631002","0.629521"
"115.585976","72.42801","631019","0.63831866"
"115.826004","72.48801","631035","0.6422287"
"115.956024","72.48801","631046","0.6412512"
"116.06604","72.48801","631069","0.6422287"
"116.16605","72.448006","631085","0.6412512"
"116.27608","72.31799","631100","0.6412512"
"116.27608","72.157974","631119","0.6422287"
"116.20606","71.80794","631135","0.64320624"
"116.03603","71.507904","631152","0.65004885"
"115.816","71.16787","631169","0.6529814"
"115.50596","70.82783","631185","0.6461388"
"114.86587","70.22776","631202","0.6344086"
"114.50582","69.77772","631219","0.63831866"
"114.11577","69.347664","631235","0.6412512"
"113.79573","68.907616","631252","0.64418375"
"113.5557","68.45757","631269","0.6451613"
"113.25566","67.72749","631285","0.64418375"
"113.035614","67.18742","631302","0.6451613"
"112.795586","66.65737","631319","0.6520039"
"112.52556","66.177315","631335","0.6539589"
"112.235504","65.727264","631352","0.65102637"
"111.96548","65.117195","631369","0.6529814"
"111.84545","64.79716","631385","0.6529814"
"111.81546","64.68716","631402","0.6529814"
"111.80546","64.55714","631419","0.65102637"
"111.895454","64.52713","631435","0.6461388"
"112.14549","64.52713","631452","0.64418375"
"112.43553","64.58714","631469","0.6422287"
"112.745575","64.70715","631485","0.6402737"
"113.00562","64.917175","631502","0.63831866"
"113.43568","65.30722","631519","0.6363636"
"113.73572","65.62725","631535","0.6334311"
"114.06576","65.96729","631552","0.629521"
"114.39581","66.36734","631569","0.6304985"
"114.87587","66.987404","631585","0.6236559"
"115.26593","67.397446","631602","0.63245356"
"115.62597","67.887505","631619","0.6422287"
"115.826004","68.43757","631635","0.6402737"
"116.03603","68.95763","631652","0.63831866"
"116.4361","69.54768","631669","0.6334311"
"116.73614","69.79772","631685","0.629521"
"117.016174","69.98773","631702","0.62658846"
"117.28622","70.14775","631719","0.6236559"
"117.556244","70.29777","631735","0.6236559"
"117.99631","70.51779","631752","0.61974585"
"118.326355","70.577805","631769","0.6158358"
"118.626396","70.63781","631785","0.61290324"
"118.90644","70.657814","631802","0.6109482"
"119.26648","70.647804","631819","0.60801566"
"119.3665","70.5978","631835","0.6060606"
"119.50652","70.447784","631852","0.6050831"
"119.61653","70.167755","631869","0.6050831"
"119.63653","69.917725","631885","0.6060606"
"119.536514","69.31766","631902","0.60703814"
"119.246475","68.657585","631919","0.6099707"
"118.79642","67.837494","631935","0.61290324"
"118.24634","67.0074","631952","0.6236559"
"117.226204","65.78728","631969","0.629521"
"116.626114","65.077194","631985","0.6353861"
"116.136055","64.44713","632002","0.6402737"
"115.73599","63.997074","632019","0.6451613"
"115.25592","63.667038","632035","0.63831866"
"114.73586","63.256992","632052","0.6304985"
"114.61584","62.93696","632069","0.6304985"
"114.54583","62.586918","632085","0.629521"
"114.51583","62.276886","632102","0.6285435"
"114.51583","61.956852","632119","0.63245356"
"114.67585","61.576805","632135","0.629521"
"114.98589","61.386787","632152","0.6217009"
"115.39594","61.316776","632169","0.62463343"
"115.75599","61.276775","632185","0.62463343"
"116.19605","61.286774","632202","0.61876833"
"116.51609","61.39679","632219","0.61485827"
"116.89616","61.61681","632235","0.61974585"
"117.2562","61.946846","632252","0.61974585"
"117.65625","62.296886","632269","0.6119257"
"118.22635","62.87695","632285","0.60801566"
"118.51638","63.296997","632302","0.6060606"
"118.76642","63.747047","632319","0.6050831"
"119.00645","64.2071","632335","0.6031281"
"119.23647","64.637146","632352","0.60117304"
"119.54652","65.197205","632369","0.599218"
"119.746544","65.49724","632385","0.597263"
"119.93657","65.767265","632402","0.59530795"
"120.1266","66.0273","632419","0.59237534"
"120.32663","66.547356","632435","0.6099707"
"120.606674","66.89739","632452","0.60801566"
"120.81669","67.20743","632469","0.6050831"
"121.11673","67.487465","632485","0.60215056"
"121.35677","67.72749","632502","0.6001955"
"121.81683","67.967514","632519","0.59628546"
"122.13689","68.07752","632535","0.59237534"
"122.42691","68.05752","632552","0.5884653"
"122.756966","67.887505","632569","0.5845552"
"123.027","67.66748","632585","0.58162266"
"123.26703","67.28744","632602","0.58162266"
"123.35704","66.9674","632619","0.58162266"
"123.377045","66.53735","632635","0.5845552"
"123.26703","66.0673","632652","0.58748776"
"122.926994","65.38723","632669","0.5894428"
"122.52693","64.81717","632685","0.5913978"
"121.996864","64.07708","632702","0.59530795"
"121.43678","63.246994","632719","0.60117304"
"120.8667","62.486908","632735","0.60117304"
"120.16661","61.586803","632752","0.597263"
"119.76655","61.08675","632769","0.597263"
"119.496506","60.686707","632785","0.59530795"
"119.31649","60.246662","632802","0.597263"
"119.18647","59.576584","632819","0.59628546"
"119.146454","59.22655","632835","0.59530795"
"119.13647","59.09653","632852","0.5913978"
"119.21648","58.976517","632869","0.58748776"
"119.45651","58.976517","632885","0.5845552"
"119.90657","59.16654","632902","0.5786901"
"120.21662","59.33656","632919","0.5786901"
"120.56666","59.566586","632935","0.5796676"
"120.95671","59.946625","632952","0.5796676"
"121.33677","60.406673","632969","0.58064514"
"121.92685","61.15676","632985","0.5767351"
"122.25689","61.716824","633002","0.57575756"
"122.67695","62.286884","633019","0.57478005"
"123.13702","62.816944","633035","0.572825"
"123.597084","63.647034","633052","0.5826002"
"123.90711","64.17709","633069","0.58651024"
"124.17717","64.65715","633085","0.5904203"
"124.5072","65.04719","633102","0.58748776"
"124.82725","65.39723","633119","0.5845552"
"125.31732","65.78728","633135","0.58162266"
"125.647354","65.91729","633152","0.5777126"
"125.9074","65.96729","633169","0.57380253"
"126.10743","65.96729","633185","0.57087"
"126.26745","65.92729","633202","0.56989247"
"126.37746","65.83728","633213","0.56989247"
"126.48748","65.70727","633235","0.56989247"
"126.50749","65.51724","633252","0.56891495"
"126.52749","65.1772","633269","0.56793743"
"126.41747","64.33711","633285","0.56891495"
"126.16744","63.627033","633302","0.57087"
"125.76738","62.906956","633319","0.57478005"
"125.27732","62.20688","633335","0.5884653"
"124.637215","61.556805","633352","0.5884653"
"123.797104","60.666706","633369","0.57380253"
"123.36704","60.156654","633385","0.56989247"
"122.796974","59.646595","633402","0.57380253"
"122.196884","59.07653","633419","0.5786901"
"121.5868","58.26644","633435","0.5855327"
"121.11673","57.796387","633452","0.58651024"
"120.55666","57.416348","633469","0.5884653"
"120.01658","57.03631","633485","0.6031281"
"119.18647","56.506245","633502","0.61388075"
"118.656395","56.22621","633519","0.6041056"
"118.15633","56.006187","633535","0.60117304"
"117.67627","55.806168","633552","0.60703814"
"117.216194","55.536137","633569","0.6109482"
"116.76613","55.25611","633585","0.6168133"
"116.14605","54.906067","633602","0.62561095"
"115.75599","54.656044","633619","0.6353861"
"115.29594","54.356007","633635","0.6392962"
"114.745865","53.955967","633652","0.6363636"
"114.12577","53.345894","633669","0.6363636"
"113.77572","52.975853","633685","0.6392962"
"113.39567","52.595814","633702","0.64320624"
"112.97561","52.20577","633719","0.6461388"
"112.535545","51.795723","633735","0.64907134"
"111.79544","51.195656","633752","0.6520039"
"111.325386","50.86562","633769","0.65591395"
"110.88532","50.555588","633785","0.6608016"
"110.49526","50.225548","633802","0.6656892"
"110.07522","49.83551","633819","0.6656892"
"109.44512","49.155434","633835","0.6676442"
"109.02506","48.69538","633852","0.6686217"
"108.565","48.14532","633869","0.67057675"
"108.084946","47.57526","633885","0.67155427"
"107.35483","46.975193","633902","0.6725318"
"106.91478","46.625153","633919","0.6744868"
"106.51472","46.095093","633935","0.6735093"
"106.17467","45.53503","633952","0.6735093"
"105.86464","45.044983","633969","0.6744868"
"105.33456","44.074875","633985","0.6783969"
"104.92451","43.394794","634002","0.6813294"
"104.63445","42.76473","634019","0.67741936"
"104.32442","42.214664","634035","0.6852395"
"103.90435","41.674606","634052","0.6979472"
"103.264275","40.7045","634069","0.6920821"
"102.91422","39.944416","634085","0.6911046"
"102.544174","39.094322","634102","0.6871945"
"102.10411","38.304234","634119","0.68328446"
"101.56403","37.26412","634135","0.6989247"
"101.22398","36.574043","634152","0.714565"
"100.94395","35.793957","634169","0.71358746"
"100.573906","34.953865","634185","0.7038123"
"100.15384","34.153774","634202","0.6959922"
"99.38374","32.94364","634219","0.70185727"
"98.81366","32.133553","634235","0.71260995"
"98.273575","31.403473","634252","0.70185727"
"97.783516","30.623384","634269","0.6920821"
"97.17343","29.40325","634285","0.6783969"
"96.81338","28.713175","634302","0.6676442"
"96.38332","28.053102","634319","0.6627566"
"95.923256","27.293016","634335","0.65689147"
"95.60321","26.522932","634352","0.6735093"
"95.21316","25.522821","634369","0.68817204"
"94.92311","24.842745","634385","0.6813294"
"94.64308","24.07266","634402","0.67546433"
"94.313034","23.402584","634419","0.67057675"
"94.01299","22.822523","634435","0.6735093"
"93.552925","21.742403","634452","0.6852395"
"93.24288","21.112333","634469","0.6813294"
"92.98285","20.502268","634485","0.6783969"
"92.68281","19.842194","634502","0.67741936"
"92.23275","18.892088","634519","0.67644185"
"92.002716","18.28202","634535","0.6676442"
"91.79268","17.63195","634552","0.65493643"
"91.53265","16.941872","634569","0.65493643"
"91.2226","16.241795","634585","0.65591395"
"90.74254","15.161675","634602","0.65591395"
"90.4625","14.451597","634619","0.6529814"
"90.22247","13.671511","634635","0.65004885"
"89.98243","12.921429","634652","0.65591395"
"89.69239","12.2113495","634669","0.6520039"
"89.23233","11.321251","634685","0.63734114"
"88.94229","10.841199","634702","0.6353861"
"88.65225","10.371146","634719","0.63245356"
"88.51224","10.101117","634735","0.6285435"
"88.18219","9.611062","634746","0.62463343"
"87.70212","9.201016","634767","0.6226784"
"87.23205","8.880981","634785","0.6334311"
"87.23205","8.880981","634802","0.64418375"
"86.73199","8.560946","634819","0.6392962"
"86.22192","8.330921","634831","0.63831866"
"85.67184","8.150901","634852","0.63147604"
"85.67184","8.150901","634869","0.61388075"
"85.12176","7.8908725","634885","0.6060606"
"84.52168","7.630843","634897","0.60703814"
"84.06162","7.470826","634919","0.6041056"
"83.521545","7.3108077","634935","0.60117304"
"82.921455","7.080783","634952","0.6041056"
"82.30138","6.8307548","634969","0.6099707"
"81.01119","6.6707373","634985","0.58162266"
"80.3811","6.6707373","635002","0.5767351"
"79.73102","6.580727","635019","0.57575756"
"79.01092","6.4407115","635035","0.57478005"
"78.26082","6.3507023","635052","0.5796676"
"77.59072","6.3306994","635069","0.59433043"
"77.020645","6.3507023","635085","0.58651024"
"76.54058","6.650735","635102","0.55718476"
"76.10052","7.0207763","635119","0.5483871"
"75.670456","7.3608136","635135","0.5542522"
"75.15038","7.760858","635152","0.5581623"
"74.63032","8.120897","635168","0.6001955"
"74.63032","8.120897","635185","0.6402737"
"74.13025","8.550945","635202","0.6422287"
"73.7902","9.601061","635218","0.61290324"
"73.720184","10.411151","635235","0.5826002"
"73.640175","11.331253","635252","0.5855327"
"73.640175","12.361367","635268","0.6050831"
"73.70018","13.461489","635285","0.6168133"
"73.7802","15.081668","635302","0.64418375"
"73.95022","16.121782","635318","0.6471163"
"74.20026","17.201902","635335","0.6480938"
"74.55031","18.152006","635352","0.6529814"
"75.10038","19.482153","635368","0.67057675"
"75.450424","20.312246","635385","0.68328446"
"75.77047","21.062328","635402","0.6852395"
"76.13052","21.81241","635418","0.68914956"
"76.85062","22.992542","635435","0.6989247"
"77.34069","23.732624","635452","0.68328446"
"77.85076","24.312689","635468","0.68328446"
"78.42084","24.892752","635485","0.70185727"
"79.05093","25.522821","635502","0.7047898"
"79.91104","26.552933","635518","0.69501466"
"80.351105","27.153002","635535","0.68328446"
"80.71116","27.663057","635552","0.67644185"
"81.08121","28.243122","635568","0.6735093"
"81.72129","29.123219","635585","0.6803519"
"82.081345","29.603273","635602","0.6813294"
"82.44139","29.993315","635618","0.68328446"
"82.81144","30.363356","635635","0.6871945"
"83.181496","30.793402","635652","0.68914956"
"83.551544","31.21345","635668","0.6920821"
"84.06162","31.813517","635685","0.6930596"
"84.40166","32.173557","635702","0.6676442"
"84.75171","32.513596","635718","0.65004885"
"85.09176","32.883633","635735","0.6608016"
"85.59183","33.373688","635752","0.6656892"
"86.001884","33.743732","635768","0.6656892"
"86.381935","34.12377","635785","0.6676442"
"86.62197","34.503815","635802","0.6725318"
"86.872","34.81385","635818","0.67546433"
"87.26206","35.38391","635835","0.67741936"
"87.5421","35.753952","635852","0.6793744"
"87.862144","36.053986","635868","0.68230695"
"88.26219","36.35402","635885","0.686217"
"88.9923","36.83407","635902","0.6930596"
"89.40236","37.064095","635918","0.6989247"
"89.762405","37.18411","635935","0.70087975"
"90.04244","37.344124","635952","0.70185727"
"90.272484","37.45414","635968","0.70674485"
"90.522514","37.794178","635985","0.6979472"
"90.602516","37.934193","636002","0.6920821"
"90.75254","38.124214","636018","0.6969697"
"90.91257","38.234226","636035","0.69990224"
"91.232605","38.34424","636052","0.69990224"
"91.67266","38.474255","636068","0.6959922"
"91.822685","38.584263","636085","0.70185727"
"91.952705","38.584263","636102","0.7086999"
"92.05272","38.584263","636118","0.714565"
"92.14273","38.584263","636135","0.72238517"
"92.25275","38.584263","636152","0.7233627"
"92.372765","38.584263","636168","0.7243402"
"92.51279","38.584263","636185","0.72727275"
"92.6628","38.584263","636202","0.72727275"
"93.06286","38.834293","636218","0.72825027"
"93.40291","38.8843","636235","0.71260995"
"93.982994","38.624268","636252","0.6109482"
"95.08314","37.914192","636268","0.18670577"
"95.52319","37.16411","636270","9.775171E-4"
"95.52319","37.16411","636278","9.775171E-4"
