"104.09438","51.855732","334312","0.08797654"
"104.09438","51.855732","334318","0.08797654"
"103.95436","51.705715","334352","0.08797654"
"104.03437","51.5057","334385","0.23949169"
"104.15439","51.465687","334418","0.29032257"
"104.394424","51.565697","334452","0.3030303"
"104.66447","51.755726","334468","0.31182796"
"104.88449","52.09576","334485","0.34408602"
"105.10453","52.38579","334502","0.36363637"
"105.34455","52.755833","334518","0.37341154"
"105.6346","53.245884","334535","0.37438905"
"105.94465","53.76594","334552","0.37243402"
"106.324684","54.54603","334568","0.37634408"
"106.554726","55.02608","334585","0.3841642"
"106.77476","55.42613","334602","0.3939394"
"106.97478","55.806168","334618","0.40175954"
"107.174805","56.316227","334635","0.42521995"
"107.45485","57.056305","334652","0.4516129"
"107.59487","57.636368","334668","0.44868034"
"107.69489","58.246437","334685","0.44379276"
"107.8249","58.776497","334702","0.4457478"
"107.96492","59.646595","334718","0.45356792"
"108.01493","60.246662","334735","0.4682307"
"108.04493","60.79672","334752","0.48289344"
"108.084946","61.32678","334768","0.48973608"
"108.194954","61.97685","334785","0.49462366"
"108.33498","62.93696","334802","0.4965787"
"108.48499","63.42701","334818","0.4975562"
"108.65502","63.89706","334835","0.5073314"
"108.87505","64.387115","334852","0.5200391"
"108.99506","64.88717","334868","0.52981424"
"109.2651","65.61725","334885","0.5464321"
"109.44512","66.0473","334902","0.5581623"
"109.71515","66.467354","334918","0.56891495"
"110.0652","66.9474","334935","0.57380253"
"110.485275","67.61748","334952","0.5718475"
"111.18536","68.86761","335002","0.5884653"
"111.435394","69.25765","335018","0.59335285"
"111.87546","69.717705","335035","0.5982405"
"112.22551","70.047745","335052","0.6001955"
"112.67557","70.37778","335068","0.5982405"
"113.06563","70.71781","335085","0.59628546"
"113.585686","71.15787","335102","0.59335285"
"113.91574","71.41789","335118","0.597263"
"114.175766","71.667915","335135","0.60215056"
"114.43582","71.93795","335152","0.5982405"
"114.76586","72.17798","335168","0.6001955"
"115.29594","72.41801","335185","0.6109482"
"115.585976","72.568016","335202","0.61485827"
"115.76599","72.688034","335218","0.61485827"
"115.90601","72.78805","335233","0.61388075"
"116.03603","72.86806","335252","0.61388075"
"116.14605","72.88806","335268","0.6109482"
"116.14605","72.88806","335285","0.6060606"
"116.14605","72.79805","335302","0.6031281"
"116.10604","72.51801","335318","0.6041056"
"115.826004","72.01796","335335","0.6109482"
"115.50596","71.5379","335352","0.6060606"
"115.18592","71.03785","335368","0.597263"
"114.87587","70.5278","335385","0.59335285"
"114.57583","69.997734","335402","0.5904203"
"114.20578","69.16765","335418","0.59433043"
"113.93574","68.587585","335435","0.59628546"
"113.675705","68.01752","335452","0.5982405"
"113.40567","67.49746","335468","0.60117304"
"113.11564","66.9774","335485","0.60215056"
"112.75559","66.297325","335502","0.60117304"
"112.54555","65.91729","335518","0.60215056"
"112.36553","65.487236","335535","0.60215056"
"112.255516","64.98718","335552","0.60215056"
"112.06549","64.33711","335568","0.60215056"
"112.035484","64.08708","335585","0.60117304"
"112.01549","63.997074","335602","0.6001955"
"112.01549","63.86706","335618","0.5982405"
"112.1355","63.747047","335635","0.59628546"
"112.27551","63.707043","335652","0.59237534"
"112.54555","63.697037","335668","0.5904203"
"112.76559","63.837055","335685","0.5904203"
"113.00562","64.097084","335702","0.5894428"
"113.41568","64.61714","335718","0.5855327"
"113.66571","64.97719","335735","0.5845552"
"114.12577","65.68726","335768","0.5796676"
"114.35581","66.03729","335785","0.5777126"
"114.80586","66.56736","335802","0.5855327"
"115.21592","66.9374","335818","0.59530795"
"115.53597","67.26743","335835","0.59433043"
"115.76599","67.567474","335852","0.5913978"
"115.98602","67.8275","335868","0.5894428"
"116.336075","68.207535","335885","0.58651024"
"116.5661","68.45757","335902","0.5835777"
"116.81614","68.69759","335918","0.58162266"
"117.09618","68.937614","335935","0.5796676"
"117.53625","69.21765","335952","0.57575756"
"117.84628","69.36767","335968","0.572825"
"118.15633","69.477684","335985","0.57087"
"118.41637","69.677704","336002","0.56793743"
"118.64639","69.78771","336018","0.5659824"
"118.946434","69.997734","336035","0.56304985"
"119.09646","70.07774","336052","0.56207234"
"119.23647","70.09775","336068","0.56207234"
"119.326485","70.11775","336085","0.56207234"
"119.41651","70.09775","336118","0.5659824"
"119.39649","69.89773","336135","0.56891495"
"119.25649","69.6377","336152","0.57087"
"119.036446","69.19765","336168","0.572825"
"118.56639","68.38756","336185","0.5777126"
"118.236336","67.887505","336202","0.58064514"
"117.8763","67.43746","336218","0.5855327"
"117.46623","66.997406","336235","0.59433043"
"117.086174","66.55736","336252","0.5982405"
"116.5661","65.87728","336268","0.59433043"
"116.24606","65.37723","336285","0.5982405"
"115.956024","64.837166","336302","0.60215056"
"115.68598","64.317116","336318","0.6041056"
"115.31593","63.617035","336335","0.60215056"
"115.13592","63.176987","336352","0.597263"
"115.035904","62.71693","336368","0.597263"
"114.97589","62.246883","336385","0.6001955"
"114.95588","61.846836","336402","0.5982405"
"114.95588","61.606808","336418","0.5835777"
"115.00589","61.45679","336435","0.58064514"
"115.27592","61.336777","336452","0.5826002"
"115.50596","61.32678","336468","0.5845552"
"115.66598","61.35678","336485","0.5835777"
"116.006035","61.72682","336502","0.5845552"
"116.296074","62.076866","336518","0.5904203"
"116.61611","62.466904","336535","0.5855327"
"116.936165","62.906956","336552","0.5767351"
"117.37623","63.52702","336568","0.57380253"
"117.63625","63.95707","336585","0.5718475"
"117.9163","64.347115","336602","0.56989247"
"118.20632","64.73716","336618","0.56793743"
"118.46638","65.1372","336635","0.5659824"
"118.86643","65.69726","336652","0.5610948"
"119.12646","66.00729","336668","0.5591398"
"119.376495","66.27732","336685","0.55718476"
"119.60653","66.547356","336702","0.5601173"
"119.87656","66.80739","336718","0.56402737"
"120.29663","67.09742","336735","0.56207234"
"120.55666","67.29744","336752","0.56402737"
"120.886696","67.46746","336768","0.5669599"
"121.28676","67.58747","336785","0.56304985"
"121.71682","67.72749","336802","0.55718476"
"122.06687","67.7775","336818","0.5552297"
"122.26689","67.7775","336835","0.5542522"
"122.38692","67.76749","336852","0.5532747"
"122.51693","67.65748","336868","0.5552297"
"122.536934","67.407455","336885","0.5591398"
"122.51693","67.08741","336902","0.5650049"
"122.3169","66.67737","336918","0.57087"
"122.05686","66.24732","336935","0.56793743"
"121.5668","65.657265","336952","0.56891495"
"121.16674","65.22721","336968","0.5718475"
"120.72668","64.67715","336985","0.56891495"
"120.31663","64.097084","337002","0.56304985"
"119.87656","63.587032","337018","0.56207234"
"119.22648","62.946957","337035","0.56793743"
"118.84641","62.526913","337052","0.5767351"
"118.47638","62.066864","337068","0.5845552"
"118.09631","61.566807","337085","0.57575756"
"117.86629","61.07675","337102","0.5669599"
"117.79627","60.506687","337118","0.56402737"
"117.816284","60.226658","337135","0.5610948"
"117.906296","60.126648","337152","0.5581623"
"118.01632","59.996628","337168","0.55718476"
"118.42637","59.946625","337185","0.5522972"
"118.75641","59.966625","337202","0.5464321"
"119.12646","60.126648","337218","0.540567"
"119.51652","60.36667","337235","0.5356794"
"119.90657","60.676704","337252","0.53079176"
"120.41664","61.266773","337268","0.53274685"
"120.78669","61.72682","337285","0.5347019"
"121.17675","62.23688","337302","0.540567"
"121.50679","62.706932","337318","0.5415445"
"121.77682","63.09697","337335","0.53861195"
"122.1869","63.677036","337352","0.5347019"
"122.42691","64.05708","337368","0.5317693"
"122.72695","64.41712","337385","0.52981424"
"122.96698","64.747154","337402","0.5356794"
"123.347046","65.1772","337418","0.53861195"
"123.637085","65.42723","337435","0.5356794"
"123.847115","65.607254","337452","0.53958946"
"124.047134","65.74726","337468","0.5434995"
"124.277176","65.807274","337485","0.5415445"
"124.58722","65.90728","337502","0.540567"
"124.72724","65.92729","337518","0.540567"
"124.82725","65.94729","337535","0.5415445"
"124.82725","65.94729","337552","0.542522"
"124.91727","65.91729","337568","0.5474096"
"124.91727","65.807274","337585","0.5483871"
"124.91727","65.63725","337602","0.5483871"
"124.91727","65.34722","337618","0.5474096"
"124.81726","64.917175","337635","0.55034214"
"124.517204","64.2271","337652","0.55620724"
"124.277176","63.81705","337668","0.5610948"
"124.00713","63.457016","337685","0.5659824"
"123.74709","63.06697","337702","0.56891495"
"123.587074","62.63693","337718","0.5718475"
"123.147026","61.96685","337735","0.5659824"
"122.74696","61.546806","337752","0.5522972"
"122.3069","61.116756","337768","0.5532747"
"121.91684","60.6467","337785","0.5581623"
"121.27676","59.90662","337802","0.56793743"
"120.91671","59.44657","337818","0.572825"
"120.50666","59.036526","337835","0.5777126"
"120.1066","58.606476","337852","0.58162266"
"119.746544","58.15643","337868","0.5826002"
"119.18647","57.53636","337885","0.59335285"
"118.786415","57.03631","337902","0.6041056"
"118.396355","56.586254","337918","0.60703814"
"118.026306","56.256218","337935","0.6041056"
"117.65625","55.886177","337952","0.6089932"
"117.07619","55.2061","337968","0.61388075"
"116.68613","54.776054","337985","0.6236559"
"116.30607","54.386013","338002","0.6334311"
"115.90601","53.985966","338018","0.6412512"
"115.36594","53.425903","338035","0.64907134"
"114.45582","52.4658","338068","0.64320624"
"114.11577","52.09576","338085","0.65102637"
"113.75572","51.74572","338102","0.65689147"
"113.17564","51.185658","338118","0.6617791"
"112.73557","50.795616","338135","0.66471165"
"112.285515","50.345562","338152","0.6686217"
"111.825455","49.825504","338168","0.6725318"
"111.16537","49.13543","338185","0.6783969"
"110.7453","48.655376","338201","0.68328446"
"110.36526","48.005306","338218","0.6871945"
"109.92519","47.445244","338235","0.68230695"
"109.455124","47.005196","338251","0.6813294"
"108.835045","46.195107","338268","0.68914956"
"108.44499","45.505028","338285","0.68914956"
"108.064926","44.934967","338301","0.6911046"
"107.65488","44.47492","338318","0.6930596"
"107.33483","43.99486","338335","0.6959922"
"106.93478","43.4448","338351","0.69990224"
"106.69475","43.07476","338368","0.6969697"
"106.46471","42.674717","338385","0.7038123"
"106.20468","42.184666","338401","0.71260995"
"105.77461","41.514587","338418","0.71358746"
"105.47458","41.024536","338435","0.714565"
"105.22453","40.55448","338451","0.71847504"
"104.984505","40.08443","338468","0.7233627"
"104.46445","39.314346","338485","0.72140765"
"104.064384","38.834293","338501","0.72140765"
"103.674324","38.34424","338518","0.72238517"
"103.224266","37.82418","338535","0.73411536"
"102.7442","37.254116","338551","0.74486804"
"102.34414","36.64405","338568","0.74486804"
"101.75406","35.703945","338585","0.74486804"
"101.41402","35.163887","338601","0.7419355"
"101.15398","34.633827","338618","0.742913"
"100.89394","34.11377","338635","0.7438905"
"100.36387","33.273678","338651","0.73216033"
"99.9138","32.623608","338668","0.7478006"
"99.38374","32.04354","338685","0.77028346"
"98.77364","31.39347","338701","0.76344085"
"98.17356","30.753397","338718","0.75855327"
"97.38345","29.723286","338735","0.74486804"
"96.92339","29.083214","338751","0.73998046"
"96.37332","28.523153","338768","0.7380254"
"95.833244","27.973093","338785","0.7370479"
"95.19316","27.102997","338801","0.76246333"
"94.92311","26.562935","338818","0.7722385"
"94.62308","26.042877","338835","0.7683284"
"94.37305","25.50282","338851","0.7653959"
"94.16301","25.072771","338868","0.76246333"
"93.822975","24.302687","338885","0.75659823"
"93.59293","23.772629","338901","0.7536657"
"93.47292","23.352581","338918","0.75757575"
"93.40291","22.842524","338935","0.7663734"
"93.18287","22.222456","338951","0.76930594"
"92.88284","21.222345","338968","0.77028346"
"92.69281","20.612278","338985","0.7683284"
"92.44277","19.952208","339001","0.7673509"
"92.17274","19.382143","339018","0.7653959"
"91.822685","18.562052","339035","0.7478006"
"91.572655","17.961987","339051","0.7419355"
"91.34262","17.241905","339068","0.73998046"
"91.062584","16.491823","339085","0.73998046"
"90.74254","15.831751","339101","0.73998046"
"90.33248","15.111671","339118","0.7370479"
"90.06245","14.601614","339135","0.7370479"
"89.7724","14.101559","339151","0.7360704"
"89.41235","13.6615095","339168","0.742913"
"88.97229","13.181458","339185","0.7311828"
"88.19219","12.361367","339201","0.7106549"
"87.74213","11.85131","339218","0.7086999"
"87.38207","11.391259","339235","0.70772237"
"87.012024","11.001216","339251","0.70576733"
"86.381935","10.361145","339268","0.6979472"
"85.921875","9.931098","339285","0.6871945"
"85.48181","9.491049","339301","0.6813294"
"85.071754","9.1010065","339318","0.6783969"
"84.6317","8.770969","339335","0.67546433"
"84.15163","8.480937","339351","0.7086999"
"83.62155","8.2409115","339368","0.70772237"
"83.16149","8.040889","339385","0.6959922"
"82.76143","7.8208647","339401","0.68328446"
"82.19135","7.410819","339418","0.67741936"
"81.7713","7.1507907","339435","0.65884656"
"81.35124","6.9907727","339451","0.63734114"
"80.79117","6.8407564","339468","0.6363636"
"80.79117","6.8407564","339485","0.6344086"
"80.39111","6.6607366","339497","0.63245356"
"79.92104","6.4407115","339518","0.6217009"
"79.92104","6.4407115","339535","0.6285435"
"79.51098","6.360703","339551","0.6353861"
"79.080925","6.2706933","339568","0.6334311"
"78.60086","6.250691","339585","0.62072337"
"78.60086","6.2406898","339601","0.61974585"
"78.14079","6.2006855","339618","0.6168133"
"78.14079","6.2006855","339635","0.60703814"
"77.64073","6.0806723","339651","0.6050831"
"77.08065","5.9906626","339668","0.6041056"
"76.65059","6.040668","339685","0.6060606"
"76.20053","6.1506796","339701","0.5777126"
"75.71046","6.170682","339718","0.55131966"
"74.71033","6.3807054","339735","0.5522972"
"74.71033","6.3807054","339751","0.56891495"
"74.16025","6.580727","339768","0.56793743"
"74.16025","6.580727","339785","0.55034214"
"73.850204","7.0607805","339798","0.5474096"
"73.850204","7.4808264","339817","0.5464321"
"73.850204","7.4808264","339835","0.5483871"
"74.05023","7.96088","339851","0.5894428"
"74.360275","8.390927","339866","0.6285435"
"74.700325","8.970991","339885","0.59433043"
"74.91035","9.521052","339901","0.5591398"
"75.03037","10.151122","339918","0.5601173"
"75.160385","10.751188","339935","0.5610948"
"75.36041","11.351254","339951","0.56304985"
"75.66045","12.281357","339968","0.5659824"
"75.89049","12.901426","339985","0.56402737"
"76.140526","13.451487","340001","0.5884653"
"76.420555","13.981545","340018","0.62561095"
"76.88062","14.84164","340035","0.63831866"
"77.18067","15.431705","340051","0.6392962"
"77.48071","15.9717655","340068","0.6392962"
"77.80075","16.56183","340085","0.6412512"
"78.1608","17.141895","340101","0.6412512"
"78.81089","18.081999","340118","0.6422287"
"79.28096","18.702066","340135","0.63734114"
"79.761024","19.46215","340151","0.6539589"
"80.21108","20.18223","340168","0.67644185"
"80.64114","20.742292","340185","0.67741936"
"81.35124","21.662395","340201","0.6803519"
"81.821304","22.422478","340218","0.68230695"
"82.281364","23.26257","340235","0.6852395"
"82.81144","23.97265","340251","0.6735093"
"83.74158","25.15278","340268","0.6852395"
"84.34165","25.732843","340285","0.68817204"
"84.87173","26.272902","340301","0.6911046"
"85.36179","27.012985","340318","0.6930596"
"85.98188","27.653057","340335","0.67546433"
"86.88201","28.78318","340351","0.6627566"
"88.04217","30.343353","340385","0.6744868"
"88.68226","31.023426","340401","0.6813294"
"89.32234","31.603495","340418","0.68817204"
"90.24248","32.5736","340435","0.6783969"
"90.89257","33.28368","340451","0.6656892"
"91.572655","33.83374","340468","0.66959924"
"92.22274","34.353798","340485","0.6725318"
"93.10287","35.153885","340501","0.686217"
"93.78295","35.80396","340518","0.6920821"
"94.43305","36.38402","340535","0.6979472"
"95.02313","36.92408","340551","0.70576733"
"95.58321","37.44414","340568","0.7106549"
"96.48333","38.37424","340585","0.7174975"
"97.10342","38.9243","340601","0.6852395"
"97.6235","39.45436","340618","0.68914956"
"98.15356","40.00442","340635","0.6911046"
"98.97368","40.87452","340651","0.69403714"
"99.52376","41.484585","340668","0.6959922"
"100.03382","42.094654","340685","0.69501466"
"100.36387","42.70472","340701","0.70185727"
"100.75393","43.294785","340718","0.69403714"
"101.47402","44.19488","340735","0.6783969"
"101.92408","44.854958","340751","0.6793744"
"102.35414","45.465027","340768","0.6803519"
"102.82421","46.145103","340785","0.6813294"
"103.27428","46.905186","340801","0.6813294"
"103.88435","47.9653","340818","0.68817204"
"104.28442","48.835396","340835","0.68328446"
"104.614456","49.705494","340851","0.68328446"
"104.954506","50.455578","340868","0.6852395"
"105.524574","51.535698","340885","0.6725318"
"105.82462","52.245773","340901","0.6744868"
"106.11467","52.945854","340918","0.67644185"
"106.39471","53.745945","340935","0.67741936"
"106.65474","54.47602","340951","0.6783969"
"106.98479","55.226105","340968","0.67741936"
"107.18481","55.596146","340985","0.67741936"
"107.35483","55.90618","341001","0.66959924"
"107.60487","56.35623","341018","0.5522972"
"107.70488","56.486244","341035","0.08308896"
"107.67487","56.65626","341039","9.775171E-4"
"107.26482","56.486244","341088","9.775171E-4"
"107.26482","56.486244","341089","9.775171E-4"
