"100.5939","45.345013","1236558","0.0684262"
"100.5939","45.345013","1236569","0.102639295"
"100.5939","45.345013","1236602","0.21896383"
"100.5939","45.345013","1236635","0.3088954"
"100.96395","45.735058","1236685","0.36754644"
"101.14398","46.095093","1236702","0.38611925"
"101.294","46.35512","1236719","0.40469208"
"101.41402","46.50514","1236735","0.43010753"
"101.60404","46.875183","1236752","0.45454547"
"101.90408","47.38524","1236769","0.46432063"
"102.15412","47.705273","1236785","0.45943305"
"102.43415","48.075314","1236802","0.4623656"
"102.69419","48.355343","1236819","0.4682307"
"102.884224","48.555367","1236835","0.47702834"
"102.98423","48.725384","1236852","0.48778105"
"103.01423","48.845398","1236869","0.50048876"
"103.04424","48.94541","1236885","0.50537634"
"103.04424","48.94541","1236902","0.5092864"
"103.04424","48.94541","1236919","0.516129"
"103.01423","48.905407","1236935","0.5288367"
"102.82421","48.75539","1236952","0.53372437"
"102.58418","48.615376","1236969","0.540567"
"102.28414","48.41535","1236985","0.5474096"
"101.95409","48.30534","1237002","0.55131966"
"101.49402","48.175323","1237019","0.5542522"
"101.19399","48.11532","1237035","0.55620724"
"100.87395","47.985302","1237052","0.5601173"
"99.083694","47.865288","1237134","0.5835777"
"98.923676","47.865288","1237152","0.5826002"
"98.78365","47.84529","1237169","0.58162266"
"98.63363","47.825287","1237185","0.58162266"
"98.333595","47.755276","1237202","0.58064514"
"98.05355","47.68527","1237219","0.5796676"
"97.783516","47.66527","1237235","0.5786901"
"97.38345","47.66527","1237252","0.57575756"
"97.17343","47.68527","1237269","0.57478005"
"96.963394","47.66527","1237285","0.572825"
"96.76337","47.61526","1237302","0.5718475"
"96.47333","47.555256","1237319","0.56989247"
"96.31331","47.51525","1237335","0.56891495"
"96.163284","47.475246","1237352","0.56891495"
"96.01327","47.445244","1237369","0.56793743"
"95.86324","47.425243","1237385","0.5659824"
"95.753235","47.425243","1237402","0.5718475"
"95.63321","47.455246","1237419","0.57087"
"95.63321","47.455246","1237435","0.5718475"
"95.63321","47.455246","1237452","0.5718475"
"95.63321","47.455246","1237458","0.57087"
"95.63321","47.455246","1237485","0.56989247"
"95.63321","47.455246","1237502","0.56891495"
"95.63321","47.455246","1237519","0.56793743"
"95.63321","47.60526","1237535","0.5659824"
"95.98326","47.84529","1237552","0.5591398"
"96.263306","48.095318","1237569","0.5610948"
"96.513336","48.215332","1237585","0.56304985"
"96.72337","48.335346","1237602","0.5659824"
"96.81338","48.38535","1237619","0.56793743"
"97.17343","48.625378","1237635","0.56891495"
"97.37345","48.685383","1237652","0.56891495"
"97.61349","48.825394","1237669","0.56989247"
"97.89353","49.005413","1237685","0.5718475"
"98.35359","49.22544","1237702","0.57478005"
"98.65363","49.365456","1237719","0.5767351"
"98.94367","49.46547","1237735","0.5786901"
"99.22372","49.57548","1237752","0.58064514"
"99.503746","49.755497","1237769","0.58162266"
"99.98381","49.905518","1237785","0.5767351"
"100.28385","50.045532","1237802","0.57575756"
"100.53389","50.135544","1237819","0.57478005"
"100.733925","50.245556","1237835","0.5767351"
"100.92394","50.29556","1237852","0.5777126"
"101.22398","50.37557","1237869","0.5786901"
"101.43401","50.415577","1237885","0.5796676"
"101.64405","50.415577","1237902","0.58162266"
"101.83408","50.455578","1237919","0.5826002"
"102.13411","50.49558","1237935","0.5835777"
"102.34414","50.51558","1237952","0.5845552"
"102.56417","50.51558","1237969","0.5845552"
"102.7842","50.535587","1237985","0.5855327"
"102.884224","50.555588","1238002","0.58651024"
"103.23426","50.685604","1238019","0.6031281"
"103.40428","50.715607","1238035","0.61876833"
"103.594315","50.815617","1238052","0.61876833"
"103.774345","50.955635","1238069","0.60215056"
"103.94436","51.115654","1238085","0.5855327"
"104.234406","51.28567","1238102","0.5855327"
"104.43443","51.475685","1238119","0.5855327"
"104.624466","51.63571","1238135","0.58651024"
"104.80449","51.815727","1238152","0.58748776"
"105.09451","52.11576","1238169","0.5855327"
"105.35457","52.325783","1238185","0.58064514"
"105.56459","52.585815","1238202","0.5786901"
"105.734604","52.875847","1238219","0.5786901"
"105.89464","53.185883","1238235","0.5786901"
"106.084656","53.72594","1238252","0.5796676"
"106.18468","54.155983","1238269","0.5796676"
"106.65474","55.55614","1238335","0.58064514"
"106.76475","55.816174","1238352","0.58064514"
"106.884766","56.0662","1238369","0.58064514"
"106.93478","56.566246","1238385","0.58748776"
"107.0948","57.19632","1238402","0.59433043"
"107.19481","57.446346","1238419","0.59530795"
"107.24482","57.69638","1238435","0.59530795"
"107.38484","57.956406","1238452","0.59433043"
"107.53486","58.226437","1238469","0.59433043"
"107.76489","58.626476","1238485","0.59530795"
"107.87491","58.876503","1238502","0.59530795"
"107.92491","59.16654","1238519","0.59628546"
"108.034935","59.516575","1238535","0.59628546"
"108.16495","60.006638","1238552","0.59530795"
"108.26496","60.296665","1238569","0.59530795"
"108.31496","60.5767","1238585","0.59530795"
"108.42498","60.846725","1238602","0.59530795"
"108.48499","61.13676","1238619","0.59433043"
"108.615","61.61681","1238635","0.6031281"
"108.67502","62.016853","1238652","0.6050831"
"108.77503","62.356895","1238669","0.6001955"
"108.885056","62.666927","1238685","0.6001955"
"108.99506","62.98696","1238702","0.6001955"
"109.18508","63.547024","1238719","0.599218"
"109.3051","63.97707","1238735","0.5982405"
"109.46512","64.48713","1238752","0.597263"
"109.70516","65.04719","1238769","0.597263"
"110.12521","65.847275","1238785","0.599218"
"110.395256","66.39734","1238802","0.599218"
"110.58528","66.907394","1238819","0.5982405"
"110.78532","67.36745","1238835","0.597263"
"110.99533","67.8775","1238852","0.59628546"
"111.445404","68.6776","1238869","0.59237534"
"111.88547","69.16765","1238885","0.5884653"
"112.37553","69.56769","1238902","0.5845552"
"112.90561","69.88772","1238919","0.58162266"
"113.64571","70.29777","1238935","0.57575756"
"114.05576","70.5278","1238952","0.5718475"
"114.42581","70.777824","1238969","0.56793743"
"114.76586","71.027855","1238985","0.5650049"
"115.155914","71.29788","1239002","0.57087"
"115.69599","71.5379","1239019","0.5796676"
"115.85601","71.56791","1239035","0.58162266"
"116.006035","71.56791","1239052","0.5767351"
"116.136055","71.387886","1239069","0.57478005"
"116.15605","70.977844","1239085","0.56793743"
"116.09605","70.617805","1239102","0.56402737"
"115.91601","70.167755","1239119","0.5659824"
"115.61598","69.58769","1239135","0.56207234"
"115.20592","68.88761","1239152","0.5591398"
"114.3358","67.67748","1239169","0.5552297"
"113.71572","66.877396","1239185","0.56207234"
"113.045616","66.1173","1239202","0.56793743"
"112.335526","65.477234","1239219","0.5718475"
"111.81546","64.94718","1239235","0.57478005"
"111.485405","64.35711","1239252","0.572825"
"111.45541","64.02708","1239269","0.56793743"
"111.4754","63.767048","1239285","0.5601173"
"111.68543","63.567024","1239302","0.5522972"
"112.04549","63.457016","1239319","0.5434995"
"112.8656","63.567024","1239335","0.53079176"
"113.44568","63.847054","1239352","0.52492666"
"113.945755","64.29711","1239369","0.5200391"
"114.35581","64.877174","1239385","0.516129"
"115.035904","65.85728","1239402","0.514174"
"115.63599","66.63737","1239419","0.51808405"
"116.15605","67.407455","1239435","0.51808405"
"116.60611","68.087524","1239452","0.51319647"
"117.37623","69.08764","1239469","0.5014663"
"117.906296","69.687706","1239485","0.49560118"
"118.43636","70.13776","1239502","0.48875856"
"118.93644","70.43778","1239519","0.48191592"
"119.31649","70.54779","1239535","0.47702834"
"119.65654","70.567795","1239552","0.47214076"
"119.79655","70.537796","1239569","0.47116324"
"119.79655","70.5278","1239585","0.4750733"
"119.89657","70.38778","1239602","0.47898337"
"119.89657","70.17776","1239619","0.47311828"
"119.80656","69.41767","1239635","0.45454547"
"119.45651","68.54758","1239652","0.45356792"
"119.036446","67.607475","1239669","0.45552298"
"118.496376","66.787384","1239685","0.4633431"
"117.83629","66.0673","1239702","0.47018573"
"116.646126","64.89717","1239719","0.4740958"
"115.816","63.98707","1239735","0.47800586"
"115.14591","63.14698","1239752","0.48289344"
"114.695854","62.606915","1239769","0.48289344"
"114.42581","62.12687","1239785","0.47898337"
"114.40581","61.98685","1239802","0.47605082"
"114.59584","61.776825","1239819","0.47018573"
"114.87587","61.62681","1239835","0.46529815"
"115.16591","61.506794","1239852","0.45454547"
"115.88602","61.496796","1239869","0.44770283"
"116.30607","61.67682","1239885","0.43890518"
"116.726135","61.926846","1239902","0.43206257"
"117.1262","62.25688","1239919","0.4222874"
"117.526245","62.626923","1239935","0.41348973"
"118.09631","63.316998","1239952","0.40762463"
"118.45637","63.86706","1239969","0.40469208"
"118.786415","64.44713","1239985","0.40273705"
"119.05646","65.01718","1240002","0.40078202"
"119.45651","65.74726","1240019","0.39687195"
"119.73655","66.227325","1240035","0.39784947"
"120.036575","66.71737","1240052","0.40371457"
"120.336624","67.13741","1240069","0.40078202"
"120.67667","67.43746","1240085","0.3929619"
"121.02672","67.73749","1240102","0.39198437"
"121.20675","67.887505","1240119","0.39198437"
"121.53679","67.99752","1240135","0.3841642"
"121.88684","68.01752","1240152","0.3773216"
"122.34692","67.99752","1240169","0.36754644"
"122.43693","67.8275","1240185","0.3646139"
"122.43693","67.57747","1240202","0.36363637"
"122.40691","67.18742","1240219","0.36656892"
"122.27689","66.757385","1240235","0.37341154"
"121.70681","66.14731","1240252","0.38123167"
"121.32676","65.727264","1240269","0.3841642"
"120.90671","65.277214","1240285","0.38514173"
"120.39664","64.75716","1240302","0.3890518"
"119.886566","64.2071","1240319","0.3929619"
"119.196465","63.537025","1240335","0.398827"
"118.80642","63.176987","1240352","0.40469208"
"118.43636","62.836945","1240369","0.40860215"
"118.12633","62.4569","1240385","0.4173998"
"117.62626","61.786827","1240402","0.42424244"
"117.42622","61.316776","1240419","0.4183773"
"117.32622","60.89673","1240435","0.40664712"
"117.266205","60.5767","1240452","0.39687195"
"117.2462","60.446686","1240469","0.39198437"
"117.216194","60.176655","1240485","0.3890518"
"117.20619","60.086643","1240502","0.3900293"
"117.186195","59.966625","1240519","0.3900293"
"117.16618","59.836613","1240535","0.3890518"
"117.16618","59.836613","1240552","0.3841642"
"117.396225","59.84661","1240569","0.3714565"
"117.76628","60.126648","1240585","0.3597263"
"118.33636","60.476685","1240602","0.34701857"
"118.986435","60.80672","1240619","0.33431086"
"119.93657","61.29678","1240635","0.32746822"
"120.54666","61.62681","1240652","0.32942328"
"121.12674","61.91684","1240669","0.32453567"
"121.5768","62.26688","1240685","0.3196481"
"122.036865","62.656925","1240702","0.31671554"
"122.546936","63.327003","1240719","0.342131"
"122.756966","63.747047","1240735","0.36070383"
"123.08701","64.08708","1240752","0.3655914"
"123.36704","64.36712","1240769","0.3655914"
"123.76709","64.75716","1240785","0.36363637"
"124.00713","65.01718","1240802","0.3655914"
"124.24718","65.23721","1240819","0.36656892"
"124.5072","65.40723","1240835","0.36265886"
"124.76725","65.53725","1240852","0.35874876"
"125.157295","65.607254","1240869","0.35386118"
"125.39732","65.62725","1240885","0.35092863"
"125.50735","65.62725","1240902","0.3479961"
"125.70737","65.62725","1240919","0.34506354"
"125.97741","65.567245","1240935","0.3431085"
"126.16744","65.32722","1240952","0.342131"
"126.18744","65.1372","1240969","0.34604105"
"126.18744","64.94718","1240985","0.35386118"
"126.14743","64.78716","1241002","0.36168134"
"125.947395","64.467125","1241019","0.37341154"
"125.747375","64.12708","1241035","0.37927663"
"125.39732","63.637035","1241052","0.3841642"
"124.91727","63.026966","1241069","0.3900293"
"124.4172","62.386894","1241085","0.40371457"
"123.74709","61.556805","1241102","0.40957966"
"123.127014","61.14676","1241118","0.4115347"
"122.62694","60.776714","1241135","0.40762463"
"122.14688","60.43668","1241152","0.4115347"
"120.78669","59.49658","1241185","0.4281525"
"120.41664","59.146534","1241202","0.43010753"
"120.096596","58.836506","1241218","0.43108505"
"119.80656","58.576473","1241235","0.43206257"
"119.376495","58.246437","1241252","0.43890518"
"119.09646","57.99641","1241268","0.44281524"
"118.79642","57.69638","1241285","0.4457478"
"118.45637","57.26633","1241302","0.45943305"
"118.106316","56.82628","1241318","0.4740958"
"117.62626","56.346226","1241335","0.47605082"
"117.28622","56.0862","1241352","0.46529815"
"116.976166","55.886177","1241368","0.46041057"
"116.676125","55.676155","1241385","0.46529815"
"116.23606","55.34612","1241402","0.4740958"
"115.91601","55.116093","1241418","0.4799609"
"115.545975","54.866066","1241435","0.48191592"
"115.22592","54.636036","1241452","0.48289344"
"114.995895","54.436016","1241468","0.48778105"
"114.61584","54.125984","1241485","0.48875856"
"114.3258","53.915962","1241502","0.48680353"
"114.08577","53.695934","1241518","0.4907136"
"113.86574","53.45591","1241535","0.49364614"
"113.675705","53.265884","1241552","0.49560118"
"113.50569","53.095867","1241568","0.4975562"
"113.36567","52.955853","1241585","0.49951124"
"113.23565","52.815834","1241602","0.50048876"
"113.11564","52.68582","1241618","0.5014663"
"112.93561","52.4658","1241635","0.5034213"
"112.8456","52.365788","1241652","0.5034213"
"112.76559","52.275776","1241668","0.5043988"
"112.68558","52.18577","1241685","0.50537634"
"112.59556","52.075756","1241702","0.50537634"
"112.575554","51.975746","1241718","0.50537634"
"112.535545","51.86573","1241735","0.50537634"
"112.495544","51.775726","1241752","0.50635386"
"112.47555","51.775726","1241768","0.5073314"
"112.36553","51.655712","1241785","0.5083089"
"112.27551","51.535698","1241802","0.5102639"
"112.15551","51.425682","1241818","0.51124144"
"112.15551","51.425682","1241835","0.51221895"
"112.06549","51.335674","1241852","0.51221895"
"112.01549","51.205654","1241868","0.5259042"
"111.97548","50.955635","1241885","0.540567"
"111.96548","50.84562","1241902","0.53763443"
"111.96548","50.84562","1241918","0.53274685"
"112.1055","50.735607","1241935","0.5268817"
"112.52556","50.56559","1241952","0.49951124"
"112.825584","50.435574","1241968","0.48680353"
"113.17564","50.29556","1241985","0.48289344"
"113.53568","50.165546","1242002","0.47898337"
"114.08577","49.915516","1242018","0.47018573"
"114.53583","49.7955","1242035","0.47018573"
"115.02589","49.7755","1242052","0.47311828"
"115.46595","49.655487","1242068","0.47116324"
"115.876015","49.375454","1242085","0.4682307"
"116.46609","49.075424","1242102","0.46432063"
"116.806145","48.93541","1242118","0.4623656"
"117.09618","48.8654","1242135","0.46138808"
"117.28622","48.795395","1242152","0.4633431"
"117.28622","48.77539","1242168","0.4692082"
"117.37623","48.77539","1242185","0.48778105"
"117.086174","48.975414","1242202","0.4975562"
"116.756134","49.095425","1242218","0.5043988"
"116.386086","49.205437","1242235","0.5092864"
"115.745995","49.495472","1242252","0.514174"
"115.25592","49.615486","1242268","0.5151515"
"114.695854","49.695496","1242285","0.51124144"
"114.16578","49.845512","1242302","0.51124144"
"113.47568","50.265556","1242318","0.51710653"
"113.07563","50.48558","1242335","0.51906157"
"112.77559","50.665604","1242352","0.53372437"
"112.56556","50.715607","1242368","0.5483871"
"112.43553","50.74561","1242385","0.5474096"
"112.34551","50.84562","1242402","0.54447705"
"112.34551","50.84562","1242418","0.5415445"
"112.26552","50.93563","1242435","0.540567"
"112.18549","51.035637","1242452","0.540567"
"112.18549","51.035637","1242468","0.52492666"
"112.15551","51.125652","1242485","0.5083089"
"112.15551","51.125652","1242502","0.5073314"
"112.15551","51.125652","1242518","0.50537634"
"112.15551","51.125652","1242535","0.5043988"
"112.15551","51.125652","1242552","0.5034213"
"112.18549","51.215664","1242568","0.40078202"
"112.075485","50.915623","1242585","0.024437927"
"112.075485","50.915623","1242590","9.775171E-4"
"112.075485","50.915623","1242597","9.775171E-4"
"112.025475","51.175655","1243063","0.10068426"
"112.025475","51.175655","1243068","0.10068426"
"111.895454","51.255665","1243085","0.13489737"
"111.79544","51.275665","1243102","0.17302053"
"111.70544","51.275665","1243118","0.21212122"
"111.58543","51.275665","1243135","0.27077225"
"111.4154","51.29567","1243152","0.3313783"
"111.235374","51.425682","1243168","0.3714565"
"110.88532","51.625706","1243185","0.40957966"
"110.71531","51.625706","1243202","0.43304008"
"110.54527","51.625706","1243218","0.4516129"
"110.33524","51.575703","1243235","0.45845553"
"109.9952","51.29567","1243252","0.46432063"
"109.71515","51.115654","1243268","0.48680353"
"109.44512","50.915623","1243285","0.51221895"
"109.225105","50.715607","1243302","0.5219941"
"108.90505","50.435574","1243318","0.53079176"
"108.67502","50.245556","1243335","0.5288367"
"108.42498","50.05553","1243352","0.52981424"
"108.18495","49.855515","1243368","0.5356794"
"107.98493","49.64549","1243385","0.5366569"
"107.8249","49.44547","1243402","0.53861195"
"107.65488","49.335453","1243412","0.53861195"
"107.45485","49.095425","1243435","0.53958946"
"107.26482","48.94541","1243451","0.540567"
"107.134796","48.77539","1243468","0.53958946"
"107.03479","48.40535","1243485","0.53958946"
"106.964775","48.16532","1243502","0.540567"
"106.85477","47.955303","1243518","0.540567"
"106.79476","47.745277","1243535","0.5415445"
"106.69475","47.525253","1243552","0.542522"
"106.57473","47.205215","1243568","0.5415445"
"106.53471","47.10521","1243585","0.55131966"
"106.49472","46.995197","1243602","0.5610948"
"106.3847","46.915184","1243618","0.5522972"
"106.344696","46.82518","1243635","0.54447705"
"106.28468","46.545147","1243652","0.5434995"
"106.214676","46.345123","1243668","0.5434995"
"106.17467","46.24511","1243685","0.54447705"
"106.09466","46.08509","1243702","0.54545456"
"106.034645","45.78506","1243718","0.54545456"
"105.94465","45.60504","1243735","0.54545456"
"105.90464","45.415016","1243752","0.54545456"
"105.86464","45.30501","1243768","0.54545456"
"105.784615","45.174995","1243785","0.5464321"
"105.6946","44.954967","1243802","0.5483871"
"105.5946","44.844955","1243818","0.5483871"
"105.454575","44.67494","1243835","0.5493646"
"105.33456","44.48492","1243852","0.55131966"
"105.29454","44.17488","1243868","0.5493646"
"105.25455","43.95486","1243885","0.5483871"
"105.21455","43.844845","1243902","0.5483871"
"105.164536","43.66483","1243918","0.55034214"
"105.05453","43.524815","1243935","0.5532747"
"104.934494","43.274784","1243952","0.5552297"
"104.89449","43.124763","1243968","0.5552297"
"104.84448","42.954746","1243985","0.5552297"
"104.824486","42.76473","1244002","0.56304985"
"104.824486","42.674717","1244018","0.56989247"
"104.76449","42.42469","1244035","0.57087"
"104.76449","42.274673","1244052","0.57087"
"104.654465","42.174664","1244068","0.5718475"
"104.614456","42.07465","1244085","0.5718475"
"104.53445","41.88463","1244102","0.57478005"
"104.444435","41.78462","1244118","0.57575756"
"104.40443","41.68461","1244135","0.5767351"
"104.364426","41.564594","1244152","0.5777126"
"104.314415","41.464584","1244168","0.5767351"
"104.264404","41.36457","1244185","0.57575756"
"104.2244","41.26456","1244202","0.5767351"
"104.144394","41.16455","1244218","0.5767351"
"104.104385","41.034534","1244235","0.5767351"
"104.01437","40.904522","1244252","0.5777126"
"103.83434","40.63449","1244268","0.5777126"
"103.724335","40.494476","1244285","0.5777126"
"103.60431","40.374462","1244302","0.5786901"
"103.48431","40.254448","1244318","0.5767351"
"103.35428","39.994423","1244335","0.57575756"
"103.24426","39.804398","1244352","0.57478005"
"103.134254","39.624382","1244368","0.57380253"
"103.08424","39.444363","1244385","0.572825"
"103.00423","39.244335","1244402","0.57380253"
"102.90422","38.964306","1244418","0.572825"
"102.84421","38.764286","1244435","0.5718475"
"102.7842","38.584263","1244452","0.56989247"
"102.724205","38.404243","1244468","0.56891495"
"102.69419","38.10421","1244485","0.56793743"
"102.544174","37.81418","1244518","0.56304985"
"102.51416","37.54415","1244535","0.5786901"
"102.51416","37.43414","1244552","0.59433043"
"102.47417","37.144104","1244568","0.5913978"
"102.46416","36.99409","1244585","0.59237534"
"102.44416","36.854073","1244602","0.5913978"
"102.424164","36.73406","1244618","0.5884653"
"102.41415","36.614048","1244635","0.58651024"
"102.41415","36.484035","1244647","0.58748776"
"102.41415","36.37402","1244668","0.5845552"
"102.39415","36.254005","1244685","0.5855327"
"102.384155","36.254005","1244702","0.5835777"
"102.384155","36.254005","1244718","0.5845552"
"102.34414","36.163998","1244735","0.5845552"
"102.334145","36.163998","1244752","0.5845552"
"102.334145","36.163998","1244764","0.5855327"
"102.334145","36.163998","1244785","0.5826002"
"102.29413","36.073986","1244802","0.5826002"
"102.27413","36.073986","1244818","0.58162266"
"102.27413","36.073986","1244835","0.58162266"
"102.27413","36.073986","1244852","0.5826002"
"102.27413","36.073986","1244868","0.58064514"
"102.27413","36.073986","1244885","0.58064514"
"102.27413","36.073986","1244902","0.5796676"
"102.30413","35.98398","1244918","0.58064514"
"102.30413","35.98398","1244925","0.58162266"
"102.30413","35.883965","1244952","0.58162266"
"102.26413","35.793957","1244985","0.58162266"
"102.24413","35.793957","1245000","0.5826002"
"102.24413","35.793957","1245018","0.5835777"
"102.124115","35.763954","1245035","0.58162266"
"102.0341","35.64394","1245052","0.58064514"
"102.0341","35.64394","1245068","0.5796676"
"101.94409","35.603935","1245085","0.5796676"
"101.84407","35.55393","1245102","0.58162266"
"101.744064","35.523926","1245118","0.58064514"
"101.744064","35.503925","1245135","0.5796676"
"101.62404","35.46392","1245152","0.5796676"
"101.51403","35.443916","1245168","0.58064514"
"101.42402","35.313904","1245185","0.5786901"
"101.41402","35.213894","1245202","0.5796676"
"101.40401","35.213894","1245218","0.5786901"
"101.40401","35.213894","1245235","0.5777126"
"101.40401","35.123882","1245248","0.57478005"
"101.42402","35.033875","1245268","0.57478005"
"101.45402","34.93386","1245301","0.57380253"
"101.45402","34.93386","1245328","0.57575756"
"101.45402","34.93386","1245352","0.572825"
"101.484024","34.83385","1245368","0.57380253"
"101.484024","34.83385","1245385","0.57380253"
"101.484024","34.83385","1245402","0.57380253"
"101.484024","34.74384","1245406","0.57478005"
"101.484024","34.74384","1245435","0.57380253"
"101.39401","34.70384","1245452","0.57380253"
"101.39401","34.693836","1245468","0.57478005"
"101.294","34.65383","1245485","0.572825"
"101.19399","34.523815","1245502","0.572825"
"101.19399","34.523815","1245518","0.57087"
"101.11397","34.403805","1245535","0.57087"
"101.07397","34.30379","1245552","0.572825"
"101.013954","34.20378","1245568","0.57087"
"100.96395","34.093765","1245585","0.56989247"
"100.92394","33.99376","1245602","0.56891495"
"100.90394","33.99376","1245618","0.56891495"
"100.81393","33.893745","1245635","0.5659824"
"100.81393","33.893745","1245652","0.56402737"
"100.72392","33.76373","1245662","0.56402737"
"100.69392","33.64372","1245685","0.56304985"
"100.64391","33.553707","1245702","0.5591398"
"100.473885","33.233677","1245718","0.53763443"
"100.43388","33.083656","1245735","0.53372437"
"100.303856","32.903637","1245752","0.5288367"
"100.19384","32.623608","1245768","0.5532747"
"100.02383","32.29357","1245785","0.57575756"
"99.713776","31.923527","1245802","0.5669599"
"99.53375","31.6535","1245818","0.5601173"
"99.413734","31.353466","1245835","0.5532747"
"99.22372","31.083435","1245852","0.54545456"
"98.90367","30.55338","1245868","0.53861195"
"98.703636","30.303349","1245885","0.53274685"
"98.483604","30.013317","1245902","0.5259042"
"98.21358","29.633274","1245918","0.51808405"
"97.94354","29.22323","1245935","0.51124144"
"97.59349","28.733175","1245952","0.50048876"
"97.38345","28.483149","1245968","0.49462366"
"97.18343","28.253122","1245985","0.4907136"
"96.9834","28.013098","1246002","0.48387095"
"96.78337","27.703062","1246018","0.4682307"
"96.503334","27.253014","1246035","0.45063537"
"96.37332","26.96298","1246052","0.44477028"
"96.2433","26.60294","1246068","0.4682307"
"96.11327","26.202896","1246085","0.49364614"
"96.003265","25.882862","1246102","0.48973608"
"95.89325","25.542824","1246118","0.48289344"
"95.78324","25.292797","1246135","0.47800586"
"95.71323","25.002764","1246152","0.4740958"
"95.573204","24.762737","1246168","0.47311828"
"95.38318","24.422699","1246185","0.47018573"
"95.35318","24.222675","1246202","0.46725318"
"95.29317","24.002653","1246218","0.46432063"
"95.25316","23.902641","1246235","0.4623656"
"95.21316","23.722622","1246252","0.45943305"
"95.09314","23.672615","1246268","0.45747802"
"95.09314","23.5326","1246285","0.45552298"
"95.05314","23.43259","1246302","0.45552298"
"95.01314","23.332579","1246318","0.45454547"
"94.96313","23.242569","1246335","0.45063537"
"94.92311","23.122555","1246352","0.4457478"
"94.88311","23.032547","1246368","0.44379276"
"94.86311","23.032547","1246385","0.44281524"
"94.86311","23.032547","1246399","0.4408602"
"94.86311","23.032547","1246418","0.4398827"
"94.86311","23.032547","1246435","0.43792766"
"94.86311","23.032547","1246452","0.43597263"
"94.86311","23.032547","1246468","0.43597263"
"94.76309","23.022545","1246485","0.43597263"
"94.76309","23.012545","1246502","0.43695015"
"94.76309","23.012545","1246518","0.43792766"
"94.76309","23.012545","1246552","0.43890518"
"94.663086","23.012545","1246568","0.4408602"
"94.54307","23.012545","1246585","0.44379276"
"94.41305","23.06255","1246602","0.4457478"
"94.133","23.182562","1246618","0.4516129"
"93.74296","23.34258","1246635","0.45747802"
"93.50293","23.482595","1246652","0.45845553"
"93.222885","23.712622","1246668","0.46041057"
"92.98285","23.822634","1246685","0.4623656"
"92.69281","23.96265","1246702","0.46432063"
"92.38276","24.202675","1246718","0.46529815"
"92.01272","24.542713","1246735","0.46627566"
"91.78269","24.662725","1246752","0.46725318"
"91.49264","24.86275","1246768","0.4692082"
"91.2226","25.172781","1246785","0.47214076"
"90.90256","25.362803","1246802","0.4750733"
"90.66253","25.582829","1246818","0.47702834"
"90.36249","25.782848","1246835","0.4809384"
"90.052444","25.902864","1246852","0.4848485"
"89.80241","25.98287","1246868","0.4848485"
"89.422356","26.282904","1246885","0.4848485"
"89.172325","26.462925","1246902","0.48680353"
"88.93229","26.58294","1246918","0.4799609"
"88.69226","26.752956","1246935","0.45356792"
"88.3022","27.022987","1246952","0.43695015"
"88.06217","27.183002","1246968","0.43792766"
"87.852135","27.363026","1246985","0.43792766"
"87.74213","27.41303","1247002","0.43792766"
"87.59211","27.573048","1247018","0.44868034"
"87.37207","27.67306","1247035","0.46138808"
"87.37207","27.67306","1247052","0.4623656"
"87.29207","27.803074","1247061","0.46138808"
"87.20205","27.853077","1247113","0.45943305"
"87.20205","27.853077","1247135","0.45845553"
"87.20205","27.853077","1247147","0.45943305"
"87.19205","27.96309","1247168","0.46041057"
"87.18205","27.96309","1247185","0.45943305"
"87.14204","28.053102","1247201","0.45845553"
"87.13204","28.053102","1247218","0.46041057"
"87.13204","28.053102","1247249","0.4623656"
"87.002014","28.073101","1247268","0.46529815"
"86.90201","28.193115","1247285","0.46529815"
"86.801994","28.283123","1247316","0.4682307"
"86.70198","28.373138","1247334","0.4682307"
"86.61197","28.473146","1247351","0.4682307"
"86.461945","28.603163","1247368","0.47311828"
"86.29192","28.723173","1247385","0.4750733"
"86.17191","28.813185","1247401","0.47605082"
"85.99188","29.023207","1247418","0.47605082"
"85.99188","29.023207","1247435","0.47702834"
"85.94188","29.13322","1247451","0.47605082"
"85.93187","29.13322","1247468","0.47311828"
"85.91187","29.233229","1247485","0.46529815"
"85.91187","29.233229","1247496","0.46432063"
"86.051895","29.153223","1247518","0.39198437"
"86.211914","29.173225","1247527","0.257087"
"86.1419","28.793182","1247599","0.257087"
"86.1419","28.793182","1247600","0.257087"
"94.37305","24.042658","1248512","0.031280547"
"94.37305","24.042658","1248518","0.031280547"
"94.37305","24.042658","1248535","0.036168132"
"94.37305","24.042658","1248551","0.051808406"
"94.37305","23.96265","1248568","0.08797654"
"94.37305","23.96265","1248585","0.12512219"
"94.37305","23.96265","1248601","0.14565004"
"94.403046","23.862637","1248618","0.16324535"
"94.403046","23.862637","1248635","0.17986315"
"94.403046","23.862637","1248651","0.1945259"
"94.403046","23.862637","1248668","0.21016617"
"94.52306","23.832636","1248685","0.22873901"
"94.52306","23.612612","1248701","0.25610948"
"94.51306","23.512598","1248718","0.27565983"
"94.483055","23.402584","1248735","0.29716522"
"94.37305","23.272573","1248751","0.3079179"
"94.24302","23.022545","1248768","0.3147605"
"94.133","22.79252","1248785","0.31867057"
"93.92298","22.6225","1248801","0.32258064"
"93.772964","22.332468","1248818","0.34115347"
"93.67294","21.98243","1248835","0.35874876"
"93.4129","21.7024","1248851","0.3646139"
"93.222885","21.392365","1248868","0.37438905"
"93.02285","21.122335","1248885","0.3841642"
"92.82283","20.842304","1248901","0.3900293"
"92.54278","20.462261","1248918","0.3939394"
"92.462776","20.322245","1248935","0.39491692"
"92.24275","20.00221","1248951","0.39589444"
"92.04272","19.752184","1248968","0.398827"
"91.85269","19.522158","1248985","0.40469208"
"91.54265","19.142117","1249001","0.41544476"
"91.372635","18.862085","1249018","0.4183773"
"91.21261","18.592054","1249035","0.41935483"
"91.09259","18.332026","1249051","0.41935483"
"90.942566","18.102001","1249068","0.41935483"
"90.68253","17.82197","1249085","0.41348973"
"90.58251","17.63195","1249101","0.4056696"
"90.4625","17.401924","1249118","0.4056696"
"90.31248","17.141895","1249135","0.40469208"
"90.06245","16.771852","1249151","0.40273705"
"90.022446","16.661842","1249168","0.40175954"
"89.892426","16.491823","1249185","0.40078202"
"89.80241","16.341808","1249201","0.40078202"
"89.712395","16.20179","1249218","0.3998045"
"89.54237","15.851751","1249235","0.398827"
"89.452354","15.641729","1249251","0.39784947"
"89.35235","15.451708","1249268","0.39589444"
"89.252335","15.301691","1249285","0.39491692"
"89.222336","15.191679","1249301","0.3929619"
"89.13231","14.901648","1249318","0.39198437"
"89.0323","14.781634","1249335","0.39100683"
"88.94229","14.631618","1249351","0.3900293"
"88.83228","14.431595","1249368","0.3890518"
"88.69226","14.081556","1249385","0.38709676"
"88.58224","13.861531","1249401","0.38611925"
"88.46223","13.6615095","1249418","0.3841642"
"88.35221","13.451487","1249435","0.39784947"
"88.22219","13.251465","1249451","0.40469208"
"88.112175","13.111449","1249468","0.39687195"
"87.982155","12.981436","1249485","0.39687195"
"87.852135","12.84142","1249501","0.39589444"
"87.72212","12.691402","1249518","0.39491692"
"87.51209","12.391371","1249535","0.39491692"
"87.42208","12.251353","1249551","0.3939394"
"87.312065","12.111338","1249568","0.3929619"
"87.21205","11.951321","1249585","0.39198437"
"87.11204","11.801304","1249601","0.38611925"
"86.97202","11.631285","1249618","0.38123167"
"86.82199","11.451265","1249635","0.38123167"
"86.59197","11.261246","1249651","0.3773216"
"86.431946","11.151232","1249668","0.37341154"
"86.32193","11.061223","1249680","0.37341154"
"86.20191","10.921207","1249701","0.37243402"
"86.06189","10.771191","1249718","0.3714565"
"85.90187","10.621174","1249735","0.3714565"
"85.64183","10.371146","1249751","0.370479"
"85.3518","10.221129","1249768","0.3655914"
"85.14177","10.111117","1249785","0.36363637"
"84.98174","10.0111065","1249801","0.3646139"
"84.98174","10.0111065","1249818","0.36363637"
"84.74171","9.731075","1249835","0.3597263"
"84.351654","9.301028","1249851","0.36754644"
"84.351654","9.301028","1249868","0.38123167"
"83.891594","9.121009","1249885","0.3841642"
"83.891594","9.121009","1249901","0.38611925"
"83.471535","9.010996","1249918","0.3890518"
"83.471535","9.010996","1249935","0.3890518"
"83.03147","8.840978","1249951","0.3900293"
"83.03147","8.840978","1249985","0.38807428"
"82.62142","8.680959","1250001","0.3890518"
"82.62142","8.680959","1250035","0.38807428"
"82.18136","8.570948","1250047","0.38807428"
"82.18136","8.570948","1250068","0.38709676"
"82.18136","8.570948","1250085","0.38709676"
"81.7813","8.390927","1250101","0.38514173"
"81.7813","8.390927","1250118","0.38025415"
"81.7813","8.390927","1250135","0.37829912"
"81.34124","8.520942","1250151","0.37927663"
"81.34124","8.520942","1250168","0.3773216"
"80.93118","8.390927","1250197","0.37829912"
"80.93118","8.390927","1250218","0.370479"
"80.44112","8.340922","1250235","0.36265886"
"80.44112","8.330921","1250251","0.36265886"
"80.011055","8.220908","1250268","0.36950147"
"80.011055","8.220908","1250285","0.370479"
"80.011055","8.220908","1250301","0.37243402"
"79.54099","8.190906","1250318","0.3831867"
"79.03092","8.170904","1250335","0.3841642"
"79.03092","8.160902","1250351","0.3841642"
"78.53085","8.150901","1250368","0.38514173"
"78.53085","8.1409","1250374","0.38709676"
"78.06078","8.1409","1250401","0.38709676"
"78.06078","8.1409","1250418","0.3890518"
"77.66073","8.220908","1250435","0.3900293"
"77.66073","8.220908","1250445","0.39100683"
"77.20066","8.300918","1250468","0.39198437"
"76.7406","8.650955","1250501","0.3831867"
"76.7406","8.650955","1250518","0.3773216"
"76.500565","9.061001","1250535","0.3773216"
"76.500565","9.061001","1250551","0.38025415"
"76.500565","9.061001","1250568","0.37927663"
"76.420555","9.561056","1250585","0.35288367"
"76.420555","9.791082","1250601","0.33431086"
"76.420555","10.431153","1250618","0.342131"
"76.46057","10.821197","1250635","0.3431085"
"76.510574","11.261246","1250651","0.34506354"
"76.62059","11.701292","1250668","0.34701857"
"76.65059","12.161345","1250685","0.35581622"
"76.85062","12.831417","1250701","0.37634408"
"76.98064","13.251465","1250718","0.38807428"
"77.09065","13.711516","1250735","0.3900293"
"77.24068","14.181568","1250751","0.39100683"
"77.46071","14.641618","1250768","0.39198437"
"77.80075","15.3817005","1250785","0.3939394"
"78.01078","15.911758","1250801","0.39491692"
"78.25082","16.411814","1250818","0.398827"
"78.490845","16.891869","1250835","0.40078202"
"78.880905","17.63195","1250851","0.40175954"
"79.15094","18.061996","1250868","0.40664712"
"79.41097","18.502045","1250885","0.42326492"
"79.65101","18.92209","1250901","0.43695015"
"79.881035","19.262129","1250918","0.4340176"
"80.21108","19.792187","1250935","0.43108505"
"80.431114","20.17223","1250951","0.43304008"
"80.68115","20.522268","1250968","0.43597263"
"80.92118","20.882309","1250985","0.4398827"
"81.21123","21.372362","1251001","0.44183773"
"81.38125","21.7124","1251018","0.44379276"
"81.59128","22.182453","1251035","0.4467253"
"81.8113","22.762516","1251051","0.44868034"
"82.001335","23.25257","1251068","0.4457478"
"82.281364","23.98265","1251085","0.44477028"
"82.4514","24.362692","1251101","0.44868034"
"82.61142","24.682728","1251118","0.45454547"
"82.74143","25.012766","1251135","0.45747802"
"82.86145","25.342802","1251151","0.46041057"
"83.03147","25.95287","1251168","0.46627566"
"83.14149","26.112886","1251185","0.47018573"
"83.2515","26.322908","1251201","0.47311828"
"83.381516","26.552933","1251218","0.4750733"
"83.521545","26.69295","1251235","0.44770283"
"83.63155","26.822966","1251251","0.43304008"
"83.72157","26.97298","1251268","0.4340176"
"83.82159","27.123","1251285","0.4349951"
"83.901596","27.24301","1251301","0.4349951"
"84.14163","27.543047","1251318","0.43792766"
"84.28165","27.653057","1251335","0.44868034"
"84.42166","27.68306","1251351","0.46041057"
"84.531685","27.873083","1251368","0.46138808"
"84.64169","28.0331","1251381","0.46432063"
"84.75171","28.183115","1251398","0.46627566"
"84.88173","28.41314","1251418","0.4692082"
"84.991745","28.543156","1251435","0.47116324"
"85.071754","28.66317","1251451","0.47214076"
"85.12176","28.793182","1251468","0.4750733"
"85.22178","28.903194","1251485","0.47702834"
"85.301796","29.013206","1251501","0.47898337"
"85.301796","29.013206","1251518","0.4809384"
"85.3518","29.14322","1251535","0.4809384"
"85.3518","29.14322","1251551","0.48582602"
"85.451805","29.24323","1251568","0.48778105"
"85.451805","29.24323","1251585","0.4916911"
"85.451805","29.24323","1251601","0.49462366"
"85.451805","29.343243","1251618","0.49560118"
"85.451805","29.343243","1251635","0.49951124"
"85.451805","29.343243","1251701","0.5014663"
"85.451805","29.343243","1251718","0.5024438"
"85.451805","29.343243","1251735","0.5034213"
"85.451805","29.343243","1251749","0.5034213"
"85.581825","29.363245","1251785","0.5043988"
"85.68184","29.463257","1251801","0.5034213"
"85.76185","29.573267","1251866","0.5043988"
"85.76185","29.573267","1251885","0.50537634"
"85.76185","29.573267","1251901","0.5073314"
"85.791855","29.673279","1251918","0.50635386"
"85.791855","29.673279","1251922","0.5043988"
"85.88187","29.76329","1251951","0.50537634"
"85.90187","29.853298","1251968","0.5073314"
"85.90187","29.853298","1251985","0.5083089"
"86.02189","29.96331","1252001","0.51124144"
"86.02189","29.96331","1252018","0.5102639"
"86.1019","30.063324","1252028","0.5102639"
"86.1019","30.063324","1252051","0.51124144"
"86.19191","30.113329","1252068","0.5102639"
"86.29192","30.21334","1252085","0.51319647"
"86.40194","30.233341","1252101","0.51319647"
"86.52196","30.263344","1252118","0.51319647"
"86.52196","30.263344","1252135","0.51221895"
"86.61197","30.343353","1252151","0.51221895"
"86.70198","30.373358","1252168","0.514174"
"86.70198","30.373358","1252201","0.5151515"
"86.79199","30.453367","1252218","0.516129"
"86.90201","30.543375","1252235","0.51906157"
"86.90201","30.543375","1252251","0.51808405"
"87.012024","30.57338","1252268","0.51906157"
"87.012024","30.57338","1252301","0.51808405"
"87.12204","30.653389","1252306","0.51906157"
"87.21205","30.673391","1252335","0.5200391"
"87.21205","30.673391","1252351","0.51906157"
"87.24206","30.783403","1252368","0.5200391"
"87.24206","30.783403","1252385","0.5210166"
"87.24206","30.783403","1252401","0.52297163"
"87.24206","30.783403","1252418","0.52492666"
"87.24206","30.783403","1252435","0.5268817"
"87.24206","30.783403","1252451","0.53079176"
"87.24206","30.783403","1252468","0.5366569"
"87.24206","30.893414","1252485","0.5493646"
"87.11204","30.893414","1252501","0.56304985"
"87.012024","30.983425","1252518","0.57087"
"86.91201","31.003428","1252535","0.572825"
"86.812","31.10344","1252545","0.57087"
"86.721985","31.183447","1252568","0.57380253"
"86.62197","31.273457","1252585","0.57575756"
"86.39194","31.413471","1252601","0.5777126"
"86.1619","31.703503","1252618","0.5796676"
"86.02189","31.963533","1252635","0.5552297"
"85.78186","32.11355","1252651","0.5356794"
"85.55183","32.28357","1252668","0.53861195"
"85.371796","32.5936","1252685","0.54545456"
"85.08176","33.02365","1252701","0.55718476"
"84.85172","33.263676","1252718","0.5591398"
"84.60169","33.533707","1252735","0.56304985"
"84.34165","33.77373","1252751","0.5659824"
"84.07162","34.01376","1252768","0.56891495"
"83.69157","34.423805","1252785","0.57575756"
"83.46153","34.713837","1252801","0.5777126"
"83.24151","35.01387","1252818","0.5796676"
"83.06148","35.233894","1252835","0.58162266"
"82.881454","35.593937","1252851","0.58162266"
"82.751434","35.873966","1252868","0.5855327"
"82.62142","36.03398","1252885","0.58748776"
"82.53141","36.163998","1252901","0.5894428"
"82.491394","36.29401","1252918","0.59237534"
"82.39139","36.424026","1252935","0.59433043"
"82.31138","36.53404","1252951","0.59237534"
"82.27137","36.64405","1252968","0.59433043"
"82.18136","36.74406","1252985","0.59530795"
"82.15135","36.83407","1253001","0.5982405"
"82.06134","36.944084","1253018","0.6001955"
"82.02134","37.044094","1253035","0.599218"
"81.97133","37.15411","1253051","0.6001955"
"81.89131","37.26412","1253068","0.60117304"
"81.7613","37.594154","1253085","0.6031281"
"81.73129","37.794178","1253101","0.5894428"
"81.72129","37.794178","1253118","0.57478005"
"81.67129","37.914192","1253135","0.57478005"
"81.63128","38.004204","1253151","0.5777126"
"81.581276","38.09421","1253168","0.5767351"
"81.571266","38.09421","1253185","0.57380253"
"81.571266","38.09421","1253201","0.57087"
"81.571266","38.09421","1253218","0.5200391"
"81.68129","38.34424","1253235","0.018572826"
"81.7713","38.57426","1253242","9.775171E-4"
"81.7713","38.57426","1253250","9.775171E-4"
"87.33206","32.41358","1253929","0.051808406"
"87.33206","32.41358","1253934","0.051808406"
"87.29207","32.233562","1253951","0.074291304"
"87.24206","32.04354","1253968","0.09677419"
"87.20205","31.883524","1253984","0.13000977"
"87.12204","31.793516","1254001","0.17497556"
"87.12204","31.793516","1254018","0.22091886"
"87.02203","31.76351","1254034","0.257087"
"87.02203","31.76351","1254051","0.28152493"
"87.02203","31.84352","1254068","0.29325512"
"87.102036","31.923527","1254084","0.3088954"
"87.24206","32.053543","1254101","0.32453567"
"87.692116","32.453587","1254118","0.35777125"
"88.08217","32.963646","1254134","0.3939394"
"88.48223","33.513706","1254151","0.427175"
"88.93229","34.02376","1254168","0.44770283"
"89.33235","34.443806","1254184","0.46725318"
"89.78241","34.91386","1254201","0.49462366"
"90.052444","35.273895","1254218","0.5102639"
"90.33248","35.633938","1254234","0.52492666"
"90.58251","36.023983","1254251","0.53861195"
"90.81255","36.38402","1254268","0.5483871"
"91.27261","36.91408","1254284","0.5532747"
"91.53265","37.21411","1254301","0.56207234"
"91.72267","37.504147","1254318","0.56989247"
"91.86269","37.74417","1254334","0.5610948"
"92.13273","37.9842","1254351","0.5522972"
"92.29275","38.18422","1254368","0.5581623"
"92.462776","38.394245","1254384","0.56207234"
"92.69281","38.59427","1254401","0.5650049"
"92.94284","38.82429","1254418","0.56891495"
"93.3729","39.124325","1254434","0.5718475"
"93.64294","39.234337","1254451","0.57478005"
"93.88297","39.334347","1254468","0.5777126"
"94.123","39.444363","1254484","0.5796676"
"94.353035","39.564377","1254501","0.5826002"
"94.73309","39.71439","1254518","0.58651024"
"95.00313","39.864407","1254534","0.5894428"
"95.27316","40.074432","1254551","0.5913978"
"95.5032","40.224445","1254568","0.59433043"
"95.68322","40.274452","1254584","0.599218"
"95.833244","40.374462","1254601","0.60117304"
"95.94326","40.40447","1254618","0.60215056"
"96.043274","40.494476","1254634","0.6031281"
"96.253296","40.574486","1254651","0.60117304"
"96.423325","40.684498","1254668","0.6001955"
"96.64335","40.774506","1254684","0.5982405"
"96.76337","40.854515","1254701","0.59628546"
"96.76337","40.854515","1254718","0.597263"
"96.76337","40.854515","1254734","0.6001955"
"96.84338","40.944527","1254751","0.60215056"
"96.84338","40.944527","1254761","0.6031281"
"96.86339","41.05454","1254784","0.6031281"
"96.86339","41.05454","1254801","0.6041056"
"96.86339","41.05454","1254818","0.6041056"
"96.86339","41.05454","1254834","0.6050831"
"96.86339","41.05454","1254851","0.6050831"
"96.86339","41.05454","1254866","0.6050831"
"96.9534","41.144547","1254896","0.6060606"
"96.9534","41.144547","1254918","0.60703814"
"96.9534","41.144547","1254934","0.60801566"
"96.9534","41.144547","1254949","0.60703814"
"96.9534","41.144547","1254984","0.60801566"
"96.9534","41.144547","1255016","0.60801566"
"96.9534","41.144547","1255051","0.60703814"
"96.9534","41.144547","1255101","0.60801566"
"96.9534","41.144547","1255106","0.6089932"
"96.9534","41.144547","1255134","0.60801566"
"96.9534","41.144547","1255178","0.60703814"
"96.9534","41.144547","1255201","0.6089932"
"96.9534","41.144547","1255218","0.60801566"
"96.9534","41.144547","1255284","0.6089932"
"96.9534","41.144547","1255334","0.6089932"
"96.86339","41.114544","1255351","0.6099707"
"96.86339","41.114544","1255368","0.6109482"
"96.75338","41.10454","1255384","0.6099707"
"96.75338","41.10454","1255400","0.6099707"
"96.65336","41.10454","1255418","0.6099707"
"96.55334","41.124546","1255434","0.61876833"
"96.463326","41.124546","1255451","0.6168133"
"96.463326","41.124546","1255468","0.6158358"
"96.37332","41.214558","1255501","0.6168133"
"96.37332","41.214558","1255518","0.6158358"
"96.2333","41.214558","1255568","0.61974585"
"96.10329","41.23456","1255580","0.62463343"
"96.003265","41.23456","1255601","0.62463343"
"95.89325","41.314564","1255618","0.62463343"
"95.76324","41.36457","1255634","0.62463343"
"95.5032","41.484585","1255651","0.62561095"
"95.19316","41.6046","1255668","0.63147604"
"94.98312","41.71461","1255684","0.63147604"
"94.773094","41.824623","1255701","0.63147604"
"94.67308","41.874626","1255718","0.63147604"
"94.38304","42.084652","1255734","0.629521"
"94.29303","42.084652","1255751","0.62561095"
"94.20302","42.174664","1255783","0.62561095"
"94.20302","42.174664","1255801","0.62463343"
"94.103","42.26467","1255818","0.62463343"
"93.99299","42.294674","1255834","0.62463343"
"93.88297","42.404686","1255851","0.6236559"
"93.59293","42.58471","1255868","0.62658846"
"93.40291","42.734726","1255884","0.62561095"
"93.18287","42.96475","1255901","0.6089932"
"93.092865","43.084763","1255918","0.60801566"
"92.95285","43.184772","1255934","0.6050831"
"92.802826","43.274784","1255951","0.6060606"
"92.68281","43.364796","1255968","0.60215056"
"92.59279","43.4448","1255984","0.6001955"
"92.59279","43.4448","1256001","0.59628546"
"92.502785","43.554813","1256018","0.5894428"
"92.452774","43.64482","1256034","0.5474096"
"92.23275","43.754837","1256051","0.3655914"
"92.34276","43.54481","1256068","9.775171E-4"
"92.30276","43.044758","1256073","9.775171E-4"
"92.30276","43.044758","1256080","9.775171E-4"
"96.963394","40.204445","1256681","0.17399804"
"96.963394","40.204445","1256684","0.17399804"
"96.9434","40.06443","1256701","0.28445747"
"96.82338","40.05443","1256718","0.3939394"
"96.67336","40.114437","1256734","0.4965787"
"96.213295","40.234447","1256751","0.599218"
"95.98326","40.334457","1256768","0.6344086"
"95.86324","40.464474","1256784","0.6529814"
"95.823235","40.55448","1256801","0.66471165"
"95.79323","40.674496","1256818","0.67155427"
"95.873245","40.774506","1256834","0.67155427"
"96.09327","40.924522","1256851","0.67057675"
"96.503334","41.13455","1256868","0.66471165"
"96.963394","41.41458","1256884","0.6598241"
"97.53347","41.874626","1256901","0.6627566"
"97.853516","42.164658","1256918","0.6666667"
"97.99354","42.464695","1256934","0.6813294"
"98.113556","42.79473","1256951","0.68817204"
"98.50361","43.194775","1256968","0.6871945"
"98.913666","44.004864","1256984","0.69403714"
"99.163704","44.634933","1257001","0.69990224"
"99.38374","45.234997","1257018","0.7038123"
"99.623764","45.80506","1257034","0.7047898"
"100.14384","46.695164","1257051","0.70185727"
"100.50389","47.085205","1257068","0.70185727"
"100.853935","47.41524","1257084","0.6989247"
"101.16398","47.805283","1257101","0.69501466"
"101.374016","48.065315","1257118","0.69403714"
"101.59404","48.01531","1257134","0.62463343"
"102.60418","47.735275","1257151","0.25610948"
"103.71433","47.485245","1257167","9.775171E-4"
"104.21441","47.765278","1257217","9.775171E-4"
"104.21441","47.765278","1257217","9.775171E-4"
