"100.263855","47.175213","907988","0.09090909"
"100.28385","47.0452","908004","0.18181819"
"100.41388","47.015194","908037","0.22971652"
"100.6339","47.165215","908070","0.26099706"
"101.09397","47.545258","908087","0.28934506"
"101.35401","47.87529","908103","0.30400783"
"101.63404","48.175323","908120","0.30498534"
"101.94409","48.46536","908137","0.30596286"
"102.44416","48.89541","908153","0.3264907"
"102.7442","49.32545","908170","0.3372434"
"103.05424","49.64549","908187","0.34701857"
"103.384285","49.985527","908203","0.3597263"
"103.71433","50.435574","908220","0.3714565"
"104.13439","51.185658","908237","0.3929619"
"105.35457","54.115986","908320","0.3998045"
"105.494576","54.686043","908337","0.40469208"
"105.72462","55.25611","908353","0.40860215"
"105.994644","55.756165","908370","0.4115347"
"106.25468","56.576256","908387","0.43010753"
"106.39471","57.246323","908403","0.4398827"
"106.52472","57.766384","908420","0.43890518"
"106.634735","58.15643","908437","0.4525904"
"106.73475","58.556473","908453","0.46432063"
"106.94478","59.346558","908470","0.46627566"
"107.0448","59.886623","908487","0.46627566"
"107.0948","60.396675","908503","0.46725318"
"107.14481","60.78672","908520","0.47018573"
"107.21482","61.24677","908537","0.48191592"
"107.23482","61.496796","908553","0.48778105"
"107.27482","61.786827","908570","0.49853373"
"107.29483","62.056858","908587","0.5092864"
"107.29483","62.20688","908603","0.51319647"
"107.29483","62.31689","908620","0.5259042"
"107.18481","62.4269","908637","0.5366569"
"107.16481","62.516914","908653","0.53958946"
"106.23467","62.78694","908720","0.56891495"
"105.884636","62.646927","908737","0.5845552"
"105.42457","62.4169","908753","0.6001955"
"104.54444","62.26688","908770","0.6158358"
"104.064384","62.216877","908787","0.61485827"
"103.57432","62.086864","908803","0.6060606"
"103.07424","61.936848","908820","0.59530795"
"102.56417","61.816833","908837","0.5913978"
"101.71405","61.75683","908853","0.58748776"
"101.25399","61.75683","908870","0.5845552"
"100.84394","61.776825","908887","0.58064514"
"100.41388","61.816833","908903","0.5767351"
"99.973816","61.866837","908920","0.5786901"
"99.293724","61.956852","908937","0.58748776"
"98.873665","62.086864","908953","0.5894428"
"98.413605","62.216877","908970","0.59433043"
"97.87353","62.336887","908987","0.59237534"
"97.273445","62.526913","909003","0.58162266"
"96.973404","62.666927","909020","0.572825"
"96.74337","62.71693","909037","0.56989247"
"96.64335","62.76694","909053","0.5669599"
"96.40333","62.836945","909070","0.56304985"
"96.40333","62.836945","909087","0.5610948"
"96.40333","62.836945","909103","0.5610948"
"96.66335","62.746933","909120","0.56207234"
"97.013405","62.566917","909137","0.56989247"
"97.79352","62.346897","909153","0.58162266"
"98.3936","62.276886","909170","0.58651024"
"99.04368","62.26688","909187","0.5913978"
"99.73378","62.26688","909203","0.58748776"
"100.473885","62.26688","909220","0.5845552"
"101.56403","62.26688","909237","0.59237534"
"102.25413","62.26688","909253","0.59530795"
"102.83421","62.31689","909270","0.5982405"
"103.314285","62.376896","909287","0.60117304"
"103.74433","62.476902","909303","0.5982405"
"104.34441","62.586918","909320","0.59628546"
"104.68446","62.646927","909337","0.597263"
"105.164536","62.756935","909353","0.59335285"
"105.6046","62.85695","909370","0.5884653"
"105.92464","63.01696","909387","0.5884653"
"106.13467","63.19699","909403","0.5884653"
"106.344696","63.36701","909420","0.5884653"
"106.53471","63.567024","909437","0.58748776"
"106.70475","63.807053","909453","0.58651024"
"106.94478","64.17709","909470","0.58748776"
"107.134796","64.39712","909487","0.58651024"
"107.25482","64.60714","909503","0.58651024"
"107.424835","64.837166","909520","0.5855327"
"107.57487","65.077194","909537","0.5855327"
"107.7949","65.39723","909553","0.5845552"
"107.94492","65.59725","909570","0.5835777"
"108.11494","65.807274","909587","0.5835777"
"108.28497","66.00729","909603","0.5826002"
"108.42498","66.18731","909616","0.58162266"
"108.575","66.347336","909635","0.58162266"
"108.71502","66.50735","909653","0.58162266"
"108.94505","66.757385","909670","0.58064514"
"109.10507","66.9674","909687","0.58651024"
"109.27511","67.29744","909703","0.58748776"
"109.39511","67.50746","909720","0.5826002"
"109.49513","67.68748","909736","0.5826002"
"109.685165","67.837494","909753","0.5835777"
"109.85518","67.94751","909770","0.5845552"
"109.935196","68.06753","909785","0.5845552"
"110.015205","68.19754","909803","0.5835777"
"110.18523","68.36755","909819","0.5845552"
"110.305244","68.51757","909837","0.58651024"
"110.35524","68.617584","909853","0.5845552"
"110.40525","68.707596","909870","0.5845552"
"110.49526","68.817604","909887","0.5845552"
"110.54527","68.937614","909920","0.5845552"
"110.645294","69.03763","909937","0.5845552"
"110.645294","69.03763","909953","0.5855327"
"110.735306","69.067635","909970","0.5855327"
"110.78532","69.187645","910003","0.5855327"
"110.78532","69.187645","910020","0.58651024"
"110.815315","69.27766","910037","0.58748776"
"110.83531","69.27766","910052","0.5894428"
"110.945335","69.357666","910087","0.5884653"
"110.945335","69.357666","910103","0.5894428"
"111.025345","69.467674","910120","0.5894428"
"111.04534","69.57769","910137","0.5884653"
"111.13535","69.677704","910170","0.5884653"
"111.15535","69.767715","910199","0.58748776"
"111.24536","69.89773","910220","0.58748776"
"111.325386","70.02774","910237","0.5855327"
"111.4154","70.11775","910253","0.5855327"
"111.51542","70.23776","910270","0.5855327"
"111.62543","70.35778","910287","0.5845552"
"111.75545","70.48779","910303","0.5835777"
"112.00548","70.647804","910320","0.58162266"
"112.22551","70.76782","910337","0.58064514"
"112.37553","70.937836","910353","0.5796676"
"112.585556","71.08786","910370","0.5786901"
"112.93561","71.24787","910387","0.5767351"
"113.125626","71.35789","910403","0.57478005"
"113.26565","71.477905","910420","0.57478005"
"113.39567","71.62792","910437","0.5796676"
"113.54569","71.77793","910453","0.5835777"
"113.69571","71.88795","910470","0.58162266"
"113.84574","72.02796","910487","0.57575756"
"113.99575","72.16798","910503","0.572825"
"114.15577","72.247986","910520","0.572825"
"114.40581","72.26799","910537","0.57380253"
"114.59584","72.26799","910547","0.572825"
"114.83588","72.26799","910570","0.5767351"
"115.0559","72.26799","910587","0.58162266"
"115.16591","72.26799","910603","0.58064514"
"115.25592","72.26799","910620","0.58162266"
"115.45596","72.26799","910637","0.58651024"
"115.60597","72.26799","910650","0.59237534"
"115.60597","72.26799","910670","0.59335285"
"115.69599","72.18798","910676","0.59335285"
"115.69599","72.18798","910703","0.59433043"
"115.71599","72.09797","910720","0.6001955"
"115.71599","72.00796","910737","0.6099707"
"115.73599","71.90794","910753","0.61290324"
"115.73599","71.797935","910770","0.6158358"
"115.68598","71.5179","910787","0.6089932"
"115.62597","71.32788","910803","0.61290324"
"115.57597","71.16787","910820","0.6158358"
"115.53597","71.00785","910837","0.6168133"
"115.40595","70.84783","910853","0.6060606"
"115.29594","70.60781","910870","0.60703814"
"115.23592","70.41778","910887","0.6099707"
"115.1159","70.17776","910903","0.61388075"
"114.95588","69.89773","910920","0.61290324"
"114.67585","69.437675","910937","0.61290324"
"114.51583","69.147644","910953","0.61485827"
"114.3058","68.87762","910970","0.6168133"
"114.07576","68.56758","910987","0.61974585"
"113.69571","67.98752","911003","0.62561095"
"113.42567","67.53747","911020","0.629521"
"113.14564","67.0074","911037","0.63245356"
"112.81559","66.49735","911053","0.6353861"
"112.485535","66.057304","911070","0.63831866"
"111.995476","65.39723","911087","0.64320624"
"111.75545","64.917175","911103","0.6451613"
"111.55541","64.427124","911120","0.6471163"
"111.38538","63.98707","911137","0.6480938"
"111.26538","63.637035","911153","0.6480938"
"111.235374","63.266994","911170","0.6480938"
"111.235374","63.176987","911187","0.6471163"
"111.25537","63.046967","911203","0.6471163"
"111.355385","62.946957","911220","0.6461388"
"111.4754","62.93696","911237","0.64320624"
"111.60542","62.926952","911253","0.6412512"
"111.775444","63.026966","911270","0.63831866"
"112.00548","63.166985","911287","0.6363636"
"112.30552","63.347004","911303","0.6344086"
"112.77559","63.647034","911320","0.63147604"
"113.02562","63.86706","911337","0.629521"
"113.24565","64.08708","911353","0.627566"
"113.465675","64.347115","911370","0.62561095"
"113.66571","64.65715","911387","0.6236559"
"114.02576","65.21721","911403","0.61876833"
"114.26579","65.53725","911420","0.6158358"
"114.48582","65.817276","911437","0.61388075"
"114.695854","66.07731","911453","0.6119257"
"115.12591","66.43735","911470","0.61974585"
"115.48596","66.63737","911487","0.6285435"
"115.67598","66.867386","911503","0.6344086"
"115.86601","67.12742","911520","0.6344086"
"116.086044","67.357445","911537","0.627566"
"116.48611","67.66748","911553","0.6236559"
"116.74613","67.857506","911570","0.62072337"
"116.98617","68.04752","911587","0.6177908"
"117.236206","68.26755","911603","0.6158358"
"117.646255","68.62759","911620","0.6119257"
"118.0063","68.87762","911637","0.6089932"
"118.79642","69.187645","911670","0.6031281"
"119.146454","69.32766","911687","0.6001955"
"119.60653","69.45768","911703","0.59530795"
"119.89657","69.50769","911720","0.59335285"
"120.1166","69.50769","911737","0.597263"
"120.36663","69.49768","911753","0.6001955"
"120.606674","69.38767","911770","0.6050831"
"120.89671","69.17764","911787","0.6099707"
"121.07673","68.96762","911803","0.6099707"
"121.196754","68.7876","911819","0.6099707"
"121.29676","68.657585","911837","0.6099707"
"121.39678","68.42757","911853","0.6109482"
"121.42678","68.23754","911870","0.6119257"
"121.446785","67.95751","911887","0.6158358"
"121.33677","67.61748","911903","0.61876833"
"121.15675","67.21743","911920","0.6285435"
"120.90671","66.577354","911937","0.63147604"
"120.76669","66.12731","911953","0.6217009"
"120.62667","65.68726","911970","0.62072337"
"120.36663","65.247215","911987","0.62072337"
"120.16661","64.81717","912003","0.6226784"
"119.86657","64.2171","912020","0.629521"
"119.67654","63.857063","912037","0.63245356"
"119.52652","63.50702","912053","0.6334311"
"119.376495","63.19699","912070","0.6363636"
"119.12646","62.76694","912087","0.6422287"
"118.93644","62.436897","912103","0.6529814"
"118.6764","62.046852","912120","0.6520039"
"118.406364","61.68682","912137","0.64418375"
"118.20632","61.366783","912153","0.6471163"
"117.886284","60.846725","912170","0.6520039"
"117.65625","60.49669","912187","0.65493643"
"117.42622","60.156654","912203","0.65786904"
"117.236206","59.796608","912220","0.6608016"
"117.02618","59.136536","912237","0.6617791"
"116.976166","58.8065","912253","0.6627566"
"116.95616","58.58647","912270","0.6627566"
"116.94615","58.43646","912285","0.6627566"
"116.96616","58.326447","912303","0.6627566"
"117.07619","58.21644","912320","0.6608016"
"117.07619","58.21644","912337","0.65884656"
"117.30621","58.206432","912353","0.65591395"
"117.53625","58.356453","912370","0.6520039"
"117.806274","58.546474","912387","0.6480938"
"118.29634","58.96652","912403","0.64418375"
"118.68639","59.386562","912420","0.6402737"
"119.08646","59.856617","912437","0.6363636"
"119.41651","60.296665","912453","0.63245356"
"119.86657","60.836727","912470","0.627566"
"120.1466","61.126762","912487","0.62463343"
"120.38663","61.406788","912503","0.62658846"
"120.64668","61.67682","912520","0.6285435"
"120.89671","61.99685","912537","0.63734114"
"121.42678","62.53691","912553","0.64418375"
"121.786835","62.806946","912570","0.6412512"
"122.046875","63.036972","912587","0.6392962"
"122.38692","63.256992","912603","0.6363636"
"122.77696","63.49702","912620","0.6334311"
"123.217026","63.86706","912637","0.63734114"
"123.467064","64.06708","912653","0.64418375"
"123.717094","64.2471","912670","0.6480938"
"123.92714","64.36712","912687","0.6539589"
"124.277176","64.40712","912703","0.6529814"
"124.45719","64.40712","912720","0.6529814"
"124.59721","64.32711","912737","0.6529814"
"124.697235","64.2371","912753","0.6539589"
"124.72724","64.07708","912770","0.65689147"
"124.76725","63.667038","912787","0.6617791"
"124.75723","63.266994","912803","0.66471165"
"124.607216","62.816944","912820","0.6676442"
"124.437195","62.32689","912837","0.66959924"
"123.98714","61.59681","912853","0.65591395"
"123.717094","61.126762","912870","0.65884656"
"123.477066","60.6567","912887","0.6539589"
"123.13702","60.206657","912903","0.6539589"
"122.67695","59.76661","912920","0.6598241"
"122.00686","59.066532","912937","0.67057675"
"121.66681","58.676487","912953","0.67644185"
"121.21675","58.326447","912970","0.6803519"
"120.79669","57.99641","912987","0.684262"
"120.44664","57.61637","913003","0.6783969"
"119.836555","56.806274","913020","0.6735093"
"119.39649","56.38623","913037","0.6617791"
"119.01645","56.0662","913053","0.6686217"
"118.626396","55.72616","913070","0.67546433"
"118.036316","55.156097","913087","0.686217"
"117.646255","54.776054","913103","0.6911046"
"117.266205","54.366005","913120","0.69403714"
"116.936165","53.99597","913137","0.6969697"
"116.646126","53.685936","913153","0.6989247"
"116.256065","53.30589","913170","0.7028348"
"116.02603","53.055862","913187","0.70772237"
"115.776","52.805836","913203","0.71358746"
"115.50596","52.545803","913220","0.71847504"
"115.10591","52.18577","913237","0.714565"
"114.53583","51.735718","913253","0.70772237"
"114.185776","51.555702","913270","0.7038123"
"113.82573","51.38568","913287","0.71163243"
"113.49569","51.195656","913303","0.72140765"
"113.11564","50.885624","913320","0.7243402"
"112.825584","50.645596","913337","0.72727275"
"112.44553","50.365566","913353","0.7302053"
"112.075485","50.01553","913370","0.73216033"
"111.72545","49.675488","913387","0.73411536"
"111.28538","49.28545","913403","0.7370479"
"110.975334","49.155434","913420","0.7380254"
"110.59528","48.875404","913437","0.740958"
"110.16522","48.555367","913453","0.740958"
"109.50513","48.045315","913470","0.73998046"
"109.08508","47.69527","913487","0.740958"
"108.64501","47.555256","913503","0.73998046"
"108.20495","47.425243","913520","0.73998046"
"107.75489","46.985195","913537","0.7419355"
"107.1148","46.325123","913553","0.7468231"
"106.70475","45.76506","913570","0.7478006"
"106.3147","45.245","913587","0.7478006"
"105.92464","44.804955","913603","0.7487781"
"105.444565","44.294895","913620","0.75171065"
"104.66447","43.54481","913637","0.75659823"
"104.2544","43.064762","913653","0.76246333"
"103.74433","42.574703","913670","0.7663734"
"103.10424","42.044647","913687","0.7653959"
"102.48416","41.16455","913703","0.7673509"
"102.124115","40.64449","913720","0.7683284"
"101.744064","40.184444","913737","0.7683284"
"101.41402","39.744392","913753","0.77028346"
"101.13397","39.294342","913770","0.77614856"
"100.72392","38.694275","913787","0.7800586"
"100.49389","38.214226","913803","0.7937439"
"100.183846","37.654163","913820","0.8064516"
"99.82379","37.054096","913837","0.80254155"
"99.413734","36.45403","913853","0.80156404"
"98.64363","35.333904","913870","0.7986315"
"98.18356","34.633827","913886","0.7947214"
"97.77351","34.043762","913903","0.7937439"
"97.37345","33.333683","913920","0.78299123"
"96.88339","32.363575","913936","0.8240469"
"96.47333","31.713505","913953","0.8240469"
"96.06328","31.003428","913970","0.82600194"
"95.71323","30.21334","913986","0.8220919"
"95.32317","29.443254","914003","0.8172043"
"94.653076","28.393137","914020","0.8113392"
"94.133","27.583048","914036","0.8044966"
"93.64294","26.752956","914053","0.82600194"
"93.19287","25.962872","914070","0.85337245"
"92.47278","24.832745","914086","0.84652984"
"92.02271","24.112665","914103","0.8347996"
"91.65266","23.362583","914120","0.8445748"
"91.282616","22.542492","914136","0.8631476"
"90.84256","21.752403","914153","0.8621701"
"90.272484","20.672285","914170","0.86510265"
"89.88242","19.882198","914186","0.86412513"
"89.502365","19.132114","914203","0.8504399"
"89.14232","18.37203","914220","0.83773214"
"88.742256","17.561941","914236","0.83773214"
"88.162186","16.331804","914253","0.8367546"
"87.84214","15.641729","914270","0.83870965"
"87.5021","14.981655","914286","0.8367546"
"87.16205","14.321584","914303","0.8347996"
"86.66197","13.39148","914320","0.81329423"
"86.301926","12.771412","914336","0.8191593"
"85.91187","12.071334","914353","0.8103617"
"85.531815","11.461267","914370","0.80351907"
"85.08176","10.941209","914386","0.80254155"
"84.56168","10.341143","914403","0.8005865"
"83.981606","9.671069","914420","0.78983384"
"83.391525","9.121009","914436","0.7781036"
"82.77144","8.700962","914453","0.7937439"
"82.14135","8.370925","914470","0.7878788"
"80.82117","7.9008737","914486","0.7556207"
"80.141075","7.7208533","914503","0.7800586"
"79.470985","7.590839","914519","0.7888563"
"78.84089","7.5608354","914536","0.78983384"
"77.71074","7.4908276","914570","0.76930594"
"77.26068","7.460825","914586","0.7683284"
"76.7006","7.4808264","914603","0.76930594"
"76.7006","7.4808264","914620","0.740958"
"76.170525","7.6908503","914632","0.7302053"
"75.60045","7.920876","914653","0.7233627"
"75.04037","8.260913","914670","0.7292278"
"75.04037","8.260913","914686","0.7605083"
"74.43028","9.271025","914703","0.7194526"
"74.39028","9.911096","914720","0.7028348"
"74.39028","10.67118","914736","0.72629523"
"74.440285","11.471269","914753","0.72629523"
"74.5603","12.361367","914770","0.7243402"
"74.92036","13.591501","914786","0.74486804"
"75.21039","14.311581","914803","0.7605083"
"75.54044","15.071667","914820","0.77028346"
"75.910484","15.861754","914836","0.7878788"
"76.37055","16.791857","914853","0.79569894"
"77.08065","18.222015","914870","0.80351907"
"77.56072","19.09211","914886","0.79667646"
"78.110794","19.932203","914903","0.81329423"
"78.750885","20.702288","914920","0.83870965"
"79.831024","21.832415","914936","0.83773214"
"80.47112","22.702509","914953","0.8367546"
"81.0912","23.542603","914970","0.83773214"
"81.72129","24.362692","914986","0.83870965"
"82.37139","25.182783","915003","0.83773214"
"83.46153","26.322908","915020","0.8406647"
"84.28165","27.112995","915036","0.8416422"
"85.03175","27.813076","915053","0.8220919"
"85.751854","28.523153","915070","0.8044966"
"86.47195","29.313238","915086","0.8054741"
"87.5021","30.533373","915103","0.8064516"
"88.2822","31.273457","915120","0.8113392"
"89.11231","31.973532","915136","0.81524926"
"89.94243","32.703613","915153","0.8181818"
"91.12259","33.963753","915170","0.78201365"
"91.902695","34.613827","915186","0.78299123"
"92.65281","35.36391","915203","0.78396875"
"93.432915","36.103992","915220","0.7869013"
"94.24302","36.774067","915236","0.7947214"
"95.31316","37.70417","915253","0.799609"
"95.93325","38.44425","915270","0.82013685"
"96.58335","39.16433","915286","0.8005865"
"97.18343","39.854404","915303","0.7673509"
"97.90353","40.89452","915320","0.773216"
"98.403595","41.5846","915336","0.773216"
"98.98368","42.254673","915353","0.77517104"
"99.40374","42.924747","915370","0.78494626"
"99.8438","43.59482","915386","0.77614856"
"100.6239","44.67494","915403","0.75268817"
"100.96395","45.355015","915420","0.75268817"
"101.26399","46.015087","915436","0.75268817"
"101.60404","46.755165","915453","0.7536657"
"101.86407","47.305225","915470","0.7595308"
"102.24413","47.83529","915486","0.7497556"
"102.51416","48.095318","915503","0.6979472"
"103.134254","48.73539","915520","0.29325512"
"103.37428","49.39546","915534","9.775171E-4"
"103.20426","49.975525","915584","9.775171E-4"
"103.20426","49.975525","915584","9.775171E-4"
