"97.6935","28.453144","1858662","0.07526882"
"97.6935","28.453144","1858668","0.07526882"
"97.79352","28.443144","1858701","0.3264907"
"97.79352","28.443144","1858735","0.45845553"
"97.79352","28.653168","1858785","0.56207234"
"97.813515","28.753178","1858801","0.58162266"
"97.93353","28.86319","1858818","0.5982405"
"98.01354","29.013206","1858835","0.6119257"
"98.20357","29.253235","1858851","0.62658846"
"98.35359","29.40325","1858868","0.6392962"
"98.4736","29.613276","1858885","0.64907134"
"98.613625","29.833298","1858901","0.65884656"
"98.88366","30.303349","1858918","0.6735093"
"99.03369","30.593382","1858935","0.6813294"
"99.19371","30.893414","1858951","0.6871945"
"99.32372","31.093435","1858968","0.69403714"
"99.43374","31.193447","1858985","0.69990224"
"99.683784","31.543486","1859001","0.70772237"
"99.80379","31.713505","1859018","0.71260995"
"99.933815","31.903526","1859035","0.7174975"
"100.06383","32.083546","1859051","0.72043014"
"100.16385","32.243565","1859068","0.7233627"
"100.263855","32.40358","1859085","0.7302053"
"100.35387","32.5536","1859101","0.73216033"
"100.933945","33.393692","1859185","0.7243402"
"101.07397","33.623714","1859201","0.70576733"
"101.21399","33.703728","1859218","0.70772237"
"101.24399","33.83374","1859235","0.70185727"
"101.334","33.983757","1859251","0.70185727"
"101.43401","34.083767","1859268","0.7028348"
"101.534035","34.20378","1859285","0.7038123"
"101.73406","34.46381","1859301","0.70674485"
"101.82407","34.60382","1859318","0.7086999"
"101.90408","34.763844","1859334","0.7086999"
"101.92408","34.91386","1859351","0.7096774"
"101.95409","35.073875","1859368","0.71163243"
"101.9941","35.413914","1859384","0.714565"
"102.0341","35.653942","1859401","0.71652"
"102.0341","35.893967","1859418","0.7174975"
"102.0341","36.123993","1859434","0.71847504"
"102.0341","36.344017","1859451","0.71847504"
"102.0341","36.624046","1859468","0.72043014"
"102.0241","36.784065","1859484","0.72140765"
"102.00409","36.91408","1859501","0.7233627"
"101.96409","37.024094","1859518","0.7233627"
"101.91408","37.124104","1859534","0.7243402"
"101.874084","37.234116","1859551","0.7253177"
"101.85408","37.234116","1859568","0.72629523"
"101.744064","37.26412","1859584","0.72825027"
"101.744064","37.26412","1859598","0.7302053"
"101.64405","37.314125","1859618","0.7311828"
"101.534035","37.33413","1859634","0.73313785"
"101.44402","37.364132","1859668","0.73313785"
"101.35401","37.384132","1859684","0.7370479"
"101.26399","37.384132","1859701","0.742913"
"101.26399","37.384132","1859718","0.7438905"
"101.12398","37.384132","1859734","0.74486804"
"100.99396","37.374134","1859751","0.74584556"
"100.70392","37.374134","1859768","0.7468231"
"100.5539","37.404133","1859784","0.7468231"
"100.463875","37.424137","1859801","0.74486804"
"100.31386","37.44414","1859818","0.742913"
"100.15384","37.44414","1859834","0.7438905"
"99.83379","37.49415","1859851","0.74486804"
"99.65378","37.524147","1859868","0.7438905"
"99.45374","37.56415","1859884","0.7438905"
"99.27371","37.61416","1859901","0.742913"
"98.953674","37.804176","1859918","0.75855327"
"98.78365","37.894188","1859934","0.75757575"
"98.67364","37.914192","1859951","0.7419355"
"98.34359","38.014202","1859968","0.75659823"
"98.16357","38.124214","1859984","0.7722385"
"97.863525","38.36424","1860001","0.740958"
"97.6935","38.464252","1860018","0.71260995"
"97.49347","38.59427","1860034","0.71260995"
"97.30345","38.694275","1860051","0.71163243"
"97.213425","38.72428","1860068","0.7106549"
"96.90339","38.944305","1860084","0.7096774"
"96.76337","39.024315","1860101","0.7096774"
"96.633354","39.114323","1860118","0.7096774"
"96.53334","39.134323","1860134","0.71652"
"96.2433","39.37435","1860151","0.7243402"
"96.2033","39.504368","1860168","0.7233627"
"96.163284","39.654385","1860184","0.72140765"
"96.14328","39.7744","1860200","0.72140765"
"96.14328","39.874405","1860218","0.72140765"
"96.88339","41.014534","1860301","0.71163243"
"97.19343","41.42458","1860318","0.7106549"
"97.433464","41.69461","1860334","0.7106549"
"97.683495","41.944633","1860351","0.71163243"
"97.97353","42.224667","1860368","0.71163243"
"98.34359","42.60471","1860384","0.714565"
"98.483604","42.834732","1860401","0.72043014"
"98.823654","43.034756","1860418","0.71652"
"99.21371","43.214775","1860434","0.70674485"
"99.48375","43.394794","1860451","0.70576733"
"99.8538","43.69483","1860468","0.70674485"
"100.07383","43.914852","1860484","0.70772237"
"100.303856","44.14488","1860501","0.70576733"
"100.5539","44.404907","1860518","0.69990224"
"100.853935","44.824955","1860534","0.6969697"
"100.94395","44.954967","1860551","0.6979472"
"101.103966","45.204998","1860568","0.6989247"
"101.294","45.42502","1860584","0.6989247"
"101.45402","45.725056","1860601","0.6989247"
"101.73406","46.1551","1860618","0.70087975"
"101.93409","46.455135","1860634","0.70087975"
"102.15412","46.745167","1860651","0.70185727"
"102.384155","47.0352","1860668","0.70185727"
"102.61418","47.28523","1860684","0.70674485"
"102.974236","47.545258","1860701","0.70674485"
"103.214264","47.885292","1860718","0.70576733"
"103.45429","48.255333","1860734","0.70772237"
"103.69432","48.655376","1860751","0.7086999"
"104.01437","49.105427","1860768","0.70772237"
"104.21441","49.335453","1860784","0.7086999"
"104.40443","49.7255","1860801","0.7086999"
"104.58444","50.085537","1860818","0.70772237"
"104.76449","50.445576","1860834","0.7086999"
"104.9445","50.985634","1860851","0.69990224"
"105.164536","51.305668","1860868","0.70674485"
"105.414566","51.5957","1860884","0.7028348"
"105.574585","51.90574","1860901","0.69990224"
"105.71461","52.245773","1860918","0.69990224"
"105.92464","52.74583","1860934","0.70087975"
"106.02466","53.06587","1860951","0.70185727"
"106.124664","53.3559","1860968","0.70185727"
"106.17467","53.62593","1860984","0.7028348"
"106.26469","54.145985","1861001","0.7047898"
"106.3647","54.406017","1861018","0.7047898"
"106.46471","54.576035","1861034","0.7047898"
"106.4847","54.666042","1861051","0.7047898"
"106.56473","54.83606","1861068","0.70576733"
"106.61474","55.086094","1861084","0.70576733"
"106.66474","55.196102","1861101","0.70674485"
"106.70475","55.29611","1861118","0.70674485"
"106.73475","55.386124","1861132","0.70674485"
"106.75476","55.486134","1861151","0.70674485"
"106.75476","55.486134","1861162","0.70772237"
"106.77476","55.596146","1861184","0.70772237"
"106.77476","55.596146","1861201","0.7086999"
"106.79476","55.71616","1861218","0.7086999"
"106.834755","55.93618","1861234","0.70772237"
"106.85477","56.056194","1861251","0.70772237"
"106.884766","56.186214","1861268","0.70772237"
"106.90478","56.30623","1861284","0.70772237"
"106.90478","56.506245","1861301","0.70087975"
"106.97478","57.09631","1861318","0.7096774"
"107.014786","57.396343","1861334","0.7243402"
"107.03479","57.586365","1861351","0.7233627"
"107.134796","58.036415","1861384","0.7233627"
"107.19481","58.21644","1861401","0.7233627"
"107.23482","58.416454","1861418","0.7233627"
"107.25482","58.516468","1861434","0.7243402"
"107.27482","58.676487","1861451","0.7243402"
"107.29483","58.99652","1861468","0.7243402"
"107.29483","59.206547","1861484","0.7243402"
"107.29483","59.486576","1861501","0.7243402"
"107.27482","59.7166","1861518","0.7243402"
"107.26482","59.806606","1861534","0.7253177"
"107.24482","60.14665","1861551","0.7243402"
"107.24482","60.32667","1861568","0.7253177"
"107.24482","60.506687","1861583","0.7243402"
"107.24482","60.676704","1861601","0.7243402"
"107.24482","60.856724","1861618","0.7253177"
"107.24482","61.016747","1861634","0.7253177"
"107.27482","61.176765","1861651","0.7253177"
"107.29483","61.316776","1861668","0.7253177"
"107.37484","61.43679","1861684","0.72629523"
"107.43485","61.706818","1861701","0.72629523"
"107.45485","61.82683","1861718","0.7174975"
"107.51485","62.146873","1861734","0.71260995"
"107.59487","62.366894","1861751","0.7253177"
"107.62487","62.53691","1861764","0.73313785"
"107.70488","62.79694","1861784","0.73313785"
"107.73489","62.886948","1861801","0.73313785"
"107.76489","63.046967","1861818","0.73411536"
"107.814896","63.296997","1861834","0.7350929"
"107.88491","63.567024","1861851","0.73411536"
"107.91491","63.73705","1861868","0.73411536"
"107.94492","63.89706","1861884","0.73411536"
"107.96492","64.02708","1861901","0.73313785"
"107.99492","64.16709","1861914","0.73411536"
"108.02492","64.28711","1861933","0.73411536"
"108.05493","64.39712","1861951","0.73411536"
"108.07493","64.39712","1861968","0.73411536"
"108.15494","64.49713","1861982","0.7350929"
"108.17495","64.59714","1862001","0.73411536"
"108.17495","64.59714","1862018","0.7350929"
"108.26496","64.69715","1862027","0.7350929"
"108.35497","64.79716","1862061","0.7350929"
"108.38498","64.88717","1862084","0.7350929"
"108.40498","64.88717","1862095","0.7350929"
"108.495","64.97719","1862118","0.7350929"
"108.51499","65.077194","1862151","0.7350929"
"108.545","65.1872","1862168","0.7350929"
"108.595","65.277214","1862184","0.7350929"
"108.67502","65.37723","1862201","0.7350929"
"108.69502","65.487236","1862218","0.73411536"
"108.795044","65.58725","1862234","0.73411536"
"108.82504","65.69726","1862251","0.73411536"
"108.91505","65.807274","1862268","0.73411536"
"108.94505","65.91729","1862284","0.73411536"
"109.03507","66.017296","1862301","0.73313785"
"109.175095","66.24732","1862318","0.73411536"
"109.19509","66.35734","1862334","0.73313785"
"109.225105","66.467354","1862351","0.73313785"
"109.27511","66.577354","1862368","0.73216033"
"109.32511","66.79738","1862384","0.72140765"
"109.34511","66.907394","1862401","0.72825027"
"109.375114","67.0074","1862418","0.7350929"
"109.39511","67.107414","1862451","0.7350929"
"109.41511","67.197426","1862463","0.73411536"
"109.49513","67.28744","1862501","0.7350929"
"109.51513","67.37744","1862531","0.7350929"
"109.51513","67.37744","1862550","0.73411536"
"109.635155","67.45746","1862568","0.73411536"
"109.72517","67.487465","1862595","0.73313785"
"109.82519","67.59747","1862618","0.73411536"
"109.965195","67.61748","1862632","0.7350929"
"110.19522","67.72749","1862651","0.7380254"
"110.33524","67.8275","1862666","0.7380254"
"110.435265","67.9175","1862684","0.7380254"
"110.525276","68.007515","1862701","0.73900294"
"110.61529","68.12753","1862718","0.7380254"
"110.70529","68.24754","1862734","0.7370479"
"110.80531","68.36755","1862751","0.7370479"
"110.88532","68.52757","1862768","0.7370479"
"111.08534","68.89761","1862784","0.7360704"
"111.195366","69.07764","1862801","0.7360704"
"111.315384","69.27766","1862818","0.7360704"
"111.45541","69.467674","1862834","0.7350929"
"111.665436","69.74771","1862851","0.7350929"
"111.80546","69.94773","1862868","0.73411536"
"111.97548","70.11775","1862884","0.73216033"
"112.18549","70.22776","1862901","0.7311828"
"112.43553","70.367775","1862918","0.7311828"
"112.665565","70.5078","1862934","0.7302053"
"112.925606","70.68781","1862951","0.7292278"
"113.11564","70.79783","1862967","0.72825027"
"113.285645","70.92784","1862984","0.72825027"
"113.5557","71.07786","1863001","0.72825027"
"113.75572","71.187874","1863018","0.72629523"
"113.95575","71.28788","1863034","0.7253177"
"114.15577","71.40789","1863051","0.7243402"
"114.3358","71.60792","1863068","0.7253177"
"114.58583","71.797935","1863084","0.72238517"
"114.73586","71.89795","1863101","0.72238517"
"114.89588","72.01796","1863116","0.72140765"
"115.0459","72.14797","1863134","0.72043014"
"115.335945","72.30799","1863151","0.7253177"
"115.62597","72.448006","1863168","0.7350929"
"115.776","72.55802","1863184","0.73998046"
"115.91601","72.66803","1863201","0.73900294"
"116.05603","72.74804","1863218","0.73900294"
"116.32607","72.858055","1863234","0.7360704"
"116.4361","72.938065","1863251","0.7360704"
"116.5361","72.96807","1863268","0.7350929"
"116.646126","73.018074","1863284","0.73411536"
"116.73614","73.058075","1863301","0.73411536"
"116.846146","73.07808","1863313","0.73216033"
"116.936165","73.07808","1863334","0.7311828"
"117.056175","73.07808","1863368","0.7302053"
"117.266205","73.06808","1863384","0.7292278"
"117.266205","73.058075","1863401","0.7302053"
"117.35622","72.96807","1863418","0.7302053"
"117.37623","72.87805","1863434","0.72825027"
"117.396225","72.75804","1863451","0.7292278"
"117.35622","72.408005","1863468","0.7292278"
"117.20619","72.18798","1863484","0.7311828"
"117.02618","71.93795","1863501","0.73216033"
"116.74613","71.63792","1863518","0.73216033"
"116.31607","71.20787","1863534","0.7350929"
"116.02603","70.90784","1863551","0.7370479"
"115.73599","70.567795","1863568","0.73900294"
"115.39594","70.217766","1863584","0.7350929"
"115.02589","69.847725","1863601","0.72629523"
"114.56583","69.237656","1863618","0.72238517"
"114.3058","68.84761","1863634","0.7233627"
"114.09577","68.44756","1863651","0.7243402"
"113.895744","68.05752","1863668","0.7253177"
"113.71572","67.71748","1863684","0.72727275"
"113.50569","67.277435","1863701","0.72825027"
"113.385666","66.997406","1863718","0.7253177"
"113.27566","66.69737","1863734","0.7253177"
"113.15564","66.41734","1863751","0.72629523"
"113.035614","66.13731","1863768","0.72727275"
"112.93561","65.68726","1863784","0.72825027"
"112.825584","65.41724","1863801","0.72825027"
"112.75559","65.1772","1863818","0.7292278"
"112.695564","64.97719","1863834","0.7292278"
"112.625565","64.79716","1863851","0.7302053"
"112.585556","64.627144","1863868","0.7302053"
"112.54555","64.45712","1863884","0.7302053"
"112.495544","64.32711","1863901","0.7302053"
"112.46554","64.2271","1863918","0.7302053"
"112.46554","64.02708","1863934","0.7311828"
"112.46554","64.02708","1863951","0.7302053"
"112.585556","63.97707","1863968","0.72825027"
"112.715576","63.967068","1863982","0.72825027"
"112.825584","63.967068","1864001","0.72825027"
"112.96561","64.06708","1864018","0.72629523"
"113.23565","64.307106","1864034","0.7243402"
"113.465675","64.507126","1864051","0.7233627"
"113.68571","64.77716","1864068","0.72140765"
"114.02576","65.28722","1864084","0.72043014"
"114.25579","65.657265","1864101","0.71847504"
"114.475815","66.0273","1864118","0.7174975"
"114.68585","66.39734","1864134","0.7155425"
"114.87587","66.77738","1864151","0.7086999"
"115.335945","67.38745","1864168","0.72140765"
"115.65598","67.72749","1864184","0.7360704"
"115.76599","68.03752","1864201","0.7350929"
"115.91601","68.31755","1864218","0.73411536"
"116.136055","68.7176","1864234","0.73313785"
"116.26606","68.947624","1864251","0.73216033"
"116.39608","69.15764","1864268","0.7302053"
"116.52611","69.33766","1864284","0.7292278"
"116.65612","69.517685","1864301","0.7292278"
"116.86614","69.85772","1864318","0.72825027"
"116.976166","70.07774","1864334","0.72727275"
"117.10617","70.27776","1864351","0.72629523"
"117.2562","70.43778","1864368","0.7253177"
"117.36623","70.567795","1864381","0.72629523"
"117.46623","70.697815","1864401","0.7253177"
"117.58624","70.82783","1864418","0.7243402"
"117.71628","70.947845","1864434","0.7233627"
"117.86629","71.067856","1864451","0.7233627"
"118.15633","71.25787","1864468","0.72140765"
"118.31636","71.347885","1864484","0.7194526"
"118.45637","71.427895","1864501","0.7194526"
"118.576385","71.507904","1864516","0.7194526"
"118.706406","71.507904","1864534","0.71847504"
"118.83642","71.597916","1864545","0.71358746"
"118.946434","71.62792","1864568","0.71847504"
"119.06646","71.62792","1864584","0.7174975"
"119.17647","71.597916","1864601","0.7155425"
"119.286476","71.4979","1864614","0.71652"
"119.3865","71.39789","1864634","0.71652"
"119.3865","71.29788","1864651","0.71652"
"119.3865","71.16787","1864668","0.71847504"
"119.376495","70.977844","1864684","0.7194526"
"119.146454","70.5978","1864701","0.72140765"
"118.90644","70.287766","1864718","0.7243402"
"118.576385","69.967735","1864734","0.72727275"
"118.17634","69.61769","1864751","0.7302053"
"117.71628","69.24766","1864768","0.73313785"
"117.136185","68.587585","1864784","0.7360704"
"116.83614","68.13753","1864801","0.7380254"
"116.5561","67.69748","1864818","0.73998046"
"116.31607","67.29744","1864834","0.7419355"
"116.006035","66.65737","1864851","0.7419355"
"115.796005","66.18731","1864868","0.7419355"
"115.585976","65.73727","1864884","0.742913"
"115.21592","65.247215","1864901","0.73411536"
"114.87587","64.747154","1864918","0.72629523"
"114.62584","64.017075","1864934","0.72825027"
"114.50582","63.587032","1864951","0.7292278"
"114.43582","63.20699","1864968","0.7292278"
"114.3358","62.906956","1864984","0.7302053"
"114.2958","62.656925","1865001","0.7302053"
"114.25579","62.4569","1865018","0.7292278"
"114.25579","62.296886","1865034","0.7292278"
"114.25579","62.12687","1865051","0.71652"
"114.27579","61.89684","1865065","0.71163243"
"114.3058","61.776825","1865084","0.7194526"
"114.45582","61.67682","1865118","0.7194526"
"114.57583","61.66682","1865133","0.7174975"
"114.68585","61.66682","1865151","0.71652"
"114.79586","61.69682","1865167","0.7155425"
"115.0659","61.80683","1865184","0.7194526"
"115.37594","61.98685","1865201","0.71847504"
"115.63599","62.216877","1865218","0.72727275"
"115.826004","62.4269","1865234","0.73998046"
"116.10604","62.78694","1865251","0.7370479"
"116.30607","63.076977","1865268","0.7360704"
"116.51609","63.387005","1865284","0.73411536"
"116.726135","63.727043","1865301","0.73313785"
"117.03618","64.317116","1865318","0.73313785"
"117.266205","64.72715","1865334","0.7311828"
"117.49623","65.117195","1865351","0.7292278"
"117.71628","65.49724","1865368","0.72825027"
"117.936295","65.87728","1865384","0.72629523"
"118.25633","66.40734","1865401","0.7243402"
"118.446365","66.77738","1865417","0.72043014"
"118.64639","67.09742","1865434","0.72140765"
"118.776405","67.327446","1865451","0.7253177"
"119.01645","67.68748","1865467","0.7243402"
"119.13647","67.89751","1865484","0.7243402"
"119.25649","68.09753","1865501","0.7233627"
"119.3865","68.28755","1865516","0.72140765"
"119.51652","68.44756","1865534","0.72043014"
"119.65654","68.577576","1865551","0.7194526"
"119.77655","68.7276","1865567","0.7194526"
"119.89657","68.84761","1865584","0.71847504"
"120.01658","68.95763","1865601","0.7174975"
"120.1466","68.987625","1865617","0.7174975"
"120.36663","69.067635","1865634","0.7155425"
"120.47665","69.067635","1865651","0.7155425"
"120.47665","69.067635","1865667","0.72629523"
"120.47665","69.067635","1865684","0.7360704"
"120.49665","69.03763","1865701","0.7360704"
"120.49665","69.01763","1865717","0.7350929"
"120.606674","68.907616","1865734","0.7350929"
"120.606674","68.80761","1865751","0.7360704"
"120.62667","68.56758","1865767","0.7370479"
"120.606674","68.26755","1865784","0.7380254"
"120.55666","68.02752","1865801","0.7380254"
"120.49665","67.73749","1865817","0.7380254"
"120.44664","67.407455","1865834","0.73313785"
"120.44664","67.01741","1865851","0.72825027"
"120.19661","66.33733","1865867","0.7194526"
"119.94658","65.87728","1865884","0.72140765"
"119.71654","65.38723","1865901","0.7233627"
"119.46651","64.85717","1865917","0.7253177"
"119.01645","64.12708","1865934","0.72629523"
"118.736404","63.657032","1865951","0.72825027"
"118.47638","63.186985","1865967","0.7302053"
"118.236336","62.72693","1865984","0.7311828"
"118.026306","62.246883","1866001","0.7370479"
"117.686264","61.496796","1866017","0.7302053"
"117.566246","61.13676","1866034","0.72629523"
"117.526245","60.81672","1866051","0.72629523"
"117.516235","60.556694","1866067","0.72629523"
"117.566246","60.35667","1866080","0.7253177"
"117.66627","60.216656","1866101","0.7253177"
"117.76628","60.116642","1866117","0.7243402"
"117.8763","60.03664","1866134","0.7233627"
"118.0063","60.006638","1866151","0.72238517"
"118.25633","59.98663","1866167","0.72140765"
"118.37636","60.06664","1866184","0.72043014"
"118.50638","60.166653","1866201","0.7194526"
"118.656395","60.32667","1866217","0.71847504"
"119.13647","61.00675","1866251","0.714565"
"119.3665","61.386787","1866267","0.71260995"
"119.586525","61.846836","1866284","0.70087975"
"119.82656","62.32689","1866301","0.7047898"
"120.16661","62.93696","1866317","0.71652"
"120.346634","63.296997","1866334","0.714565"
"120.53666","63.667038","1866351","0.71358746"
"120.586655","64.06708","1866367","0.7243402"
"120.70668","64.47713","1866384","0.73313785"
"121.04673","64.997185","1866401","0.73216033"
"121.23675","65.31722","1866417","0.7302053"
"121.43678","65.61725","1866434","0.7292278"
"121.656815","65.91729","1866451","0.7292278"
"121.88684","66.20732","1866467","0.72727275"
"121.94685","66.58736","1866484","0.7243402"
"122.116875","66.80739","1866501","0.72825027"
"122.36691","67.04742","1866517","0.7302053"
"122.60694","67.20743","1866534","0.72727275"
"122.886986","67.43746","1866551","0.7233627"
"123.067","67.49746","1866567","0.7233627"
"123.15701","67.57747","1866584","0.7233627"
"123.307045","67.59747","1866601","0.72140765"
"123.427055","67.67748","1866617","0.72043014"
"123.51706","67.67748","1866628","0.72238517"
"123.61708","67.67748","1866651","0.72238517"
"123.61708","67.67748","1866663","0.72140765"
"123.637085","67.487465","1866701","0.7243402"
"123.60707","67.36745","1866717","0.7243402"
"123.48707","67.197426","1866734","0.72629523"
"123.427055","66.9674","1866751","0.7311828"
"123.297035","66.67737","1866767","0.7292278"
"123.077","66.227325","1866784","0.7253177"
"122.916985","65.90728","1866801","0.72629523"
"122.73696","65.567245","1866817","0.72727275"
"122.546936","65.1872","1866834","0.7302053"
"122.34692","64.77716","1866851","0.7311828"
"121.96685","64.107086","1866867","0.73216033"
"121.85684","63.647034","1866884","0.73313785"
"121.75682","63.19699","1866901","0.73411536"
"121.50679","62.756935","1866917","0.7360704"
"121.18674","62.18687","1866934","0.73216033"
"120.95671","61.85684","1866951","0.72825027"
"120.76669","61.566807","1866967","0.7302053"
"120.72668","61.29678","1866984","0.72629523"
"120.72668","61.02674","1867001","0.71652"
"120.67667","60.636703","1867017","0.71260995"
"120.61667","60.376675","1867034","0.71358746"
"120.56666","60.116642","1867051","0.71358746"
"120.53666","59.876617","1867067","0.71358746"
"120.50666","59.616592","1867084","0.71358746"
"120.47665","59.22655","1867101","0.714565"
"120.46665","59.116535","1867117","0.714565"
"120.46665","58.99652","1867134","0.71358746"
"120.49665","58.896507","1867144","0.71260995"
"120.61667","58.7965","1867167","0.71260995"
"120.61667","58.7965","1867184","0.71652"
"120.61667","58.7965","1867201","0.7253177"
"120.72668","58.88651","1867217","0.7292278"
"120.81669","58.93652","1867234","0.72727275"
"121.26676","59.46657","1867251","0.7243402"
"121.5668","59.876617","1867267","0.72238517"
"121.84684","60.27666","1867284","0.72043014"
"121.996864","60.686707","1867301","0.7194526"
"122.3069","61.316776","1867317","0.7174975"
"122.56693","61.72682","1867334","0.7155425"
"122.796974","62.146873","1867351","0.7194526"
"123.037","62.546913","1867367","0.7233627"
"123.297035","62.896954","1867384","0.72238517"
"123.51706","63.477016","1867401","0.7292278"
"123.56707","63.827057","1867417","0.7438905"
"123.7271","64.12708","1867434","0.75073314"
"123.92714","64.37711","1867451","0.7497556"
"124.11714","64.59714","1867467","0.7497556"
"124.28718","64.89717","1867484","0.7478006"
"124.4172","65.077194","1867501","0.7468231"
"124.567215","65.22721","1867517","0.7468231"
"124.67724","65.35722","1867532","0.74584556"
"124.78725","65.487236","1867550","0.74584556"
"124.88726","65.59725","1867565","0.74584556"
"124.98727","65.70727","1867584","0.7438905"
"125.08729","65.807274","1867598","0.742913"
"125.207306","65.90728","1867617","0.742913"
"125.32732","65.90728","1867634","0.7438905"
"125.41733","65.90728","1867667","0.742913"
"125.50735","65.79727","1867697","0.7438905"
"125.50735","65.68726","1867716","0.7438905"
"125.50735","65.527245","1867734","0.74486804"
"125.50735","65.26722","1867751","0.7468231"
"125.50735","65.04719","1867767","0.7468231"
"125.45734","64.61714","1867784","0.7468231"
"125.34731","64.27711","1867801","0.7487781"
"125.157295","63.887062","1867817","0.7497556"
"124.98727","63.477016","1867834","0.75073314"
"124.78725","63.106976","1867851","0.75268817"
"124.49721","62.63693","1867867","0.7546432"
"124.31718","62.386894","1867884","0.7556207"
"124.17717","62.116867","1867901","0.7497556"
"123.947136","61.85684","1867917","0.740958"
"123.70709","61.476795","1867934","0.7350929"
"123.66708","61.216763","1867951","0.72629523"
"123.54707","61.00675","1867967","0.72043014"
"123.36704","60.81672","1867984","0.72140765"
"123.177025","60.6267","1868001","0.7233627"
"122.89699","60.33667","1868017","0.7253177"
"122.706955","60.156654","1868034","0.72629523"
"122.52693","59.98663","1868051","0.72727275"
"122.336914","59.796608","1868067","0.7292278"
"122.09687","59.596592","1868084","0.73216033"
"121.84684","59.246548","1868101","0.7360704"
"121.82683","59.02652","1868117","0.73900294"
"121.5968","58.8265","1868134","0.7419355"
"121.38677","58.636482","1868151","0.7438905"
"121.07673","58.34645","1868167","0.7468231"
"120.856705","58.146427","1868184","0.7487781"
"120.71668","57.936405","1868201","0.74584556"
"120.59667","57.71638","1868217","0.7380254"
"120.40664","57.516354","1868234","0.7350929"
"120.0566","57.316334","1868251","0.7380254"
"119.79655","56.996304","1868267","0.7302053"
"119.536514","56.726273","1868284","0.72238517"
"119.296486","56.60626","1868301","0.7243402"
"119.08646","56.476246","1868317","0.7253177"
"118.76642","56.326225","1868334","0.72825027"
"118.54639","56.206215","1868351","0.7292278"
"118.31636","56.0962","1868367","0.7302053"
"118.07632","56.046196","1868384","0.73216033"
"117.726265","55.956184","1868401","0.73313785"
"117.50623","55.846172","1868417","0.73411536"
"117.2962","55.71616","1868434","0.7360704"
"117.11618","55.596146","1868451","0.7370479"
"116.96616","55.55614","1868467","0.7380254"
"116.82615","55.466125","1868479","0.73900294"
"116.69612","55.42613","1868501","0.73998046"
"116.58611","55.376118","1868517","0.73998046"
"116.46609","55.28611","1868534","0.740958"
"116.256065","55.166096","1868551","0.742913"
"116.14605","55.136097","1868567","0.7438905"
"116.05603","55.096092","1868584","0.7438905"
"116.05603","55.076088","1868601","0.7438905"
"115.94602","54.976078","1868607","0.74486804"
"115.826004","54.926075","1868634","0.74584556"
"115.72599","54.83606","1868651","0.74584556"
"115.61598","54.796062","1868684","0.7468231"
"115.51596","54.706047","1868696","0.7478006"
"115.41594","54.626038","1868717","0.7487781"
"115.29594","54.586033","1868734","0.7438905"
"115.16591","54.47602","1868751","0.73900294"
"115.16591","54.47602","1868767","0.73998046"
"114.94589","54.356007","1868784","0.7370479"
"114.79586","54.246","1868801","0.73313785"
"114.71585","54.155983","1868817","0.73411536"
"114.60584","54.045975","1868834","0.7350929"
"114.50582","53.94596","1868851","0.7370479"
"114.3058","53.71594","1868867","0.7380254"
"114.22578","53.615925","1868884","0.73900294"
"114.22578","53.615925","1868901","0.73998046"
"114.105774","53.485912","1868911","0.73998046"
"113.99575","53.395897","1868934","0.740958"
"113.885735","53.27589","1868951","0.7419355"
"113.79573","53.16588","1868980","0.742913"
"113.71572","53.055862","1869001","0.742913"
"113.6157","52.93585","1869017","0.742913"
"113.5757","52.84584","1869034","0.742913"
"113.48568","52.755833","1869051","0.7438905"
"113.37566","52.63582","1869077","0.74486804"
"113.26565","52.515804","1869101","0.74584556"
"113.215645","52.42579","1869117","0.74584556"
"113.10563","52.33579","1869134","0.7468231"
"113.00562","52.25577","1869151","0.7468231"
"112.825584","52.065758","1869167","0.7478006"
"112.72558","51.975746","1869184","0.7487781"
"112.61557","51.875732","1869201","0.7497556"
"112.495544","51.775726","1869217","0.75073314"
"112.38553","51.64571","1869231","0.75171065"
"112.27551","51.525692","1869251","0.75268817"
"112.17551","51.425682","1869267","0.75268817"
"112.075485","51.29567","1869284","0.7536657"
"111.98547","51.165657","1869301","0.7536657"
"111.87546","51.065643","1869317","0.7497556"
"111.695435","50.80562","1869334","0.73900294"
"111.60542","50.675602","1869351","0.7487781"
"111.4154","50.415577","1869384","0.7546432"
"111.325386","50.265556","1869397","0.7556207"
"111.235374","50.145542","1869414","0.75659823"
"111.145355","50.005527","1869434","0.75659823"
"111.03535","49.855515","1869451","0.75757575"
"110.93533","49.715496","1869467","0.75855327"
"110.7953","49.48547","1869484","0.75855327"
"110.6253","49.205437","1869501","0.7595308"
"110.46526","49.075424","1869517","0.7595308"
"110.305244","49.065426","1869534","0.75855327"
"110.19522","48.93541","1869551","0.75855327"
"109.89518","48.615376","1869567","0.75757575"
"109.71515","48.39535","1869584","0.75855327"
"109.52515","48.175323","1869601","0.75855327"
"109.375114","47.955303","1869615","0.7595308"
"109.125084","47.67527","1869634","0.7595308"
"108.95506","47.46525","1869651","0.7605083"
"108.76503","47.255222","1869667","0.7605083"
"108.555","47.245224","1869684","0.7595308"
"108.34497","47.215218","1869701","0.7595308"
"108.02492","46.875183","1869717","0.7595308"
"107.814896","46.665157","1869734","0.75855327"
"107.61487","46.455135","1869751","0.75757575"
"107.41485","46.255108","1869767","0.75757575"
"107.134796","45.925076","1869784","0.76246333"
"106.964775","45.715057","1869801","0.7605083"
"106.79476","45.545033","1869817","0.7605083"
"106.674736","45.355015","1869834","0.7605083"
"106.52472","45.134987","1869851","0.7595308"
"106.3647","45.014973","1869867","0.75855327"
"106.214676","44.884964","1869884","0.7605083"
"106.07465","44.73494","1869901","0.7614858"
"105.95465","44.51492","1869917","0.76246333"
"105.80463","44.334904","1869934","0.7614858"
"105.624596","44.014862","1869951","0.7605083"
"105.47458","43.824844","1869967","0.76246333"
"105.244545","43.60482","1869984","0.7653959"
"105.064514","43.394794","1870001","0.7673509"
"104.9145","43.024757","1870017","0.76441836"
"104.8745","42.774727","1870034","0.77028346"
"104.72447","42.5447","1870051","0.78103614"
"104.55444","42.324677","1870067","0.78103614"
"104.364426","42.094654","1870084","0.78103614"
"104.104385","41.69461","1870101","0.78103614"
"103.894356","41.474583","1870117","0.7790811"
"103.724335","41.23456","1870134","0.7781036"
"103.594315","41.004536","1870151","0.7771261"
"103.384285","40.80451","1870167","0.77614856"
"103.134254","40.584488","1870184","0.7771261"
"103.05424","40.394466","1870201","0.7781036"
"102.94422","40.234447","1870217","0.7781036"
"102.8142","40.044426","1870234","0.77614856"
"102.75419","39.854404","1870251","0.77614856"
"102.62418","39.584373","1870267","0.77614856"
"102.58418","39.484364","1870284","0.77517104"
"102.46416","39.324345","1870301","0.7771261"
"102.34414","39.06432","1870317","0.77614856"
"102.29413","38.9143","1870334","0.77517104"
"102.19412","38.784286","1870351","0.77614856"
"102.10411","38.63427","1870367","0.77614856"
"101.9941","38.384243","1870384","0.77614856"
"101.80407","38.19422","1870401","0.8044966"
"101.72406","38.004204","1870417","0.8181818"
"101.62404","37.954197","1870434","0.80254155"
"101.49402","37.794178","1870451","0.8005865"
"101.384","37.70417","1870467","0.8044966"
"101.17397","37.524147","1870484","0.80840665"
"101.023964","37.49415","1870501","0.80840665"
"100.86394","37.46414","1870517","0.80938417"
"100.66391","37.404133","1870534","0.80742913"
"100.43388","37.384132","1870551","0.80742913"
"100.053825","37.404133","1870567","0.8044966"
"99.77379","37.424137","1870584","0.8054741"
"99.48375","37.47414","1870601","0.8044966"
"99.19371","37.514145","1870617","0.80351907"
"98.75364","37.654163","1870634","0.80156404"
"98.493614","37.754173","1870651","0.80156404"
"98.26359","37.864185","1870667","0.799609"
"98.14356","37.954197","1870684","0.8172043"
"97.853516","38.19422","1870701","0.80351907"
"97.6635","38.464252","1870717","0.771261"
"97.47347","38.544262","1870734","0.76930594"
"97.323456","38.64427","1870751","0.77028346"
"97.18343","38.764286","1870764","0.771261"
"97.04341","38.864292","1870784","0.77028346"
"96.90339","38.9143","1870801","0.76930594"
"96.633354","39.024315","1870817","0.771261"
"96.45333","39.024315","1870834","0.7741935"
"96.34331","39.044315","1870851","0.77614856"
"95.97327","39.08432","1870867","0.7790811"
"95.833244","39.08432","1870884","0.7781036"
"95.68322","39.054317","1870901","0.7790811"
"95.5432","39.034313","1870917","0.7781036"
"95.413185","38.934303","1870929","0.7771261"
"95.28317","38.844296","1870950","0.7771261"
"95.153145","38.79429","1870967","0.77614856"
"95.033134","38.694275","1870984","0.77517104"
"94.92311","38.59427","1871001","0.77517104"
"94.76309","38.36424","1871017","0.80351907"
"94.613075","38.04421","1871034","0.81524926"
"94.46306","37.854183","1871051","0.799609"
"94.32304","37.71417","1871064","0.799609"
"94.16301","37.574154","1871084","0.7986315"
"93.90298","37.29412","1871101","0.79569894"
"93.74296","37.15411","1871117","0.7947214"
"93.58293","36.974087","1871134","0.7927664"
"93.46291","36.764065","1871151","0.79081136"
"93.3129","36.594044","1871167","0.79081136"
"93.19287","36.404026","1871184","0.78983384"
"93.08286","36.244003","1871201","0.7888563"
"92.97285","36.08399","1871217","0.7878788"
"92.87283","35.933975","1871234","0.7878788"
"92.672806","35.693943","1871251","0.78983384"
"92.572784","35.54393","1871267","0.7878788"
"92.47278","35.38391","1871284","0.78494626"
"92.35277","35.283897","1871299","0.78299123"
"92.24275","35.153885","1871317","0.78299123"
"92.13273","35.023872","1871334","0.7800586"
"92.01272","34.983868","1871350","0.7800586"
"91.8927","34.893856","1871367","0.7800586"
"91.79268","34.80385","1871384","0.7790811"
"91.59266","34.613827","1871401","0.77517104"
"91.44264","34.533817","1871417","0.7800586"
"91.30262","34.423805","1871434","0.78494626"
"91.2026","34.373802","1871451","0.7859238"
"91.04258","34.20378","1871467","0.78396875"
"90.822556","33.893745","1871484","0.78103614"
"90.722534","33.73373","1871500","0.7800586"
"90.62252","33.613716","1871517","0.7781036"
"90.522514","33.4737","1871534","0.7771261"
"90.4325","33.323685","1871547","0.7781036"
"90.34248","33.20367","1871567","0.77517104"
"90.20247","32.883633","1871584","0.7771261"
"90.08245","32.65361","1871600","0.8064516"
"90.04244","32.49359","1871617","0.8250244"
"89.80241","32.143555","1871634","0.81524926"
"89.67239","31.993534","1871650","0.8172043"
"89.53237","31.84352","1871667","0.8162268"
"89.37235","31.683504","1871684","0.81524926"
"89.202324","31.523483","1871700","0.81329423"
"88.93229","31.323463","1871717","0.81329423"
"88.742256","31.163445","1871734","0.8103617"
"88.55224","30.95342","1871750","0.80938417"
"88.34221","30.763401","1871767","0.80938417"
"88.04217","30.413359","1871784","0.80938417"
"87.84214","30.233341","1871800","0.80742913"
"87.63211","29.993315","1871817","0.8054741"
"87.43208","29.753288","1871834","0.8044966"
"87.23205","29.523264","1871850","0.8044966"
"86.92201","29.163223","1871867","0.80254155"
"86.73199","28.923199","1871884","0.80254155"
"86.56196","28.69317","1871900","0.80351907"
"86.39194","28.483149","1871917","0.8044966"
"86.17191","28.243122","1871934","0.80351907"
"85.791855","27.993095","1871950","0.8044966"
"85.611824","27.78307","1871967","0.8064516"
"85.4418","27.613052","1871984","0.8044966"
"85.26178","27.473038","1872000","0.7917889"
"85.17177","27.393028","1872017","0.8123167"
"84.93174","27.213007","1872034","0.84652984"
"84.6917","26.942978","1872050","0.84652984"
"84.52168","26.762959","1872067","0.84750736"
"84.33166","26.562935","1872084","0.84750736"
"84.06162","26.2329","1872100","0.84652984"
"83.86159","26.072882","1872117","0.84652984"
"83.681564","25.87286","1872134","0.8455523"
"83.49154","25.632833","1872150","0.8455523"
"83.311516","25.592829","1872167","0.8445748"
"83.06148","25.572826","1872184","0.8455523"
"82.881454","25.332802","1872200","0.8455523"
"82.69143","25.092773","1872217","0.8445748"
"82.27137","24.582718","1872250","0.84359723"
"82.11134","24.392696","1872267","0.8416422"
"81.96133","24.202675","1872284","0.8416422"
"81.7813","24.002653","1872300","0.8406647"
"81.611275","23.97265","1872317","0.8445748"
"81.35124","23.70262","1872334","0.8494624"
"81.13122","23.322577","1872350","0.84652984"
"80.93118","23.002542","1872367","0.8445748"
"80.76116","22.762516","1872384","0.8445748"
"80.64114","22.552492","1872400","0.8455523"
"80.3711","22.152449","1872417","0.8455523"
"80.21108","21.842415","1872434","0.8445748"
"80.05106","21.492376","1872450","0.8445748"
"79.881035","21.242348","1872467","0.84359723"
"79.64101","20.89231","1872484","0.8445748"
"79.51098","20.63228","1872500","0.84359723"
"79.390976","20.342249","1872517","0.84359723"
"79.27095","20.062218","1872534","0.8445748"
"79.15094","19.782188","1872550","0.8445748"
"79.000916","19.292131","1872567","0.8172043"
"78.86089","18.962097","1872584","0.7917889"
"78.73088","18.692066","1872600","0.8005865"
"78.61086","18.37203","1872617","0.8103617"
"78.47085","18.081999","1872634","0.8103617"
"78.26082","17.691956","1872650","0.80840665"
"78.1008","17.361917","1872667","0.8103617"
"77.92076","17.031883","1872684","0.8123167"
"77.740746","16.691845","1872700","0.8123167"
"77.4707","16.181787","1872717","0.8103617"
"77.30068","15.881755","1872734","0.8113392"
"77.14066","15.601725","1872750","0.8103617"
"76.99064","15.311692","1872767","0.80840665"
"76.75061","14.901648","1872784","0.8103617"
"76.640594","14.511603","1872800","0.8103617"
"76.52058","14.131562","1872817","0.8005865"
"76.36055","13.851531","1872834","0.7869013"
"76.24054","13.571501","1872850","0.75073314"
"76.02051","13.12145","1872867","0.73216033"
"75.9505","12.831417","1872884","0.7311828"
"75.830475","12.531385","1872900","0.7311828"
"75.72047","12.201348","1872917","0.73313785"
"75.61044","11.861311","1872934","0.73313785"
"75.420425","11.381258","1872950","0.7311828"
"75.32041","11.151232","1872967","0.7302053"
"75.20039","10.911205","1872984","0.7302053"
"75.14038","10.651177","1873000","0.7292278"
"75.04037","10.40115","1873017","0.7302053"
"74.84035","10.061112","1873034","0.7292278"
"74.79034","9.781081","1873050","0.7292278"
"74.77033","9.781081","1873067","0.72825027"
"74.570305","9.341033","1873084","0.70674485"
"74.570305","9.341033","1873100","0.684262"
"74.570305","8.880981","1873117","0.72238517"
"74.570305","8.880981","1873134","0.72140765"
"74.570305","8.880981","1873150","0.6803519"
"74.80034","8.440932","1873167","0.6783969"
"74.80034","8.440932","1873184","0.6744868"
"74.80034","8.440932","1873200","0.68817204"
"75.23039","8.100895","1873217","0.70576733"
"75.23039","8.100895","1873232","0.72727275"
"75.63045","7.830866","1873250","0.72629523"
"75.63045","7.830866","1873267","0.70674485"
"76.10052","7.620843","1873284","0.7194526"
"76.10052","7.620843","1873300","0.7478006"
"76.580574","7.42082","1873317","0.7614858"
"76.580574","7.42082","1873334","0.75855327"
"77.03064","7.2708035","1873350","0.75757575"
"77.03064","7.2708035","1873367","0.75659823"
"77.4407","7.1807933","1873382","0.7663734"
"77.87076","7.1307883","1873417","0.76441836"
"78.32082","7.210797","1873434","0.76344085"
"78.32082","7.210797","1873450","0.7536657"
"78.790886","7.3408113","1873465","0.7536657"
"78.790886","7.3408113","1873484","0.75268817"
"79.28096","7.590839","1873500","0.76344085"
"79.28096","7.590839","1873517","0.76441836"
"79.73102","7.7808604","1873533","0.7546432"
"79.73102","7.7808604","1873550","0.7653959"
"80.191086","8.000885","1873567","0.78299123"
"80.64114","8.210908","1873584","0.78299123"
"80.64114","8.210908","1873600","0.7556207"
"81.15121","8.490938","1873617","0.7536657"
"81.15121","8.490938","1873634","0.7869013"
"81.56127","8.690961","1873650","0.78201365"
"82.051346","8.960991","1873667","0.80156404"
"82.051346","8.960991","1873684","0.7917889"
"82.57141","9.281026","1873700","0.7937439"
"82.99147","9.511052","1873717","0.81329423"
"83.24151","9.801083","1873734","0.79667646"
"83.50154","10.04111","1873750","0.7800586"
"83.771576","10.251134","1873767","0.78299123"
"84.04162","10.481158","1873784","0.78494626"
"84.44167","10.801194","1873800","0.78396875"
"84.6917","11.021218","1873817","0.78494626"
"84.93174","11.241242","1873834","0.78494626"
"85.15177","11.461267","1873850","0.7859238"
"85.48181","11.861311","1873867","0.7859238"
"85.70185","12.171346","1873884","0.7859238"
"85.93187","12.521384","1873900","0.7888563"
"86.19191","12.871424","1873917","0.7986315"
"86.44195","13.221461","1873934","0.8103617"
"86.801994","13.701515","1873950","0.81524926"
"87.03202","14.041553","1873967","0.8162268"
"87.29207","14.351587","1873984","0.8172043"
"87.59211","14.781634","1874000","0.8191593"
"87.88215","15.211681","1874017","0.82111436"
"88.3122","15.611726","1874034","0.8191593"
"88.64225","15.981767","1874050","0.82013685"
"88.9923","16.421816","1874067","0.82111436"
"89.33235","16.851864","1874084","0.82013685"
"89.83241","17.63195","1874100","0.82111436"
"90.132454","18.112001","1874117","0.82111436"
"90.4325","18.552052","1874134","0.8172043"
"90.71253","19.002102","1874150","0.8172043"
"91.072586","19.432146","1874167","0.8338221"
"91.47263","20.072218","1874184","0.8445748"
"91.742676","20.502268","1874200","0.8455523"
"92.002716","20.872307","1874217","0.8455523"
"92.23275","21.192343","1874234","0.8484849"
"92.49278","21.592386","1874250","0.8484849"
"92.912834","22.322468","1874267","0.8504399"
"93.18287","22.79252","1874284","0.8367546"
"93.48291","23.242569","1874300","0.8162268"
"93.83296","23.482595","1874317","0.8220919"
"94.133","23.862637","1874334","0.83186704"
"94.43305","24.212675","1874350","0.83186704"
"94.663086","24.532713","1874367","0.8338221"
"94.873116","24.79274","1874384","0.8357771"
"95.05314","25.052767","1874400","0.83773214"
"95.30317","25.222788","1874417","0.83870965"
"95.44319","25.322798","1874434","0.83968717"
"95.573204","25.412811","1874450","0.8406647"
"95.68322","25.552824","1874467","0.8406647"
"95.76324","25.672838","1874482","0.8416422"
"95.873245","25.772848","1874500","0.8426197"
"95.90325","25.882862","1874517","0.8426197"
"96.043274","25.962872","1874533","0.8426197"
"96.18329","25.98287","1874550","0.83968717"
"96.2833","26.102884","1874563","0.8367546"
"96.37332","26.2329","1874582","0.8367546"
"96.47333","26.362917","1874600","0.83870965"
"96.61336","26.60294","1874617","0.83870965"
"96.73336","26.792961","1874634","0.83968717"
"96.99341","27.213007","1874650","0.8406647"
"97.263435","27.60305","1874667","0.829912"
"97.45347","27.923086","1874684","0.80938417"
"97.57349","28.153114","1874700","0.79667646"
"97.83351","28.423143","1874717","0.799609"
"98.00354","28.643167","1874734","0.8005865"
"98.113556","28.843187","1874750","0.80351907"
"98.29358","29.003204","1874764","0.8044966"
"98.403595","29.13322","1874784","0.8054741"
"98.50361","29.24323","1874800","0.80840665"
"98.60363","29.343243","1874811","0.80840665"
"98.72363","29.463257","1874834","0.80840665"
"98.72363","29.463257","1874849","0.80840665"
"98.75364","29.563269","1874867","0.80840665"
"98.863655","29.653276","1874884","0.80156404"
"98.863655","29.653276","1874900","0.76246333"
"99.09369","29.703283","1874917","0.58651024"
"99.413734","29.463257","1874934","0.09384164"
"99.413734","29.003204","1874935","9.775171E-4"
"99.413734","29.003204","1874943","9.775171E-4"
