"85.4418","30.053322","875170","0.038123168"
"85.4418","30.053322","875172","0.038123168"
"85.4418","30.053322","875205","0.10166178"
"85.4418","30.053322","875239","0.20039101"
"85.52182","30.043322","875289","0.27174976"
"85.52182","30.043322","875305","0.2864125"
"85.52182","30.043322","875322","0.29618767"
"85.52182","30.043322","875339","0.30694038"
"85.52182","30.043322","875355","0.31671554"
"85.60183","29.943312","875372","0.3304008"
"85.60183","29.943312","875389","0.35874876"
"85.60183","29.943312","875405","0.36656892"
"85.69183","29.913305","875422","0.36656892"
"85.69183","29.913305","875439","0.36852396"
"85.78186","29.913305","875455","0.37341154"
"85.78186","29.913305","875472","0.3841642"
"85.88187","29.943312","875489","0.38807428"
"85.88187","29.96331","875505","0.39100683"
"86.001884","30.093327","875522","0.39589444"
"86.131905","30.31335","875539","0.40371457"
"86.381935","30.533373","875555","0.40664712"
"87.48209","31.463476","875622","0.42913002"
"87.75213","31.673502","875639","0.43597263"
"88.03216","31.873524","875655","0.44281524"
"88.35221","32.153553","875672","0.44868034"
"88.64225","32.49359","875689","0.43304008"
"89.08231","32.94364","875705","0.42619747"
"89.422356","33.303684","875722","0.44477028"
"89.7424","33.663723","875739","0.4623656"
"90.00243","33.93375","875755","0.47116324"
"90.34248","34.3938","875772","0.4848485"
"90.572525","34.81385","875789","0.49462366"
"90.90256","35.2639","875805","0.5024438"
"91.27261","35.72395","875822","0.5102639"
"91.66267","36.204002","875839","0.516129"
"92.19274","36.854073","875855","0.5268817"
"92.52278","37.244118","875872","0.53372437"
"92.912834","37.64416","875889","0.540567"
"93.382904","38.114216","875905","0.5347019"
"94.16301","38.894302","875922","0.53274685"
"94.663086","39.394356","875939","0.5415445"
"95.08314","39.8144","875955","0.5474096"
"95.45319","40.224445","875972","0.5552297"
"95.85325","40.65449","875989","0.5601173"
"96.513336","41.304565","876005","0.56207234"
"96.90339","41.69461","876022","0.56207234"
"97.233444","42.07465","876039","0.5669599"
"97.58348","42.454693","876055","0.5718475"
"97.913536","42.834732","876072","0.5777126"
"98.403595","43.4048","876089","0.5777126"
"98.78365","43.824844","876105","0.57575756"
"99.123695","44.264893","876122","0.5786901"
"99.463745","44.664936","876139","0.5796676"
"99.963806","45.234997","876155","0.5786901"
"100.303856","45.61504","876172","0.57478005"
"100.58389","46.015087","876189","0.57575756"
"100.83393","46.41513","876205","0.5796676"
"101.08396","46.80517","876222","0.5826002"
"101.44402","47.315228","876239","0.59335285"
"101.61404","47.535255","876255","0.599218"
"101.81406","47.795284","876272","0.597263"
"102.0341","48.11532","876289","0.599218"
"102.26413","48.40535","876305","0.60117304"
"102.62418","48.815395","876322","0.6031281"
"102.86421","49.155434","876339","0.6041056"
"103.05424","49.355457","876355","0.6050831"
"103.23426","49.565483","876372","0.60703814"
"103.48431","50.12554","876389","0.6099707"
"103.60431","50.455578","876405","0.6119257"
"103.76434","50.725605","876422","0.6119257"
"103.90435","50.975636","876439","0.61876833"
"104.01437","51.195656","876455","0.6353861"
"104.1644","51.575703","876472","0.6177908"
"104.28442","51.80573","876489","0.61876833"
"104.394424","52.03575","876505","0.61974585"
"104.8745","52.805836","876572","0.6236559"
"105.01452","52.975853","876589","0.6217009"
"105.324554","53.20588","876605","0.61485827"
"105.42457","53.395897","876622","0.6158358"
"105.444565","53.485912","876639","0.6168133"
"105.534584","53.675934","876655","0.6168133"
"105.58459","53.975967","876670","0.6177908"
"105.6646","54.16599","876689","0.61876833"
"105.6946","54.306004","876702","0.61974585"
"105.784615","54.446014","876722","0.62072337"
"105.81463","54.586033","876739","0.6217009"
"105.84463","54.716045","876755","0.6236559"
"105.884636","54.986076","876772","0.62561095"
"105.90464","55.116093","876789","0.627566"
"105.90464","55.236107","876805","0.6285435"
"105.92464","55.376118","876820","0.629521"
"105.92464","55.546135","876839","0.6304985"
"105.85463","55.816174","876855","0.6304985"
"105.79462","55.99619","876872","0.63147604"
"105.734604","56.186214","876889","0.63147604"
"105.61459","56.38623","876905","0.63245356"
"105.48457","56.716267","876922","0.6412512"
"105.084526","57.42635","876939","0.65884656"
"104.79447","57.666374","876955","0.6666667"
"104.67447","57.9164","876972","0.6686217"
"104.53445","58.18643","876989","0.6686217"
"104.32442","58.576473","877005","0.6666667"
"104.20439","58.856503","877022","0.6666667"
"104.05438","59.186546","877039","0.6656892"
"103.90435","59.53658","877055","0.6666667"
"103.78434","59.84661","877072","0.6666667"
"103.63432","60.27666","877089","0.6666667"
"103.514305","60.5767","877105","0.6656892"
"103.44429","60.88673","877122","0.66471165"
"103.364296","61.16676","877139","0.66373414"
"103.25427","61.516804","877155","0.6627566"
"103.20426","61.72682","877172","0.6617791"
"103.134254","61.97685","877189","0.6676442"
"103.00423","62.26688","877205","0.6725318"
"102.934235","62.516914","877222","0.67057675"
"102.8042","62.826942","877239","0.67155427"
"102.7442","63.01696","877255","0.67155427"
"102.70419","63.116974","877272","0.67057675"
"102.61418","63.276993","877289","0.67057675"
"102.46416","63.537025","877305","0.67057675"
"102.29413","63.81705","877322","0.66959924"
"102.19412","64.04707","877339","0.66959924"
"102.09411","64.2371","877355","0.6686217"
"101.94409","64.36712","877368","0.6686217"
"101.84407","64.39712","877387","0.6686217"
"101.84407","64.39712","877422","0.66959924"
"101.744064","64.49713","877430","0.6686217"
"101.73406","64.39712","877505","0.6686217"
"101.75406","64.257095","877522","0.66959924"
"101.86407","64.017075","877539","0.67057675"
"101.98409","63.637035","877555","0.67057675"
"102.16411","63.36701","877572","0.67155427"
"102.31414","63.08697","877588","0.67155427"
"102.44416","62.806946","877605","0.6725318"
"102.69419","62.23688","877622","0.6735093"
"102.884224","61.836838","877638","0.66959924"
"103.02425","61.5368","877655","0.6676442"
"103.134254","61.216763","877672","0.6686217"
"103.264275","60.906734","877688","0.6686217"
"103.514305","60.456684","877705","0.67057675"
"103.63432","60.186653","877722","0.67155427"
"103.68433","59.90662","877738","0.6725318"
"103.81435","59.566586","877755","0.6735093"
"103.96438","58.96652","877772","0.6744868"
"104.09438","58.686485","877788","0.67546433"
"104.21441","58.43646","877805","0.67644185"
"104.33441","58.19643","877822","0.67741936"
"104.444435","57.97641","877838","0.67741936"
"104.564445","57.62637","877855","0.67741936"
"104.66447","57.38634","877872","0.6783969"
"104.79447","56.926292","877888","0.67057675"
"104.9145","56.506245","877905","0.6617791"
"105.17454","56.266216","877922","0.65689147"
"105.544586","55.886177","877938","0.6539589"
"105.65461","55.646156","877955","0.65493643"
"105.79462","55.396122","877972","0.65591395"
"105.89464","55.146095","877988","0.65591395"
"106.02466","54.846066","878005","0.65689147"
"106.15467","54.646038","878022","0.65689147"
"106.27469","54.436016","878038","0.65786904"
"106.45472","54.205994","878055","0.65786904"
"106.66474","53.875957","878072","0.65884656"
"107.02479","53.395897","878088","0.6598241"
"107.25482","53.155876","878105","0.6608016"
"107.474846","52.915848","878122","0.6608016"
"107.71489","52.705826","878138","0.6617791"
"107.96492","52.515804","878155","0.6617791"
"108.32497","52.265778","878172","0.6608016"
"108.525","52.11576","878188","0.6608016"
"108.72502","51.975746","878205","0.6617791"
"108.92506","51.855732","878222","0.6617791"
"109.2851","51.5857","878238","0.6617791"
"109.50513","51.465687","878255","0.6608016"
"109.595146","51.37568","878272","0.6608016"
"109.72517","51.28567","878288","0.6608016"
"109.965195","51.175655","878305","0.66373414"
"110.12521","51.125652","878322","0.66471165"
"110.24523","51.035637","878338","0.66471165"
"110.37525","50.985634","878355","0.66373414"
"110.49526","50.895626","878372","0.66373414"
"110.70529","50.825623","878388","0.66373414"
"110.82532","50.775608","878405","0.66373414"
"110.92532","50.735607","878422","0.66373414"
"110.92532","50.715607","878438","0.6627566"
"111.01535","50.675602","878455","0.66373414"
"111.11536","50.635597","878472","0.6627566"
"111.11536","50.615593","878488","0.6627566"
"111.11536","50.615593","878517","0.6617791"
"111.09535","50.715607","878538","0.6617791"
"110.945335","50.815617","878555","0.6627566"
"110.67529","51.045643","878572","0.6676442"
"110.435265","51.255665","878588","0.6676442"
"110.07522","51.495693","878605","0.6617791"
"109.39511","51.875732","878622","0.6598241"
"109.045074","52.12576","878638","0.6598241"
"108.72502","52.38579","878655","0.6598241"
"108.41498","52.655823","878672","0.6598241"
"108.11494","52.90585","878688","0.6598241"
"107.72488","53.285892","878705","0.65884656"
"107.49486","53.555923","878722","0.65786904"
"107.30483","53.915962","878738","0.65786904"
"107.14481","54.286003","878755","0.65689147"
"107.014786","54.56603","878772","0.65689147"
"106.89478","54.96608","878788","0.65591395"
"106.82477","55.226105","878805","0.65591395"
"106.75476","55.486134","878822","0.65591395"
"106.70475","55.746166","878838","0.65493643"
"106.66474","56.106205","878855","0.6529814"
"106.634735","56.346226","878872","0.6529814"
"106.624725","56.70627","878888","0.6608016"
"106.624725","57.17632","878905","0.66959924"
"106.624725","57.526356","878922","0.66959924"
"106.624725","57.876396","878938","0.67057675"
"106.624725","58.106426","878955","0.67057675"
"106.64474","58.326447","878972","0.67057675"
"106.66474","58.546474","878988","0.67057675"
"106.73475","58.916515","879005","0.67057675"
"106.784744","59.31656","879022","0.66959924"
"106.82477","59.746605","879038","0.66959924"
"106.884766","60.09664","879055","0.66959924"
"107.014786","60.5967","879072","0.66959924"
"107.124794","60.916733","879088","0.6686217"
"107.26482","61.236767","879105","0.6686217"
"107.39485","61.586803","879122","0.6676442"
"107.51485","62.036854","879138","0.6725318"
"107.56486","62.476902","879155","0.67644185"
"107.8049","62.99696","879172","0.6744868"
"107.96492","63.347004","879188","0.67546433"
"108.14495","63.707043","879205","0.6744868"
"108.33498","64.06708","879222","0.6744868"
"108.615","64.65715","879238","0.6744868"
"108.81504","65.08719","879255","0.6735093"
"109.03507","65.49724","879272","0.6735093"
"109.25509","65.897285","879288","0.6725318"
"109.51513","66.297325","879305","0.67155427"
"110.08521","66.89739","879322","0.67155427"
"110.42526","67.28744","879338","0.6735093"
"110.7253","67.64748","879355","0.67546433"
"111.01535","68.04752","879372","0.6744868"
"111.29537","68.46757","879388","0.6735093"
"111.775444","69.067635","879405","0.6735093"
"112.14549","69.45768","879422","0.67155427"
"112.575554","69.87772","879438","0.67057675"
"112.93561","70.287766","879455","0.6686217"
"113.39567","70.83783","879472","0.6656892"
"113.69571","71.13786","879488","0.66373414"
"113.975746","71.387886","879505","0.6617791"
"114.23578","71.63792","879522","0.6656892"
"114.49582","71.89795","879538","0.6666667"
"114.90588","72.277985","879555","0.6598241"
"115.31593","72.54802","879572","0.6686217"
"115.71599","72.78805","879588","0.6793744"
"115.93603","72.90806","879605","0.6783969"
"116.21605","73.008064","879622","0.67644185"
"116.35607","72.99807","879638","0.67546433"
"116.45609","72.88806","879655","0.67644185"
"116.4761","72.73804","879672","0.67644185"
"116.4761","72.53802","879688","0.6803519"
"116.27608","72.02796","879705","0.6930596"
"116.01603","71.54791","879722","0.6959922"
"115.745995","71.07786","879738","0.69501466"
"115.43595","70.63781","879755","0.6920821"
"115.0459","70.18776","879772","0.68230695"
"114.51583","69.357666","879788","0.68328446"
"114.14578","68.737595","879805","0.6852395"
"113.78573","68.12753","879822","0.68914956"
"113.42567","67.52746","879838","0.6911046"
"112.8856","66.63737","879855","0.6959922"
"112.45555","66.017296","879872","0.6920821"
"112.05549","65.29722","879888","0.69403714"
"111.735435","64.51713","879905","0.6959922"
"111.46541","63.79705","879922","0.6969697"
"111.26538","63.026966","879938","0.6989247"
"111.20536","62.71693","879955","0.6989247"
"111.195366","62.50691","879971","0.6989247"
"111.21538","62.386894","879988","0.6989247"
"111.38538","62.356895","880005","0.6989247"
"111.72545","62.356895","880022","0.6969697"
"112.08549","62.596916","880038","0.6959922"
"112.56556","62.906956","880055","0.69403714"
"113.035614","63.307","880072","0.6920821"
"113.68571","64.017075","880088","0.68817204"
"114.105774","64.53713","880105","0.6852395"
"114.46582","65.08719","880122","0.68230695"
"114.84587","65.647255","880138","0.6852395"
"115.29594","66.177315","880155","0.69403714"
"115.76599","66.9774","880172","0.69990224"
"116.03603","67.487465","880188","0.6989247"
"116.30607","67.927505","880205","0.6979472"
"116.5561","68.31755","880222","0.6959922"
"117.006165","68.89761","880238","0.6911046"
"117.36623","69.24766","880255","0.6901271"
"117.74626","69.53769","880272","0.6871945"
"118.106316","69.77772","880288","0.686217"
"118.396355","69.89773","880305","0.6852395"
"118.72641","70.00774","880322","0.68328446"
"118.81643","70.02774","880338","0.68328446"
"118.946434","70.01774","880355","0.684262"
"119.036446","69.79772","880372","0.686217"
"119.00645","69.48768","880388","0.68914956"
"118.58639","68.64758","880405","0.69501466"
"118.12633","67.967514","880422","0.6989247"
"117.556244","67.21743","880438","0.6979472"
"116.96616","66.40734","880455","0.70087975"
"116.19605","65.1372","880472","0.7086999"
"115.72599","64.27711","880488","0.71163243"
"115.14591","63.487015","880505","0.7038123"
"114.62584","62.846943","880522","0.6959922"
"114.3358","62.306885","880538","0.7028348"
"114.08577","61.62681","880555","0.69403714"
"114.02576","61.346783","880572","0.6901271"
"114.02576","61.13676","880588","0.68914956"
"114.135765","61.05675","880605","0.6871945"
"114.27579","61.05675","880622","0.684262"
"114.75586","61.416786","880638","0.6852395"
"115.29594","61.82683","880655","0.68230695"
"115.826004","62.286884","880672","0.68914956"
"116.296074","62.69693","880688","0.70087975"
"116.94615","63.327003","880705","0.6959922"
"117.35622","63.847054","880722","0.6920821"
"117.78628","64.41712","880738","0.6901271"
"118.22635","64.98718","880755","0.6871945"
"118.626396","65.51724","880772","0.684262"
"119.21648","66.21732","880788","0.6813294"
"119.626526","66.577354","880805","0.6783969"
"120.036575","66.9174","880822","0.67741936"
"120.346634","67.20743","880838","0.68817204"
"120.8267","67.50746","880855","0.6959922"
"121.14674","67.61748","880872","0.6930596"
"121.406784","67.71748","880888","0.6930596"
"121.50679","67.73749","880905","0.69403714"
"121.6168","67.73749","880922","0.6959922"
"121.63681","67.41745","880938","0.6979472"
"121.5968","67.08741","880955","0.7038123"
"121.39678","66.64737","880972","0.7038123"
"121.12674","66.13731","880988","0.6989247"
"120.8267","65.55724","881005","0.70185727"
"120.32663","64.51713","881022","0.6979472"
"119.96658","63.837055","881038","0.6911046"
"119.54652","63.22699","881055","0.69403714"
"119.166466","62.666927","881072","0.6959922"
"118.61639","61.72682","881088","0.6989247"
"118.186325","61.196766","881105","0.6920821"
"117.83629","60.78672","881122","0.69403714"
"117.54624","60.476685","881138","0.6959922"
"117.33621","60.106644","881155","0.6969697"
"117.30621","59.916626","881172","0.6959922"
"117.32622","59.796608","881188","0.69403714"
"117.50623","59.78661","881205","0.6920821"
"117.75626","59.806606","881222","0.68817204"
"118.13632","59.966625","881238","0.684262"
"118.87643","60.35667","881255","0.6793744"
"119.3865","60.696712","881272","0.67546433"
"119.85656","61.066746","881288","0.67155427"
"120.30663","61.446793","881305","0.6676442"
"120.81669","62.146873","881322","0.6725318"
"121.23675","62.706932","881338","0.6803519"
"121.6168","63.276993","881355","0.68817204"
"121.90685","63.86706","881372","0.686217"
"122.2869","64.43712","881388","0.68328446"
"122.95699","65.1272","881405","0.6793744"
"123.217026","65.477234","881422","0.6930596"
"123.437065","65.73727","881438","0.70674485"
"123.717094","65.86728","881455","0.70576733"
"124.107155","65.98729","881472","0.7047898"
"124.307175","65.98729","881488","0.7047898"
"124.45719","65.90728","881505","0.70576733"
"124.557205","65.767265","881522","0.70772237"
"124.57722","65.487236","881538","0.7096774"
"124.477196","64.65715","881555","0.71260995"
"124.26717","63.98707","881572","0.7155425"
"123.98714","63.387005","881588","0.72140765"
"123.637085","62.866947","881605","0.72825027"
"123.387054","62.346897","881622","0.7233627"
"122.756966","61.496796","881638","0.7028348"
"122.1869","60.89673","881655","0.70185727"
"121.68681","60.236656","881672","0.70576733"
"121.11673","59.54658","881688","0.7096774"
"120.40664","58.576473","881705","0.7047898"
"119.99659","58.016415","881722","0.6979472"
"119.45651","57.546364","881738","0.7028348"
"118.85643","56.986305","881755","0.69990224"
"118.236336","56.44624","881772","0.69501466"
"117.396225","55.766163","881788","0.70087975"
"116.91615","55.236107","881805","0.7038123"
"116.5061","54.786057","881822","0.70674485"
"116.086044","54.37601","881838","0.7096774"
"115.66598","53.99597","881855","0.71260995"
"114.96589","53.335896","881872","0.70674485"
"114.44582","52.83584","881888","0.70087975"
"114.01575","52.455803","881905","0.7028348"
"113.5757","52.11576","881922","0.7047898"
"112.90561","51.64571","881938","0.7086999"
"112.42554","51.305668","881955","0.7047898"
"111.93546","50.915623","881972","0.7047898"
"111.46541","50.51558","881988","0.71163243"
"111.00533","50.115543","882005","0.71358746"
"110.28523","49.475468","882022","0.714565"
"109.76516","49.145435","882038","0.714565"
"109.225105","48.745388","882055","0.71358746"
"108.67502","48.12532","882072","0.714565"
"107.814896","47.41524","882088","0.7106549"
"107.29483","46.82518","882105","0.7155425"
"106.82477","46.05509","882122","0.71358746"
"106.3847","45.385017","882138","0.714565"
"105.964645","44.874958","882155","0.71652"
"105.324554","44.074875","882172","0.72043014"
"104.89449","43.534813","882188","0.7243402"
"104.604454","42.934746","882205","0.72825027"
"104.2444","42.304676","882222","0.73313785"
"103.724335","41.68461","882238","0.73313785"
"103.00423","40.784508","882255","0.73313785"
"102.57417","40.16444","882272","0.73216033"
"102.114105","39.604378","882288","0.73216033"
"101.67405","39.024315","882305","0.7292278"
"101.15398","38.08421","882322","0.7468231"
"100.78392","37.45414","882338","0.76441836"
"100.29386","36.854073","882355","0.7605083"
"99.8438","36.244003","882372","0.75757575"
"99.40374","35.55393","882388","0.7556207"
"98.24357","34.083767","882422","0.74584556"
"97.853516","33.4737","882438","0.74486804"
"97.53347","32.783623","882455","0.7614858"
"97.28344","32.173557","882472","0.773216"
"96.88339","31.283459","882488","0.76246333"
"96.62335","30.733398","882505","0.75659823"
"96.31331","30.083326","882522","0.75659823"
"96.003265","29.443254","882538","0.7556207"
"95.68322","28.69317","882555","0.7497556"
"95.44319","28.203117","882572","0.74584556"
"95.123146","27.60305","882588","0.7350929"
"94.8331","26.982985","882605","0.75268817"
"94.613075","26.392918","882622","0.7771261"
"94.14301","25.392805","882638","0.77028346"
"93.762955","24.782742","882655","0.7673509"
"93.42291","24.24268","882672","0.76441836"
"93.10287","23.872639","882688","0.7536657"
"92.74282","23.182562","882705","0.7614858"
"92.422775","22.542492","882722","0.7771261"
"92.112724","21.842415","882738","0.7771261"
"91.83269","21.242348","882755","0.7771261"
"91.53265","20.652283","882772","0.7781036"
"90.87255","19.702177","882788","0.77517104"
"90.4425","19.052105","882805","0.7614858"
"90.06245","18.392033","882822","0.7478006"
"89.60239","17.74196","882838","0.7497556"
"89.08231","17.021881","882855","0.75171065"
"88.2322","15.951763","882872","0.7556207"
"87.67211","15.3817005","882888","0.75659823"
"87.13204","14.74163","882905","0.75757575"
"86.67198","14.161566","882922","0.75855327"
"85.971886","13.401482","882938","0.73900294"
"85.51182","12.84142","882955","0.71652"
"85.05175","12.231352","882972","0.7155425"
"84.571686","11.641287","882988","0.71652"
"83.75157","10.941209","883005","0.71652"
"83.2015","10.431153","883022","0.7155425"
"82.65142","9.741076","883038","0.714565"
"82.10135","9.030998","883055","0.7155425"
"81.54127","8.480937","883072","0.7302053"
"80.97119","8.060891","883088","0.7155425"
"80.42111","7.6908503","883105","0.684262"
"79.86103","7.2408","883122","0.6793744"
"79.24095","6.8207536","883138","0.67546433"
"78.59086","6.570726","883155","0.6735093"
"77.57072","6.2806945","883172","0.6793744"
"77.57072","6.2806945","883181","0.6803519"
"77.04064","6.2406898","883205","0.6725318"
"76.630585","6.3407006","883222","0.6598241"
"76.630585","6.3407006","883238","0.66373414"
"76.18053","6.6707373","883255","0.64907134"
"76.18053","6.6707373","883272","0.6363636"
"75.920494","7.2307997","883288","0.62072337"
"75.920494","7.2307997","883305","0.6226784"
"75.73047","7.6408453","883322","0.62463343"
"75.580444","8.080893","883338","0.67057675"
"75.580444","8.080893","883355","0.71260995"
"75.60045","8.640955","883372","0.7106549"
"75.74046","9.511052","883388","0.6744868"
"75.85048","10.501161","883405","0.63831866"
"75.89049","11.061223","883422","0.63831866"
"76.0005","11.551276","883438","0.63831866"
"76.11052","12.12134","883455","0.63831866"
"76.220535","12.741408","883472","0.64418375"
"76.560585","13.711516","883488","0.69403714"
"76.79061","14.371588","883505","0.7028348"
"77.020645","15.021661","883522","0.71163243"
"77.270676","15.611726","883538","0.72043014"
"77.72074","16.531828","883555","0.72140765"
"78.070786","17.27191","883572","0.72140765"
"78.43084","18.00199","883588","0.72043014"
"78.80089","18.662064","883605","0.714565"
"79.19094","19.382143","883621","0.73216033"
"79.78102","20.412256","883638","0.7546432"
"80.181076","21.082329","883655","0.7556207"
"80.561134","21.842415","883671","0.7556207"
"80.95119","22.732513","883688","0.7556207"
"81.39124","23.622612","883705","0.7605083"
"81.97133","24.722734","883721","0.7605083"
"82.36138","25.382805","883738","0.76344085"
"82.81144","26.022879","883755","0.7653959"
"83.2515","26.802963","883771","0.7663734"
"83.891594","27.713064","883788","0.7380254"
"84.28165","28.353134","883805","0.73216033"
"84.64169","29.013206","883821","0.7350929"
"84.96174","29.593273","883838","0.73900294"
"85.27178","30.073324","883855","0.742913"
"85.69183","30.693394","883871","0.7487781"
"86.041885","31.093435","883888","0.7487781"
"86.341934","31.38347","883905","0.7497556"
"86.45195","31.57349","883921","0.75073314"
"86.58196","31.693502","883938","0.7497556"
"86.70198","31.883524","883955","0.6969697"
"86.56196","31.873524","883971","0.2580645"
"86.54196","31.973532","883979","0.0039100684"
"86.381935","32.133553","884044","0.0039100684"
"86.381935","32.133553","884045","0.0039100684"
